epoch,train_loss,eval_loss,f1_score,precision,recall,lr,adam_lr
0,2.407816708087921,2.5154062509536743,,,,0.0005,0.0005
1,2.3433869928121567,2.4501320123672485,,,,0.0005,0.0005
2,2.289518803358078,2.401992380619049,,,,0.0005,0.0005
3,2.235930234193802,2.350453555583954,,,,0.0005,0.0005
4,2.184397041797638,2.2963637113571167,,,,0.0005,0.0005
5,2.1307775378227234,2.2406594157218933,,,,0.0005,0.0005
6,2.076606921851635,2.1855951249599457,,,,0.0005,0.0005
7,2.0096085220575333,2.107201486825943,,,,0.0005,0.0005
8,1.9405857771635056,2.038168042898178,,,,0.0005,0.0005
9,1.8585995510220528,1.9471014738082886,,,,0.0005,0.0005
10,1.7594307512044907,1.8370285332202911,,,,0.0005,0.0005
11,1.6436426490545273,1.6923361718654633,,,,0.0005,0.0005
12,1.4863663837313652,1.5242721438407898,,,,0.0005,0.0005
13,1.305292621254921,1.3214906752109528,,,,0.0005,0.0005
14,1.0890047065913677,1.0740552097558975,,,,0.0005,0.0005
15,0.8238139972090721,0.7807518988847733,,,,0.0005,0.0005
16,0.515393577516079,0.45943621546030045,,,,0.0005,0.0005
17,0.2425455548800528,0.26962362229824066,,,,0.0005,0.0005
18,0.16234296234324574,0.24512693658471107,,,,0.0005,0.0005
19,0.160169773735106,0.2405988909304142,,,,0.0005,0.0005
20,0.16047490201890469,0.24485335871577263,,,,0.0005,0.0005
21,0.15818230621516705,0.2493223361670971,,,,0.0005,0.0005
22,0.15746712312102318,0.2408839836716652,,,,0.0005,0.0005
23,0.15691666956990957,0.24288802593946457,,,,0.0005,0.0005
24,0.15576432459056377,0.24235644191503525,,,,0.0005,0.0005
25,0.15820444887503982,0.2417314276099205,,,,0.0005,0.0005
26,0.156214932911098,0.24546604044735432,,,,0.0005,0.0005
27,0.15377749409526587,0.24087946116924286,,,,0.0005,0.0005
28,0.15563085628673434,0.24839899316430092,,,,0.0005,0.0005
29,0.15229707676917315,0.24162134155631065,,,,0.0005,0.0005
30,0.1525186114013195,0.23409371823072433,,,,0.0005,0.0005
31,0.15024670585989952,0.23752066120505333,,,,0.0005,0.0005
32,0.1517096827737987,0.23537082970142365,,,,0.0005,0.0005
33,0.1505102734081447,0.23930225148797035,,,,0.0005,0.0005
34,0.1496556643396616,0.23082195594906807,,,,0.0005,0.0005
35,0.14582577114924788,0.23409963957965374,,,,0.0005,0.0005
36,0.1425620629452169,0.22584819048643112,,,,0.0005,0.0005
37,0.13967961724847555,0.22259797528386116,,,,0.0005,0.0005
38,0.1404130132868886,0.22295249998569489,,,,0.0005,0.0005
39,0.1412108433432877,0.22060106694698334,,,,0.0005,0.0005
40,0.1376901464536786,0.21662448719143867,,,,0.0005,0.0005
41,0.1374155916273594,0.21703935600817204,,,,0.0005,0.0005
42,0.1360543300397694,0.2238418087363243,,,,0.0005,0.0005
43,0.1356150123756379,0.21682844683527946,,,,0.0005,0.0005
44,0.1340939779765904,0.21325757168233395,,,,0.0005,0.0005
45,0.13251840602606535,0.21905197203159332,,,,0.0005,0.0005
46,0.13342291582375765,0.20858250558376312,,,,0.0005,0.0005
47,0.13022290589287877,0.21030455827713013,,,,0.0005,0.0005
48,0.13085552211850882,0.2093046810477972,,,,0.0005,0.0005
49,0.13323752582073212,0.20941983722150326,,,,0.0005,0.0005
50,0.12824122747406363,0.20651967264711857,,,,0.0005,0.0005
51,0.12774320831522346,0.21139364689588547,,,,0.0005,0.0005
52,0.12986787338741124,0.1998840644955635,,,,0.0005,0.0005
53,0.12588280672207475,0.20626145973801613,,,,0.0005,0.0005
54,0.12533480441197753,0.20133673399686813,,,,0.0005,0.0005
55,0.12886450858786702,0.2011241540312767,,,,0.0005,0.0005
56,0.12721907440572977,0.20130115747451782,,,,0.0005,0.0005
57,0.1253400295972824,0.2011062279343605,,,,0.0005,0.0005
58,0.12409148598089814,0.19636660628020763,,,,0.0005,0.0005
59,0.12528647622093558,0.19880886003375053,,,,0.0005,0.0005
60,0.12180557800456882,0.19736085459589958,,,,0.0005,0.0005
61,0.12184333032928407,0.19631371647119522,,,,0.0005,0.0005
62,0.12355560017749667,0.1955246776342392,,,,0.0005,0.0005
63,0.12187247746624053,0.19661155343055725,,,,0.0005,0.0005
64,0.12420745706185699,0.19382582232356071,,,,0.0005,0.0005
65,0.12133155204355717,0.1953420639038086,,,,0.0005,0.0005
66,0.1213571042753756,0.1987013090401888,,,,0.0005,0.0005
67,0.12055489886552095,0.19480643048882484,,,,0.0005,0.0005
68,0.12196454079821706,0.19198420457541943,,,,0.0005,0.0005
69,0.11954855360090733,0.18825602158904076,,,,0.0005,0.0005
70,0.11761686415411532,0.1951033342629671,,,,0.0005,0.0005
71,0.11769457999616861,0.18678505159914494,,,,0.0005,0.0005
72,0.11960913380607963,0.18861080333590508,,,,0.0005,0.0005
73,0.11915560951456428,0.18671167641878128,,,,0.0005,0.0005
74,0.11709266854450107,0.18733008578419685,,,,0.0005,0.0005
75,0.12155829672701657,0.18546981923282146,,,,0.0005,0.0005
76,0.11622946383431554,0.18970736302435398,,,,0.0005,0.0005
77,0.11783812660723925,0.18641894310712814,,,,0.0005,0.0005
78,0.11581916664727032,0.18604899384081364,,,,0.0005,0.0005
79,0.11548313009552658,0.18817169219255447,,,,0.0005,0.0005
80,0.11629884061403573,0.1826213113963604,,,,0.0005,0.0005
81,0.11626015650108457,0.18402907066047192,,,,0.0005,0.0005
82,0.11470182798802853,0.1816498562693596,,,,0.0005,0.0005
83,0.11215862864628434,0.19416477344930172,,,,0.0005,0.0005
84,0.11186162591911852,0.18229765444993973,,,,0.0005,0.0005
85,0.1135245282202959,0.17706729844212532,,,,0.0005,0.0005
86,0.11238723900169134,0.17750662565231323,,,,0.0005,0.0005
87,0.11302095511928201,0.17834907956421375,,,,0.0005,0.0005
88,0.1106438166461885,0.18030701205134392,,,,0.0005,0.0005
89,0.10953899030573666,0.18735163379460573,,,,0.0005,0.0005
90,0.110414600931108,0.1775614246726036,,,,0.0005,0.0005
91,0.10943829594179988,0.17540668696165085,,,,0.0005,0.0005
92,0.10890016122721136,0.17421391047537327,,,,0.0005,0.0005
93,0.10910577699542046,0.17410140298306942,,,,0.0005,0.0005
94,0.1089895605109632,0.18144075199961662,,,,0.0005,0.0005
95,0.10826729820109904,0.17200265638530254,,,,0.0005,0.0005
96,0.10949746007099748,0.1722380891442299,,,,0.0005,0.0005
97,0.11029004515148699,0.169698778539896,,,,0.0005,0.0005
98,0.1048619372304529,0.17014401406049728,,,,0.0005,0.0005
99,0.10580717422999442,0.1636603530496359,,,,0.0005,0.0005
100,0.10255144990514964,0.1657697595655918,,,,0.0005,0.0005
101,0.10630086320452392,0.16888830065727234,,,,0.0005,0.0005
102,0.10335889621637762,0.16260230541229248,,,,0.0005,0.0005
103,0.10356147075071931,0.16529429331421852,,,,0.0005,0.0005
104,0.1023162801284343,0.16340561024844646,,,,0.0005,0.0005
105,0.10110560874454677,0.16238054726272821,,,,0.0005,0.0005
106,0.10108704585582018,0.1599015649408102,,,,0.0005,0.0005
107,0.10065233032219112,0.16416730172932148,,,,0.0005,0.0005
108,0.10189081821590662,0.15890122763812542,,,,0.0005,0.0005
109,0.09977652179077268,0.16271132603287697,,,,0.0005,0.0005
110,0.09905056143179536,0.1622349340468645,,,,0.0005,0.0005
111,0.09843283542431891,0.17152859456837177,,,,0.0005,0.0005
112,0.0983499763533473,0.15693905390799046,,,,0.0005,0.0005
113,0.09739445033483207,0.16082129627466202,,,,0.0005,0.0005
114,0.0983593207783997,0.1602834202349186,,,,0.0005,0.0005
115,0.09703157655894756,0.1568737793713808,,,,0.0005,0.0005
116,0.09408596623688936,0.15416549146175385,,,,0.0005,0.0005
117,0.09551840019412339,0.15440542623400688,,,,0.0005,0.0005
118,0.09168497007340193,0.15392621234059334,,,,0.0005,0.0005
119,0.0921414450276643,0.15435497649013996,,,,0.0005,0.0005
120,0.09364234120585024,0.15114606264978647,,,,0.0005,0.0005
121,0.08983428147621453,0.15880687907338142,,,,0.0005,0.0005
122,0.090063615469262,0.1515317913144827,,,,0.0005,0.0005
123,0.09131601545959711,0.1528939437121153,,,,0.0005,0.0005
124,0.08879461279138923,0.14918178971856833,,,,0.0005,0.0005
125,0.08838300965726376,0.14617855101823807,,,,0.0005,0.0005
126,0.08804401848465204,0.14499551616609097,,,,0.0005,0.0005
127,0.08773639355786145,0.15825215727090836,,,,0.0005,0.0005
128,0.08787272009067237,0.13911661691963673,,,,0.0005,0.0005
129,0.08832460106350482,0.1415233314037323,,,,0.0005,0.0005
130,0.09050830826163292,0.14213445037603378,,,,0.0005,0.0005
131,0.08652616757899523,0.14282441977411509,,,,0.0005,0.0005
132,0.08586212852969766,0.14283088222146034,,,,0.0005,0.0005
133,0.08610595646314323,0.13728840183466673,,,,0.0005,0.0005
134,0.08725414576474577,0.1368795344606042,,,,0.0005,0.0005
135,0.08580279909074306,0.1384618617594242,,,,0.0005,0.0005
136,0.08666349621489644,0.1393875451758504,,,,0.0005,0.0005
137,0.08734396495856345,0.13946785870939493,,,,0.0005,0.0005
138,0.08491943206172436,0.13795806467533112,,,,0.0005,0.0005
139,0.08144305762834847,0.14463190268725157,,,,0.0005,0.0005
140,0.08115982310846448,0.14070425927639008,,,,0.0005,0.0005
141,0.08121758268680423,0.14175316039472818,,,,0.0005,0.0005
142,0.0844094631029293,0.13390698097646236,,,,0.0005,0.0005
143,0.08084634563419968,0.13645675592124462,,,,0.0005,0.0005
144,0.08359268330968916,0.15746407955884933,,,,0.0005,0.0005
145,0.08551599783822894,0.13816012814641,,,,0.0005,0.0005
146,0.0818539917236194,0.13855972792953253,,,,0.0005,0.0005
147,0.08243726566433907,0.13964707870036364,,,,0.0005,0.0005
148,0.08144256414379925,0.15362075343728065,,,,0.0005,0.0005
149,0.08132631168700755,0.1375878993421793,,,,0.0005,0.0005
150,0.07942669396288693,0.13467717543244362,,,,0.0005,0.0005
151,0.07970421190839261,0.1376630775630474,,,,0.0005,0.0005
152,0.07900767703540623,0.14623076329007745,,,,0.0005,0.0005
153,0.07929088338278234,0.1358153596520424,,,,0.00035,0.00035
154,0.08149749785661697,0.13149792328476906,,,,0.00035,0.00035
155,0.0802997249411419,0.133922609500587,,,,0.00035,0.00035
156,0.0786844224203378,0.1369068343192339,,,,0.00035,0.00035
157,0.07867156364955008,0.13681777194142342,,,,0.00035,0.00035
158,0.08115084446035326,0.14081325754523277,,,,0.00035,0.00035
159,0.0777228637598455,0.13551474828273058,,,,0.00035,0.00035
160,0.0800559320487082,0.1316111832857132,,,,0.00035,0.00035
161,0.07990479294676334,0.13118733651936054,,,,0.00035,0.00035
162,0.08038171951193362,0.13975729048252106,,,,0.00035,0.00035
163,0.07787906285375357,0.1326473243534565,,,,0.00035,0.00035
164,0.07806333480402827,0.13421100936830044,,,,0.00035,0.00035
165,0.08059282798785716,0.13510483130812645,,,,0.00035,0.00035
166,0.07938512263353914,0.13426508754491806,,,,0.00035,0.00035
167,0.08144260954577476,0.13366692885756493,,,,0.00035,0.00035
168,0.08030282729305327,0.13274457678198814,,,,0.00035,0.00035
169,0.07811162178404629,0.13348110765218735,,,,0.00035,0.00035
170,0.07798212789930403,0.1370228175073862,,,,0.00035,0.00035
171,0.07912043354008347,0.1303536370396614,,,,0.00035,0.00035
172,0.07729410275351256,0.1400909647345543,,,,0.00035,0.00035
173,0.07843383261933923,0.13827135786414146,,,,0.00035,0.00035
174,0.0771940746344626,0.1328216129913926,,,,0.00035,0.00035
175,0.07862163032405078,0.1339819598942995,,,,0.00035,0.00035
176,0.07791834906674922,0.13246414624154568,,,,0.00035,0.00035
177,0.07781198911834508,0.1345893181860447,,,,0.00035,0.00035
178,0.07757214934099466,0.13768590427935123,,,,0.00035,0.00035
179,0.07911707297898829,0.13297213800251484,,,,0.00035,0.00035
180,0.0768988715717569,0.13280445523560047,,,,0.00035,0.00035
181,0.07994094234891236,0.13894972205162048,,,,0.00035,0.00035
182,0.07704012817703187,0.13062637858092785,,,,0.000245,0.000245
183,0.07886454451363534,0.13449163921177387,,,,0.000245,0.000245
184,0.08009230461902916,0.13824389316141605,,,,0.000245,0.000245
185,0.07793994818348438,0.14024722389876842,,,,0.000245,0.000245
186,0.07959745242260396,0.138284164480865,,,,0.000245,0.000245
187,0.07800257857888937,0.13299558497965336,,,,0.000245,0.000245
188,0.07777059450745583,0.13244340755045414,,,,0.000245,0.000245
189,0.07814913033507764,0.1377616785466671,,,,0.000245,0.000245
190,0.07939463155344129,0.12927181087434292,,,,0.000245,0.000245
191,0.07700517098419368,0.13141120970249176,,,,0.000245,0.000245
192,0.07753804314415902,0.13507324270904064,,,,0.000245,0.000245
193,0.07770652510225773,0.1342287715524435,,,,0.000245,0.000245
194,0.08205655741039664,0.13561012223362923,,,,0.000245,0.000245
195,0.07932752755004913,0.1332235336303711,,,,0.000245,0.000245
196,0.07784053357318044,0.13202436082065105,,,,0.000245,0.000245
197,0.07897515699733049,0.13361744210124016,,,,0.000245,0.000245
198,0.07784557098057121,0.13388423062860966,,,,0.000245,0.000245
199,0.07849717163480818,0.1312063354998827,,,,0.000245,0.000245
200,0.07649434707127512,0.14918387262150645,,,,0.000245,0.000245
201,0.07766507205087692,0.13087160140275955,,,,0.0001715,0.0001715
202,0.07854173437226564,0.1327787209302187,,,,0.0001715,0.0001715
203,0.07750034611672163,0.1302284374833107,,,,0.0001715,0.0001715
204,0.07801282405853271,0.1349828913807869,,,,0.0001715,0.0001715
205,0.08017229789402336,0.13591321930289268,,,,0.0001715,0.0001715
206,0.07977982191368937,0.12762773968279362,,,,0.0001715,0.0001715
207,0.07898986514192075,0.13251204416155815,,,,0.0001715,0.0001715
208,0.0784603605279699,0.13621619157493114,,,,0.0001715,0.0001715
209,0.07558353338390589,0.13308085314929485,,,,0.0001715,0.0001715
210,0.0780750575941056,0.13326835446059704,,,,0.0001715,0.0001715
211,0.08005569234956056,0.1352364793419838,,,,0.0001715,0.0001715
212,0.0767288957722485,0.13265726901590824,,,,0.0001715,0.0001715
213,0.07777120755054057,0.1415548250079155,,,,0.0001715,0.0001715
214,0.07701281178742647,0.13085680827498436,,,,0.0001715,0.0001715
215,0.07796341949142516,0.13257519342005253,,,,0.0001715,0.0001715
216,0.07978384708985686,0.13540290668606758,,,,0.0001715,0.0001715
217,0.0770872636931017,0.1330291787162423,,,,0.00012004999999999999,0.00012004999999999999
218,0.07919242838397622,0.1310841292142868,,,,0.00012004999999999999,0.00012004999999999999
219,0.07975050550885499,0.1327011762186885,,,,0.00012004999999999999,0.00012004999999999999
220,0.07728042942471802,0.13420245423913002,,,,0.00012004999999999999,0.00012004999999999999
221,0.07686257071327418,0.13565755914896727,,,,0.00012004999999999999,0.00012004999999999999
222,0.07585669669788331,0.13628589920699596,,,,0.00012004999999999999,0.00012004999999999999
223,0.07995577249675989,0.14115569088608027,,,,0.00012004999999999999,0.00012004999999999999
224,0.0777503065764904,0.14193139970302582,,,,0.00012004999999999999,0.00012004999999999999
225,0.07971210253890604,0.13311734795570374,,,,0.00012004999999999999,0.00012004999999999999
226,0.0775618115440011,0.13444018550217152,,,,0.00012004999999999999,0.00012004999999999999
227,0.08143183286301792,0.13145733159035444,,,,0.00012004999999999999,0.00012004999999999999
228,0.07809181464836001,0.13754666689783335,,,,8.403499999999999e-05,8.403499999999999e-05
229,0.07662121893372387,0.13181005790829659,,,,8.403499999999999e-05,8.403499999999999e-05
230,0.07739079801831394,0.13603694923222065,,,,8.403499999999999e-05,8.403499999999999e-05
231,0.07663599611259997,0.14151366148144007,,,,8.403499999999999e-05,8.403499999999999e-05
232,0.076595988124609,0.1327892206609249,,,,8.403499999999999e-05,8.403499999999999e-05
233,0.07849031698424369,0.13361739367246628,,,,8.403499999999999e-05,8.403499999999999e-05
234,0.07694098772481084,0.13337881490588188,,,,8.403499999999999e-05,8.403499999999999e-05
235,0.07771029486320913,0.13926786929368973,,,,8.403499999999999e-05,8.403499999999999e-05
236,0.0777798640774563,0.131319472566247,,,,8.403499999999999e-05,8.403499999999999e-05
237,0.07759828469716012,0.13288803212344646,,,,8.403499999999999e-05,8.403499999999999e-05
238,0.07748021034058183,0.12988265044987202,,,,8.403499999999999e-05,8.403499999999999e-05
239,0.07780655263923109,0.13185931090265512,,,,5.882449999999999e-05,5.882449999999999e-05
240,0.07642307900823653,0.144384422339499,,,,5.882449999999999e-05,5.882449999999999e-05
241,0.07772724470123649,0.1312634414061904,,,,5.882449999999999e-05,5.882449999999999e-05
242,0.08063975779805332,0.13225710950791836,,,,5.882449999999999e-05,5.882449999999999e-05
243,0.07572073885239661,0.1365842381492257,,,,5.882449999999999e-05,5.882449999999999e-05
244,0.07714534830302,0.13205884955823421,,,,5.882449999999999e-05,5.882449999999999e-05
245,0.0772951360559091,0.1398484157398343,,,,5.882449999999999e-05,5.882449999999999e-05
246,0.07752852351404727,0.13411026261746883,,,,5.882449999999999e-05,5.882449999999999e-05
247,0.07999399700202048,0.13709840457886457,,,,5.882449999999999e-05,5.882449999999999e-05
248,0.07596808578819036,0.1332509173080325,,,,5.882449999999999e-05,5.882449999999999e-05
249,0.07670573180075735,0.1307204980403185,,,,5.882449999999999e-05,5.882449999999999e-05
250,0.0759671414270997,0.1343747191131115,,,,4.117714999999999e-05,4.117714999999999e-05
251,0.0783600095892325,0.13307512551546097,,,,4.117714999999999e-05,4.117714999999999e-05
252,0.07858538930304348,0.13314599730074406,,,,4.117714999999999e-05,4.117714999999999e-05
253,0.07712279551196843,0.13380554504692554,,,,4.117714999999999e-05,4.117714999999999e-05
254,0.0769746369915083,0.13975215796381235,,,,4.117714999999999e-05,4.117714999999999e-05
255,0.08041590580251068,0.1328051183372736,,,,4.117714999999999e-05,4.117714999999999e-05
256,0.07789550954475999,0.14115559216588736,,,,4.117714999999999e-05,4.117714999999999e-05
257,0.07857988704927266,0.13090919703245163,,,,4.117714999999999e-05,4.117714999999999e-05
258,0.07670055096969008,0.13095896132290363,,,,4.117714999999999e-05,4.117714999999999e-05
259,0.07708888011984527,0.1309499256312847,,,,4.117714999999999e-05,4.117714999999999e-05
260,0.07576335838530213,0.13118389062583447,,,,4.117714999999999e-05,4.117714999999999e-05
261,0.07936017937026918,0.13160055503249168,,,,2.8824004999999994e-05,2.8824004999999994e-05
262,0.07643517409451306,0.1359673785045743,,,,2.8824004999999994e-05,2.8824004999999994e-05
263,0.07530687691178173,0.13171300664544106,,,,2.8824004999999994e-05,2.8824004999999994e-05
264,0.07735841255635023,0.13552207686007023,,,,2.8824004999999994e-05,2.8824004999999994e-05
265,0.07959386007860303,0.1319748517125845,,,,2.8824004999999994e-05,2.8824004999999994e-05
266,0.0766290252795443,0.13030456006526947,,,,2.8824004999999994e-05,2.8824004999999994e-05
267,0.07607365259900689,0.12903372570872307,,,,2.8824004999999994e-05,2.8824004999999994e-05
268,0.07708886009640992,0.13388438802212477,,,,2.8824004999999994e-05,2.8824004999999994e-05
269,0.07688841433264315,0.13482162728905678,,,,2.8824004999999994e-05,2.8824004999999994e-05
270,0.07782610203139484,0.1356958793476224,,,,2.8824004999999994e-05,2.8824004999999994e-05
271,0.07653786893934011,0.1382318725809455,,,,2.8824004999999994e-05,2.8824004999999994e-05
272,0.0755915092304349,0.13122933264821768,,,,2.0176803499999996e-05,2.0176803499999996e-05
273,0.0777578114066273,0.13893966004252434,,,,2.0176803499999996e-05,2.0176803499999996e-05
274,0.07647544087376446,0.13168900832533836,,,,2.0176803499999996e-05,2.0176803499999996e-05
275,0.07955508260056376,0.13830299396067858,,,,2.0176803499999996e-05,2.0176803499999996e-05
276,0.0762232665438205,0.13303299061954021,,,,2.0176803499999996e-05,2.0176803499999996e-05
277,0.07755762105807662,0.13318618014454842,,,,2.0176803499999996e-05,2.0176803499999996e-05
278,0.07796846120618284,0.1310500055551529,,,,2.0176803499999996e-05,2.0176803499999996e-05
279,0.07635163411032408,0.13567439280450344,,,,2.0176803499999996e-05,2.0176803499999996e-05
280,0.0770730801159516,0.13170080445706844,,,,2.0176803499999996e-05,2.0176803499999996e-05
281,0.076603839173913,0.13097608648240566,,,,2.0176803499999996e-05,2.0176803499999996e-05
282,0.077917565475218,0.13383543118834496,,,,2.0176803499999996e-05,2.0176803499999996e-05
283,0.07687955093570054,0.13131858967244625,,,,1.4123762449999997e-05,1.4123762449999997e-05
284,0.0780815223697573,0.13032011594623327,,,,1.4123762449999997e-05,1.4123762449999997e-05
285,0.07843602728098631,0.13110852148383856,,,,1.4123762449999997e-05,1.4123762449999997e-05
286,0.07780699525028467,0.1314040906727314,,,,1.4123762449999997e-05,1.4123762449999997e-05
287,0.07682169007603079,0.13363437913358212,,,,1.4123762449999997e-05,1.4123762449999997e-05
288,0.07816637610085309,0.13260797411203384,,,,1.4123762449999997e-05,1.4123762449999997e-05
289,0.07789135293569416,0.13432085793465376,,,,1.4123762449999997e-05,1.4123762449999997e-05
290,0.0764162263367325,0.13549741730093956,,,,1.4123762449999997e-05,1.4123762449999997e-05
291,0.07727750879712403,0.13290640152990818,,,,1.4123762449999997e-05,1.4123762449999997e-05
292,0.07636646123137325,0.13046745210886002,,,,1.4123762449999997e-05,1.4123762449999997e-05
293,0.0785459257895127,0.13173776865005493,,,,1.4123762449999997e-05,1.4123762449999997e-05
294,0.0769473685650155,0.13075282238423824,,,,9.886633714999997e-06,9.886633714999997e-06
295,0.07859585841652006,0.13085558637976646,,,,9.886633714999997e-06,9.886633714999997e-06
296,0.07721538189798594,0.1363531956449151,,,,9.886633714999997e-06,9.886633714999997e-06
297,0.07742464460898191,0.13103151507675648,,,,9.886633714999997e-06,9.886633714999997e-06
298,0.07741433358751237,0.13381256721913815,,,,9.886633714999997e-06,9.886633714999997e-06
299,0.07845410413574427,0.13377444446086884,,,,9.886633714999997e-06,9.886633714999997e-06
