epoch,train_loss,eval_loss,f1_score,precision,recall,lr,adam_lr
0,2.532327428460121,2.5052899718284607,,,,0.0005,0.0005
1,2.4534736573696136,2.440679669380188,,,,0.0005,0.0005
2,2.374146044254303,2.3560065627098083,,,,0.0005,0.0005
3,2.2985783368349075,2.2728172540664673,,,,0.0005,0.0005
4,2.2036143988370895,2.1821067929267883,,,,0.0005,0.0005
5,2.097141310572624,2.0450450479984283,,,,0.0005,0.0005
6,1.957306906580925,1.8904991447925568,,,,0.0005,0.0005
7,1.7883516773581505,1.6977741420269012,,,,0.0005,0.0005
8,1.5691648125648499,1.4553214609622955,,,,0.0005,0.0005
9,1.3046082258224487,1.1702649295330048,,,,0.0005,0.0005
10,1.0075096376240253,0.8498625755310059,,,,0.0005,0.0005
11,0.6863973867148161,0.5334236472845078,,,,0.0005,0.0005
12,0.38264170847833157,0.26835676841437817,,,,0.0005,0.0005
13,0.20297718420624733,0.19672870449721813,,,,0.0005,0.0005
14,0.1605961099267006,0.1995636448264122,,,,0.0005,0.0005
15,0.15771162044256926,0.19748041033744812,,,,0.0005,0.0005
16,0.1560823367908597,0.19021360576152802,,,,0.0005,0.0005
17,0.15254014497622848,0.19050343707203865,,,,0.0005,0.0005
18,0.14889797847718,0.1935044229030609,,,,0.0005,0.0005
19,0.14602405205368996,0.1833517961204052,,,,0.0005,0.0005
20,0.14548294199630618,0.18406737223267555,,,,0.0005,0.0005
21,0.14279903564602137,0.1873570941388607,,,,0.0005,0.0005
22,0.14484609430655837,0.18695088662207127,,,,0.0005,0.0005
23,0.14002784038893878,0.1842707060277462,,,,0.0005,0.0005
24,0.13994159316644073,0.1759406365454197,,,,0.0005,0.0005
25,0.13812816562131047,0.17629116401076317,,,,0.0005,0.0005
26,0.14052829472348094,0.17908678762614727,,,,0.0005,0.0005
27,0.14060567482374609,0.1855313926935196,,,,0.0005,0.0005
28,0.13977486034855247,0.1773570291697979,,,,0.0005,0.0005
29,0.13930386630818248,0.17768012918531895,,,,0.0005,0.0005
30,0.1387427884619683,0.17384390532970428,,,,0.0005,0.0005
31,0.13943956443108618,0.17912926897406578,,,,0.0005,0.0005
32,0.13591666612774134,0.18211445771157742,,,,0.0005,0.0005
33,0.13946055085398257,0.18583974055945873,,,,0.0005,0.0005
34,0.13691152073442936,0.17146386951208115,,,,0.0005,0.0005
35,0.13554623862728477,0.17443676851689816,,,,0.0005,0.0005
36,0.13133810786530375,0.17136827111244202,,,,0.0005,0.0005
37,0.1346165502909571,0.17184176109731197,,,,0.0005,0.0005
38,0.1378703131340444,0.17598105408251286,,,,0.0005,0.0005
39,0.13281000242568552,0.17136939987540245,,,,0.0005,0.0005
40,0.13127252995036542,0.16793319955468178,,,,0.0005,0.0005
41,0.13240222493186593,0.16956302151083946,,,,0.0005,0.0005
42,0.13015406276099384,0.16702129878103733,,,,0.0005,0.0005
43,0.13112995633855462,0.17064620181918144,,,,0.0005,0.0005
44,0.13218878582119942,0.16464384458959103,,,,0.0005,0.0005
45,0.13209871132858098,0.16429933346807957,,,,0.0005,0.0005
46,0.13146103848703206,0.1716864351183176,,,,0.0005,0.0005
47,0.12897887593135238,0.16953826509416103,,,,0.0005,0.0005
48,0.1319172941148281,0.17262272723019123,,,,0.0005,0.0005
49,0.12646675412543118,0.1657781135290861,,,,0.0005,0.0005
50,0.12721778871491551,0.16837939247488976,,,,0.0005,0.0005
51,0.12637335620820522,0.17290470004081726,,,,0.0005,0.0005
52,0.12639067799318582,0.16144927218556404,,,,0.0005,0.0005
53,0.12591237504966557,0.1631253007799387,,,,0.0005,0.0005
54,0.12393891019746661,0.15943834744393826,,,,0.0005,0.0005
55,0.12679982814006507,0.15919921919703484,,,,0.0005,0.0005
56,0.1251362576149404,0.16726788505911827,,,,0.0005,0.0005
57,0.1250094291754067,0.1630101017653942,,,,0.0005,0.0005
58,0.12598834373056889,0.15815100818872452,,,,0.0005,0.0005
59,0.12556548160500824,0.16363382898271084,,,,0.0005,0.0005
60,0.12646106979809701,0.1591417994350195,,,,0.0005,0.0005
61,0.1245644404552877,0.15980235673487186,,,,0.0005,0.0005
62,0.12242198386229575,0.1585425529628992,,,,0.0005,0.0005
63,0.12942979601211846,0.16636156104505062,,,,0.0005,0.0005
64,0.12556489021517336,0.16072933189570904,,,,0.0005,0.0005
65,0.12212476669810712,0.15918371453881264,,,,0.0005,0.0005
66,0.12169126328080893,0.16191569715738297,,,,0.0005,0.0005
67,0.12109156511723995,0.15893452614545822,,,,0.0005,0.0005
68,0.1216820296831429,0.15439843013882637,,,,0.0005,0.0005
69,0.12350025190971792,0.161389647051692,,,,0.0005,0.0005
70,0.11961331544443965,0.15305463131517172,,,,0.0005,0.0005
71,0.13082223082892597,0.15651696175336838,,,,0.0005,0.0005
72,0.12066529900766909,0.159076739102602,,,,0.0005,0.0005
73,0.11953187780454755,0.15943973138928413,,,,0.0005,0.0005
74,0.11992625123821199,0.15436780266463757,,,,0.0005,0.0005
75,0.1214286619797349,0.15996693074703217,,,,0.0005,0.0005
76,0.12016212916933,0.15626457892358303,,,,0.0005,0.0005
77,0.11841860576532781,0.15362101420760155,,,,0.0005,0.0005
78,0.1199030545540154,0.15632965229451656,,,,0.0005,0.0005
79,0.11857991991564631,0.1599507089704275,,,,0.0005,0.0005
80,0.1203241238836199,0.15380053594708443,,,,0.0005,0.0005
81,0.11920804646797478,0.15482567250728607,,,,0.00035,0.00035
82,0.1161379418335855,0.15491735562682152,,,,0.00035,0.00035
83,0.11754164868034422,0.15181652270257473,,,,0.00035,0.00035
84,0.11922807432711124,0.15131139382719994,,,,0.00035,0.00035
85,0.11696100072003901,0.15497581474483013,,,,0.00035,0.00035
86,0.11885810573585331,0.1517565492540598,,,,0.00035,0.00035
87,0.11943039507605135,0.15208515152335167,,,,0.00035,0.00035
88,0.11818851996213198,0.15602321177721024,,,,0.00035,0.00035
89,0.11717706150375307,0.15326156746596098,,,,0.00035,0.00035
90,0.11895555607043207,0.15770659036934376,,,,0.00035,0.00035
91,0.11682794522494078,0.15295552276074886,,,,0.00035,0.00035
92,0.11667856480926275,0.15091368928551674,,,,0.00035,0.00035
93,0.1153611526824534,0.1446723835542798,,,,0.00035,0.00035
94,0.11708384065423161,0.1562248133122921,,,,0.00035,0.00035
95,0.11842096783220768,0.15179165080189705,,,,0.00035,0.00035
96,0.11567402887158096,0.15336156636476517,,,,0.00035,0.00035
97,0.1183521926868707,0.15068521164357662,,,,0.00035,0.00035
98,0.116855792934075,0.15043242927640676,,,,0.00035,0.00035
99,0.11602406832389534,0.14905504696071148,,,,0.00035,0.00035
100,0.11655085580423474,0.15020478144288063,,,,0.00035,0.00035
101,0.11695528752170503,0.14954181015491486,,,,0.00035,0.00035
102,0.11699257232248783,0.14976789988577366,,,,0.00035,0.00035
103,0.11712532839737833,0.156792176887393,,,,0.00035,0.00035
104,0.11785178421996534,0.15457315742969513,,,,0.000245,0.000245
105,0.11707017989829183,0.15374058578163385,,,,0.000245,0.000245
106,0.11561737838201225,0.15107502415776253,,,,0.000245,0.000245
107,0.11321936524473131,0.14885593950748444,,,,0.000245,0.000245
108,0.1141988942399621,0.15165473520755768,,,,0.000245,0.000245
109,0.11314154788851738,0.15336588863283396,,,,0.000245,0.000245
110,0.1139330631121993,0.14833244867622852,,,,0.000245,0.000245
111,0.11401738109998405,0.15258679445832968,,,,0.000245,0.000245
112,0.11640177224762738,0.15048768743872643,,,,0.000245,0.000245
113,0.11617009527981281,0.15294366423040628,,,,0.000245,0.000245
114,0.11237674904987216,0.1499487515538931,,,,0.000245,0.000245
115,0.11132900067605078,0.14990554377436638,,,,0.0001715,0.0001715
116,0.11399429652374238,0.14908937364816666,,,,0.0001715,0.0001715
117,0.11554785235784948,0.14966974593698978,,,,0.0001715,0.0001715
118,0.11354722990654409,0.15216740500181913,,,,0.0001715,0.0001715
119,0.11419751960784197,0.15237505920231342,,,,0.0001715,0.0001715
120,0.11298390827141702,0.15092775411903858,,,,0.0001715,0.0001715
121,0.11246701725758612,0.1445548739284277,,,,0.0001715,0.0001715
122,0.11783645255491138,0.1472351774573326,,,,0.0001715,0.0001715
123,0.11266408814117312,0.1544517409056425,,,,0.0001715,0.0001715
124,0.11332605592906475,0.14760968927294016,,,,0.0001715,0.0001715
125,0.11145779862999916,0.15126562863588333,,,,0.0001715,0.0001715
126,0.11479902919381857,0.14166715368628502,,,,0.0001715,0.0001715
127,0.1134009922388941,0.14605714567005634,,,,0.0001715,0.0001715
128,0.11301935720257461,0.14981964929029346,,,,0.0001715,0.0001715
129,0.11298110545612872,0.1470704935491085,,,,0.0001715,0.0001715
130,0.11209749965928495,0.14266145415604115,,,,0.0001715,0.0001715
131,0.11625852913130075,0.14248998928815126,,,,0.0001715,0.0001715
132,0.11316671629901975,0.14722860045731068,,,,0.0001715,0.0001715
133,0.11587751749902964,0.14705240540206432,,,,0.0001715,0.0001715
134,0.11396011558827013,0.14890850521624088,,,,0.0001715,0.0001715
135,0.11382151301950216,0.14473648183047771,,,,0.0001715,0.0001715
136,0.11297879624180496,0.14650771766901016,,,,0.0001715,0.0001715
137,0.11341659002937376,0.15211360156536102,,,,0.00012004999999999999,0.00012004999999999999
138,0.111444185487926,0.1432536570355296,,,,0.00012004999999999999,0.00012004999999999999
139,0.11397935287095606,0.14483959320932627,,,,0.00012004999999999999,0.00012004999999999999
140,0.11303494707681239,0.14771512523293495,,,,0.00012004999999999999,0.00012004999999999999
141,0.11332278209738433,0.14815280307084322,,,,0.00012004999999999999,0.00012004999999999999
142,0.1114012396428734,0.15067122876644135,,,,0.00012004999999999999,0.00012004999999999999
143,0.1149934611748904,0.14610346592962742,,,,0.00012004999999999999,0.00012004999999999999
144,0.11244616750627756,0.15081782080233097,,,,0.00012004999999999999,0.00012004999999999999
145,0.11150926095433533,0.1456881035119295,,,,0.00012004999999999999,0.00012004999999999999
146,0.1124875593231991,0.15264362189918756,,,,0.00012004999999999999,0.00012004999999999999
147,0.1133120241574943,0.14533391036093235,,,,0.00012004999999999999,0.00012004999999999999
148,0.11675741616636515,0.14671923592686653,,,,8.403499999999999e-05,8.403499999999999e-05
149,0.11531011364422739,0.1477090921252966,,,,8.403499999999999e-05,8.403499999999999e-05
150,0.11166079307440668,0.1509926002472639,,,,8.403499999999999e-05,8.403499999999999e-05
151,0.11476207245141268,0.14938393980264664,,,,8.403499999999999e-05,8.403499999999999e-05
152,0.11181076860520989,0.15200114157050848,,,,8.403499999999999e-05,8.403499999999999e-05
153,0.11415654676966369,0.14480503275990486,,,,8.403499999999999e-05,8.403499999999999e-05
154,0.11617829627357423,0.14501399919390678,,,,8.403499999999999e-05,8.403499999999999e-05
155,0.1118230561260134,0.1510015456005931,,,,8.403499999999999e-05,8.403499999999999e-05
156,0.11273926496505737,0.14444236643612385,,,,8.403499999999999e-05,8.403499999999999e-05
157,0.11264660651795566,0.148708064109087,,,,8.403499999999999e-05,8.403499999999999e-05
158,0.11444076453335583,0.14771296456456184,,,,8.403499999999999e-05,8.403499999999999e-05
159,0.11281928746029735,0.14574450440704823,,,,5.882449999999999e-05,5.882449999999999e-05
160,0.11063630413264036,0.14640495367348194,,,,5.882449999999999e-05,5.882449999999999e-05
161,0.11273380788043141,0.15201919339597225,,,,5.882449999999999e-05,5.882449999999999e-05
162,0.11256689915899187,0.15377825126051903,,,,5.882449999999999e-05,5.882449999999999e-05
163,0.11134199146181345,0.14741750340908766,,,,5.882449999999999e-05,5.882449999999999e-05
164,0.11088481824845076,0.1458502635359764,,,,5.882449999999999e-05,5.882449999999999e-05
165,0.11249148123897612,0.14732362516224384,,,,5.882449999999999e-05,5.882449999999999e-05
166,0.11226694216020405,0.1429617889225483,,,,5.882449999999999e-05,5.882449999999999e-05
167,0.11019771173596382,0.14508299343287945,,,,5.882449999999999e-05,5.882449999999999e-05
168,0.11001022276468575,0.14404338784515858,,,,5.882449999999999e-05,5.882449999999999e-05
169,0.10947558959014714,0.14594271034002304,,,,5.882449999999999e-05,5.882449999999999e-05
170,0.10965310991741717,0.14570076297968626,,,,4.117714999999999e-05,4.117714999999999e-05
171,0.11126597714610398,0.14616515208035707,,,,4.117714999999999e-05,4.117714999999999e-05
172,0.11119989003054798,0.15236193872988224,,,,4.117714999999999e-05,4.117714999999999e-05
173,0.1100421529263258,0.14682312682271004,,,,4.117714999999999e-05,4.117714999999999e-05
174,0.11090621119365096,0.14617249742150307,,,,4.117714999999999e-05,4.117714999999999e-05
175,0.11047336261253804,0.1505159130319953,,,,4.117714999999999e-05,4.117714999999999e-05
176,0.11283631122205406,0.14481779374182224,,,,4.117714999999999e-05,4.117714999999999e-05
177,0.11206041066907346,0.15077914483845234,,,,4.117714999999999e-05,4.117714999999999e-05
178,0.11108273500576615,0.14680121280252934,,,,4.117714999999999e-05,4.117714999999999e-05
179,0.11099590908270329,0.14658929780125618,,,,4.117714999999999e-05,4.117714999999999e-05
180,0.1116120892111212,0.14479194395244122,,,,4.117714999999999e-05,4.117714999999999e-05
181,0.11127040255814791,0.147065544500947,,,,2.8824004999999994e-05,2.8824004999999994e-05
182,0.11281178868375719,0.1481345435604453,,,,2.8824004999999994e-05,2.8824004999999994e-05
183,0.1102607287466526,0.14630544651299715,,,,2.8824004999999994e-05,2.8824004999999994e-05
184,0.11090099927969277,0.14778514765203,,,,2.8824004999999994e-05,2.8824004999999994e-05
185,0.11134962318465114,0.1471228189766407,,,,2.8824004999999994e-05,2.8824004999999994e-05
186,0.11120231926906854,0.143153871409595,,,,2.8824004999999994e-05,2.8824004999999994e-05
187,0.11135943559929729,0.14435291476547718,,,,2.8824004999999994e-05,2.8824004999999994e-05
188,0.11206873715855181,0.14470817893743515,,,,2.8824004999999994e-05,2.8824004999999994e-05
189,0.11172163113951683,0.14338334370404482,,,,2.8824004999999994e-05,2.8824004999999994e-05
190,0.11337352497503161,0.15077546425163746,,,,2.8824004999999994e-05,2.8824004999999994e-05
191,0.10882192780263722,0.14908806513994932,,,,2.8824004999999994e-05,2.8824004999999994e-05
192,0.11198478937149048,0.14214005507528782,,,,2.0176803499999996e-05,2.0176803499999996e-05
193,0.11228773160837591,0.14192603714764118,,,,2.0176803499999996e-05,2.0176803499999996e-05
194,0.10792097600642592,0.14546469785273075,,,,2.0176803499999996e-05,2.0176803499999996e-05
195,0.110338055761531,0.14758930634707212,,,,2.0176803499999996e-05,2.0176803499999996e-05
196,0.11198922281619161,0.14281892497092485,,,,2.0176803499999996e-05,2.0176803499999996e-05
197,0.10962723288685083,0.14910714328289032,,,,2.0176803499999996e-05,2.0176803499999996e-05
198,0.11085521406494081,0.14608140289783478,,,,2.0176803499999996e-05,2.0176803499999996e-05
199,0.11225725046824664,0.14434435591101646,,,,2.0176803499999996e-05,2.0176803499999996e-05
200,0.1104832454584539,0.14774563908576965,,,,2.0176803499999996e-05,2.0176803499999996e-05
201,0.10909166070632637,0.1426295656710863,,,,2.0176803499999996e-05,2.0176803499999996e-05
202,0.11290452093817294,0.14618885144591331,,,,2.0176803499999996e-05,2.0176803499999996e-05
203,0.11149054940324277,0.14797857031226158,,,,1.4123762449999997e-05,1.4123762449999997e-05
204,0.11263176170177758,0.14543928764760494,,,,1.4123762449999997e-05,1.4123762449999997e-05
205,0.11333526251837611,0.14721071533858776,,,,1.4123762449999997e-05,1.4123762449999997e-05
206,0.1107719000428915,0.1471017813310027,,,,1.4123762449999997e-05,1.4123762449999997e-05
207,0.11134140868671238,0.1432339046150446,,,,1.4123762449999997e-05,1.4123762449999997e-05
208,0.11080423300154507,0.14772738050669432,,,,1.4123762449999997e-05,1.4123762449999997e-05
209,0.1105527002364397,0.14408554136753082,,,,1.4123762449999997e-05,1.4123762449999997e-05
210,0.11283936654217541,0.14589415304362774,,,,1.4123762449999997e-05,1.4123762449999997e-05
211,0.10920897382311523,0.14231351297348738,,,,1.4123762449999997e-05,1.4123762449999997e-05
212,0.11126580473501235,0.14811404421925545,,,,1.4123762449999997e-05,1.4123762449999997e-05
213,0.11005058605223894,0.14699715748429298,,,,1.4123762449999997e-05,1.4123762449999997e-05
214,0.11195887508802116,0.1421282272785902,,,,9.886633714999997e-06,9.886633714999997e-06
215,0.11191243422217667,0.14379983209073544,,,,9.886633714999997e-06,9.886633714999997e-06
216,0.1132105371216312,0.14692632481455803,,,,9.886633714999997e-06,9.886633714999997e-06
217,0.11268125229980797,0.14429745264351368,,,,9.886633714999997e-06,9.886633714999997e-06
218,0.1103269790764898,0.1458427757024765,,,,9.886633714999997e-06,9.886633714999997e-06
219,0.1104355975985527,0.14151284657418728,,,,9.886633714999997e-06,9.886633714999997e-06
220,0.11124511202797294,0.14290204271674156,,,,9.886633714999997e-06,9.886633714999997e-06
221,0.11294754687696695,0.14744012616574764,,,,9.886633714999997e-06,9.886633714999997e-06
222,0.11081281746737659,0.14516989141702652,,,,9.886633714999997e-06,9.886633714999997e-06
223,0.11083773174323142,0.14202254079282284,,,,9.886633714999997e-06,9.886633714999997e-06
224,0.11095478595234454,0.14558262564241886,,,,9.886633714999997e-06,9.886633714999997e-06
225,0.11207829671911895,0.14405297487974167,,,,9.886633714999997e-06,9.886633714999997e-06
226,0.10926600801758468,0.14716103859245777,,,,9.886633714999997e-06,9.886633714999997e-06
227,0.11053283896762878,0.14532603695988655,,,,9.886633714999997e-06,9.886633714999997e-06
228,0.11482922872528434,0.14660054072737694,,,,9.886633714999997e-06,9.886633714999997e-06
229,0.11195360566489398,0.14352631103247404,,,,9.886633714999997e-06,9.886633714999997e-06
230,0.11137070856057107,0.14658058248460293,,,,6.920643600499998e-06,6.920643600499998e-06
231,0.10979195567779243,0.14243397675454617,,,,6.920643600499998e-06,6.920643600499998e-06
232,0.10987577377818525,0.14251150470227003,,,,6.920643600499998e-06,6.920643600499998e-06
233,0.11057174671441317,0.1480198223143816,,,,6.920643600499998e-06,6.920643600499998e-06
234,0.10956649947911501,0.14660023339092731,,,,6.920643600499998e-06,6.920643600499998e-06
235,0.11173157789744437,0.1577398208901286,,,,6.920643600499998e-06,6.920643600499998e-06
236,0.1099792355671525,0.1430668607354164,,,,6.920643600499998e-06,6.920643600499998e-06
237,0.10900464910082519,0.15222902223467827,,,,6.920643600499998e-06,6.920643600499998e-06
238,0.11143652291502804,0.14555861800909042,,,,6.920643600499998e-06,6.920643600499998e-06
239,0.11192010273225605,0.14349405281245708,,,,6.920643600499998e-06,6.920643600499998e-06
240,0.11076509358827025,0.149098077788949,,,,6.920643600499998e-06,6.920643600499998e-06
241,0.11110574542544782,0.1393743036314845,,,,6.920643600499998e-06,6.920643600499998e-06
242,0.11175613664090633,0.14668689481914043,,,,6.920643600499998e-06,6.920643600499998e-06
243,0.10900100541766733,0.14509709551930428,,,,6.920643600499998e-06,6.920643600499998e-06
244,0.11163217294961214,0.1445611659437418,,,,6.920643600499998e-06,6.920643600499998e-06
245,0.11292660771869123,0.14507113955914974,,,,6.920643600499998e-06,6.920643600499998e-06
246,0.11010493198409677,0.14637337625026703,,,,6.920643600499998e-06,6.920643600499998e-06
247,0.1152693978510797,0.1489406991750002,,,,6.920643600499998e-06,6.920643600499998e-06
248,0.11110770259983838,0.14532722532749176,,,,6.920643600499998e-06,6.920643600499998e-06
249,0.10997963254339993,0.14474082179367542,,,,6.920643600499998e-06,6.920643600499998e-06
250,0.10820884280838072,0.14783946238458157,,,,6.920643600499998e-06,6.920643600499998e-06
251,0.11457073176279664,0.1457138080149889,,,,6.920643600499998e-06,6.920643600499998e-06
252,0.109715347411111,0.1466489927843213,,,,4.844450520349998e-06,4.844450520349998e-06
253,0.11101868841797113,0.14761353936046362,,,,4.844450520349998e-06,4.844450520349998e-06
254,0.10977103863842785,0.1448744237422943,,,,4.844450520349998e-06,4.844450520349998e-06
255,0.11124640703201294,0.144964212551713,,,,4.844450520349998e-06,4.844450520349998e-06
256,0.10856938594952226,0.1466016578488052,,,,4.844450520349998e-06,4.844450520349998e-06
257,0.1095511537278071,0.15255459398031235,,,,4.844450520349998e-06,4.844450520349998e-06
258,0.11080953083001077,0.14845119137316942,,,,4.844450520349998e-06,4.844450520349998e-06
259,0.10949541791342199,0.15039913170039654,,,,4.844450520349998e-06,4.844450520349998e-06
260,0.11026502784807235,0.14729395974427462,,,,4.844450520349998e-06,4.844450520349998e-06
261,0.11507805739529431,0.14563916251063347,,,,4.844450520349998e-06,4.844450520349998e-06
262,0.11049845814704895,0.14860206469893456,,,,4.844450520349998e-06,4.844450520349998e-06
263,0.11238431977108121,0.14418096281588078,,,,3.3911153642449986e-06,3.3911153642449986e-06
264,0.11182770109735429,0.14536342956125736,,,,3.3911153642449986e-06,3.3911153642449986e-06
265,0.11043106345459819,0.14465048909187317,,,,3.3911153642449986e-06,3.3911153642449986e-06
266,0.11086648842319846,0.14446739107370377,,,,3.3911153642449986e-06,3.3911153642449986e-06
267,0.11028410634025931,0.14584715105593204,,,,3.3911153642449986e-06,3.3911153642449986e-06
268,0.11392703396268189,0.14546889439225197,,,,3.3911153642449986e-06,3.3911153642449986e-06
269,0.1073248831089586,0.14384675770998,,,,3.3911153642449986e-06,3.3911153642449986e-06
270,0.11329611076507717,0.14459304325282574,,,,3.3911153642449986e-06,3.3911153642449986e-06
271,0.10748398397117853,0.14876977866515517,,,,3.3911153642449986e-06,3.3911153642449986e-06
272,0.11196480819489807,0.14573168754577637,,,,3.3911153642449986e-06,3.3911153642449986e-06
273,0.10957878921180964,0.14740207977592945,,,,3.3911153642449986e-06,3.3911153642449986e-06
274,0.1099057630635798,0.14631422609090805,,,,2.373780754971499e-06,2.373780754971499e-06
275,0.11021077400073409,0.15165008418262005,,,,2.373780754971499e-06,2.373780754971499e-06
276,0.11478336807340384,0.14670370798557997,,,,2.373780754971499e-06,2.373780754971499e-06
277,0.11161630298011005,0.15270550921559334,,,,2.373780754971499e-06,2.373780754971499e-06
278,0.10914342757314444,0.1469082348048687,,,,2.373780754971499e-06,2.373780754971499e-06
279,0.11266241269186139,0.1441602110862732,,,,2.373780754971499e-06,2.373780754971499e-06
280,0.11213904595933855,0.1468174522742629,,,,2.373780754971499e-06,2.373780754971499e-06
281,0.11198349692858756,0.14449655450880527,,,,2.373780754971499e-06,2.373780754971499e-06
282,0.11149879253935069,0.14755727723240852,,,,2.373780754971499e-06,2.373780754971499e-06
283,0.10947771300561726,0.1443037698045373,,,,2.373780754971499e-06,2.373780754971499e-06
284,0.11124914418905973,0.14694979786872864,,,,2.373780754971499e-06,2.373780754971499e-06
285,0.11018857662566006,0.1453458983451128,,,,1.661646528480049e-06,1.661646528480049e-06
286,0.11232782388105989,0.1464872919023037,,,,1.661646528480049e-06,1.661646528480049e-06
287,0.11218229937367141,0.14864215068519115,,,,1.661646528480049e-06,1.661646528480049e-06
288,0.11289067752659321,0.15230471640825272,,,,1.661646528480049e-06,1.661646528480049e-06
289,0.11432000738568604,0.14491821080446243,,,,1.661646528480049e-06,1.661646528480049e-06
290,0.11327301640994847,0.14551352709531784,,,,1.661646528480049e-06,1.661646528480049e-06
291,0.11215446854475886,0.14994161017239094,,,,1.661646528480049e-06,1.661646528480049e-06
292,0.1140045567881316,0.14451121911406517,,,,1.661646528480049e-06,1.661646528480049e-06
293,0.11251822975464165,0.14213023334741592,,,,1.661646528480049e-06,1.661646528480049e-06
294,0.10857269680127501,0.14341022819280624,,,,1.661646528480049e-06,1.661646528480049e-06
295,0.11314868391491473,0.14412037236616015,,,,1.661646528480049e-06,1.661646528480049e-06
296,0.1108874276978895,0.14378849975764751,,,,1.1631525699360342e-06,1.1631525699360342e-06
297,0.11062857415527105,0.14185629412531853,,,,1.1631525699360342e-06,1.1631525699360342e-06
298,0.11258818698115647,0.14916708692908287,,,,1.1631525699360342e-06,1.1631525699360342e-06
299,0.11062627378851175,0.14656598307192326,,,,1.1631525699360342e-06,1.1631525699360342e-06
