epoch,train_loss,eval_loss,f1_score,precision,recall,lr,adam_lr
0,2.2162923887372017,2.109102964401245,,,,0.0005,0.0005
1,2.129610225558281,2.0195233523845673,,,,0.0005,0.0005
2,2.0524084493517876,1.942253828048706,,,,0.0005,0.0005
3,1.9741084352135658,1.857665777206421,,,,0.0005,0.0005
4,1.8843365833163261,1.7616055011749268,,,,0.0005,0.0005
5,1.7831665053963661,1.641027957201004,,,,0.0005,0.0005
6,1.64206013828516,1.4798259735107422,,,,0.0005,0.0005
7,1.465724177658558,1.2972098886966705,,,,0.0005,0.0005
8,1.2510166764259338,1.0470926761627197,,,,0.0005,0.0005
9,0.9827308543026447,0.7575123310089111,,,,0.0005,0.0005
10,0.6766436845064163,0.44176140427589417,,,,0.0005,0.0005
11,0.376174284145236,0.19184628501534462,,,,0.0005,0.0005
12,0.19517593458294868,0.13883602619171143,,,,0.0005,0.0005
13,0.16359648667275906,0.14704217202961445,,,,0.0005,0.0005
14,0.16184431314468384,0.14213604480028152,,,,0.0005,0.0005
15,0.15866046166047454,0.13618097826838493,,,,0.0005,0.0005
16,0.1591165061108768,0.1352044641971588,,,,0.0005,0.0005
17,0.15648321388289332,0.13284220173954964,,,,0.0005,0.0005
18,0.15075497701764107,0.13271632976830006,,,,0.0005,0.0005
19,0.15238555101677775,0.12832926586270332,,,,0.0005,0.0005
20,0.15249382657930255,0.12382364459335804,,,,0.0005,0.0005
21,0.15065128821879625,0.12709291093051434,,,,0.0005,0.0005
22,0.14872246701270342,0.12471944093704224,,,,0.0005,0.0005
23,0.15022737346589565,0.1261054053902626,,,,0.0005,0.0005
24,0.14565990818664432,0.1261030901223421,,,,0.0005,0.0005
25,0.1468086615204811,0.12459525652229786,,,,0.0005,0.0005
26,0.1463668579235673,0.12296932190656662,,,,0.0005,0.0005
27,0.14377299789339304,0.12295696139335632,,,,0.0005,0.0005
28,0.1418511001393199,0.1229187473654747,,,,0.0005,0.0005
29,0.14292904431931674,0.12160775624215603,,,,0.0005,0.0005
30,0.14360439591109753,0.11994652077555656,,,,0.0005,0.0005
31,0.14191187312826514,0.12055726908147335,,,,0.0005,0.0005
32,0.14077287865802646,0.11927136033773422,,,,0.0005,0.0005
33,0.14474540436640382,0.12127608433365822,,,,0.0005,0.0005
34,0.1399279311299324,0.11600826680660248,,,,0.0005,0.0005
35,0.1383666843175888,0.1233265595510602,,,,0.0005,0.0005
36,0.13717356813140213,0.11673059687018394,,,,0.0005,0.0005
37,0.13731335778720677,0.11615934036672115,,,,0.0005,0.0005
38,0.13963707932271063,0.11425281316041946,,,,0.0005,0.0005
39,0.13700729445554316,0.11179064400494099,,,,0.0005,0.0005
40,0.13289190316572785,0.11444929242134094,,,,0.0005,0.0005
41,0.1322250033263117,0.10980376042425632,,,,0.0005,0.0005
42,0.13117757765576243,0.11665525287389755,,,,0.0005,0.0005
43,0.13331898022443056,0.10736983548849821,,,,0.0005,0.0005
44,0.13133159698918462,0.11443657241761684,,,,0.0005,0.0005
45,0.1302827470935881,0.1079578185454011,,,,0.0005,0.0005
46,0.13119178707711399,0.11006946489214897,,,,0.0005,0.0005
47,0.12569173402152956,0.10915811359882355,,,,0.0005,0.0005
48,0.12828097492456436,0.10734088532626629,,,,0.0005,0.0005
49,0.1282035829499364,0.10636449418962002,,,,0.0005,0.0005
50,0.1259741010144353,0.10905949957668781,,,,0.0005,0.0005
51,0.12824370781891048,0.10471495334059,,,,0.0005,0.0005
52,0.12747955764643848,0.10260741598904133,,,,0.0005,0.0005
53,0.12283953605219722,0.10393900889903307,,,,0.0005,0.0005
54,0.12287918571382761,0.10335205867886543,,,,0.0005,0.0005
55,0.12446305784396827,0.10676893778145313,,,,0.0005,0.0005
56,0.1242388510145247,0.10084442142397165,,,,0.0005,0.0005
57,0.12071668379940093,0.1028523975983262,,,,0.0005,0.0005
58,0.12173521565273404,0.10095672123134136,,,,0.0005,0.0005
59,0.12051339726895094,0.10311986692249775,,,,0.0005,0.0005
60,0.12265084916725755,0.10014886129647493,,,,0.0005,0.0005
61,0.11901637725532055,0.0991196483373642,,,,0.0005,0.0005
62,0.1181441389489919,0.10156467743217945,,,,0.0005,0.0005
63,0.11878980579786003,0.10146506782621145,,,,0.0005,0.0005
64,0.11904044868424535,0.10081557743251324,,,,0.0005,0.0005
65,0.11843412974849343,0.1057615727186203,,,,0.0005,0.0005
66,0.1185448132455349,0.10220006108283997,,,,0.0005,0.0005
67,0.11863502627238631,0.10503628384321928,,,,0.0005,0.0005
68,0.12162734684534371,0.10056499391794205,,,,0.0005,0.0005
69,0.1202850027475506,0.10381035879254341,,,,0.0005,0.0005
70,0.11871299240738153,0.09922847151756287,,,,0.0005,0.0005
71,0.11820179224014282,0.1013762317597866,,,,0.0005,0.0005
72,0.11462686606682837,0.09952246025204659,,,,0.00035,0.00035
73,0.1147307101637125,0.10004969965666533,,,,0.00035,0.00035
74,0.11581827700138092,0.09903438203036785,,,,0.00035,0.00035
75,0.11524523724801838,0.09965568035840988,,,,0.00035,0.00035
76,0.11506568570621312,0.09637955483049154,,,,0.00035,0.00035
77,0.11468038964085281,0.09433776140213013,,,,0.00035,0.00035
78,0.11636048695072532,0.09650937654078007,,,,0.00035,0.00035
79,0.11632074951194227,0.09844645205885172,,,,0.00035,0.00035
80,0.1129978857934475,0.09997886419296265,,,,0.00035,0.00035
81,0.11254140571691096,0.09867707081139088,,,,0.00035,0.00035
82,0.1145751082804054,0.09639771841466427,,,,0.00035,0.00035
83,0.11217015143483877,0.09760557673871517,,,,0.00035,0.00035
84,0.11865463247522712,0.09844192117452621,,,,0.00035,0.00035
85,0.11090119299478829,0.09703790117055178,,,,0.00035,0.00035
86,0.11146933678537607,0.09306793985888362,,,,0.00035,0.00035
87,0.1117204197216779,0.0993660930544138,,,,0.00035,0.00035
88,0.11145502515137196,0.09676769655197859,,,,0.00035,0.00035
89,0.11168976966291666,0.09401307627558708,,,,0.00035,0.00035
90,0.11304070567712188,0.09619604330509901,,,,0.00035,0.00035
91,0.11139947874471545,0.09502975828945637,,,,0.00035,0.00035
92,0.11238332302309573,0.09576877299696207,,,,0.00035,0.00035
93,0.1110778097063303,0.09758022986352444,,,,0.00035,0.00035
94,0.10929559264332056,0.09446918964385986,,,,0.00035,0.00035
95,0.10859185340814292,0.09244774281978607,,,,0.00035,0.00035
96,0.10911721386946738,0.09701317548751831,,,,0.00035,0.00035
97,0.1092484388500452,0.09279307723045349,,,,0.00035,0.00035
98,0.11076608649455011,0.09361862298101187,,,,0.00035,0.00035
99,0.10745816270355135,0.09392512030899525,,,,0.00035,0.00035
100,0.10880937264300883,0.09232190903276205,,,,0.00035,0.00035
101,0.10681110981386155,0.09232915379106998,,,,0.00035,0.00035
102,0.10509989340789616,0.09243988804519176,,,,0.00035,0.00035
103,0.10751355648972094,0.08866348769515753,,,,0.00035,0.00035
104,0.10957492794841528,0.09301391057670116,,,,0.00035,0.00035
105,0.10874453303404152,0.0914962962269783,,,,0.00035,0.00035
106,0.10598611133173108,0.09149775933474302,,,,0.00035,0.00035
107,0.10727863037027419,0.09171971026808023,,,,0.00035,0.00035
108,0.10746764310169965,0.09521220531314611,,,,0.00035,0.00035
109,0.10784617823082954,0.0913744168356061,,,,0.00035,0.00035
110,0.10913645080290735,0.09247974492609501,,,,0.00035,0.00035
111,0.10676764813251793,0.09007799718528986,,,,0.00035,0.00035
112,0.1061972149182111,0.09331143274903297,,,,0.00035,0.00035
113,0.10682829469442368,0.09213816653937101,,,,0.00035,0.00035
114,0.10582394036464393,0.09251054748892784,,,,0.000245,0.000245
115,0.10572038358077407,0.08998206304386258,,,,0.000245,0.000245
116,0.10520771844312549,0.0907354149967432,,,,0.000245,0.000245
117,0.10490411426872015,0.08776706410571933,,,,0.000245,0.000245
118,0.10479497746564448,0.09010417014360428,,,,0.000245,0.000245
119,0.10260883555747569,0.09017826430499554,,,,0.000245,0.000245
120,0.10455076512880623,0.0937162721529603,,,,0.000245,0.000245
121,0.10249164584092796,0.08984562568366528,,,,0.000245,0.000245
122,0.10219230444636196,0.0877248365432024,,,,0.000245,0.000245
123,0.1059600287117064,0.0893783001229167,,,,0.000245,0.000245
124,0.10479367536026984,0.09069381887093186,,,,0.000245,0.000245
125,0.10699557675980031,0.08787549939006567,,,,0.000245,0.000245
126,0.10360192763619125,0.08900128491222858,,,,0.000245,0.000245
127,0.10508392658084631,0.08774557895958424,,,,0.000245,0.000245
128,0.10404403880238533,0.09034179663285613,,,,0.000245,0.000245
129,0.10269752470776439,0.08954046247527003,,,,0.000245,0.000245
130,0.10393056669272482,0.08666761871427298,,,,0.000245,0.000245
131,0.10083296592347324,0.0892831590026617,,,,0.000245,0.000245
132,0.10714576672762632,0.0948113352060318,,,,0.000245,0.000245
133,0.10486704809591174,0.08927424438297749,,,,0.000245,0.000245
134,0.1031764125218615,0.08820713870227337,,,,0.000245,0.000245
135,0.101660386309959,0.08789236471056938,,,,0.000245,0.000245
136,0.10194596590008587,0.09070741012692451,,,,0.000245,0.000245
137,0.1062462420668453,0.08864603098481894,,,,0.000245,0.000245
138,0.10245576489251107,0.09184765629470348,,,,0.000245,0.000245
139,0.10300198616459966,0.09222297742962837,,,,0.000245,0.000245
140,0.10357125906739384,0.08569726767018437,,,,0.000245,0.000245
141,0.10109344811644405,0.0937554594129324,,,,0.000245,0.000245
142,0.10202023619785905,0.08738160971552134,,,,0.000245,0.000245
143,0.10182246472686529,0.08851943956688046,,,,0.000245,0.000245
144,0.10781885345932096,0.08875756710767746,,,,0.000245,0.000245
145,0.100944789708592,0.08781221322715282,,,,0.000245,0.000245
146,0.10231584985740483,0.08397658914327621,,,,0.000245,0.000245
147,0.10127898631617427,0.08639817219227552,,,,0.000245,0.000245
148,0.10165589302778244,0.08751528710126877,,,,0.000245,0.000245
149,0.10219039919320494,0.08793413452804089,,,,0.000245,0.000245
150,0.10241150227375329,0.09017646964639425,,,,0.000245,0.000245
151,0.10132806829642504,0.08462396636605263,,,,0.000245,0.000245
152,0.10308228561189026,0.09460008656606078,,,,0.000245,0.000245
153,0.10080572729930282,0.08782011270523071,,,,0.000245,0.000245
154,0.10595454683061689,0.08897058479487896,,,,0.000245,0.000245
155,0.10814011411275715,0.08807433675974607,,,,0.000245,0.000245
156,0.1007488266332075,0.085000554099679,,,,0.000245,0.000245
157,0.10198834782931954,0.0888564707711339,,,,0.0001715,0.0001715
158,0.10348746064119041,0.08856226364150643,,,,0.0001715,0.0001715
159,0.10038894112221897,0.08719038404524326,,,,0.0001715,0.0001715
160,0.10083759459666908,0.08729713596403599,,,,0.0001715,0.0001715
161,0.10357242194004357,0.08671990316361189,,,,0.0001715,0.0001715
162,0.1011247665155679,0.08639513701200485,,,,0.0001715,0.0001715
163,0.09970390843227506,0.08629551716148853,,,,0.0001715,0.0001715
164,0.1017662362428382,0.08702753484249115,,,,0.0001715,0.0001715
165,0.1016840455122292,0.08854175545275211,,,,0.0001715,0.0001715
166,0.09951774904038757,0.08689075335860252,,,,0.0001715,0.0001715
167,0.1001356765627861,0.085852712392807,,,,0.0001715,0.0001715
168,0.10081548290327191,0.08483602246269584,,,,0.00012004999999999999,0.00012004999999999999
169,0.10040402598679066,0.08556807786226273,,,,0.00012004999999999999,0.00012004999999999999
170,0.10349410271737725,0.08941978868097067,,,,0.00012004999999999999,0.00012004999999999999
171,0.10139317682478577,0.08625668752938509,,,,0.00012004999999999999,0.00012004999999999999
172,0.10055055294651538,0.08735171146690845,,,,0.00012004999999999999,0.00012004999999999999
173,0.09857978904619813,0.0818706527352333,,,,0.00012004999999999999,0.00012004999999999999
174,0.1007277857279405,0.08749448973685503,,,,0.00012004999999999999,0.00012004999999999999
175,0.10293716995511204,0.08327281009405851,,,,0.00012004999999999999,0.00012004999999999999
176,0.10204986052121967,0.08774384390562773,,,,0.00012004999999999999,0.00012004999999999999
177,0.09840050607454032,0.08528348337858915,,,,0.00012004999999999999,0.00012004999999999999
178,0.09911094070412219,0.08888025861233473,,,,0.00012004999999999999,0.00012004999999999999
179,0.10063983779400587,0.08468059590086341,,,,0.00012004999999999999,0.00012004999999999999
180,0.09867766196839511,0.08735204674303532,,,,0.00012004999999999999,0.00012004999999999999
181,0.100200752960518,0.08587265200912952,,,,0.00012004999999999999,0.00012004999999999999
182,0.10137683129869401,0.08255208050832152,,,,0.00012004999999999999,0.00012004999999999999
183,0.10235856170766056,0.08698466420173645,,,,0.00012004999999999999,0.00012004999999999999
184,0.10391487646847963,0.08596688881516457,,,,8.403499999999999e-05,8.403499999999999e-05
185,0.10454015259165317,0.08537220396101475,,,,8.403499999999999e-05,8.403499999999999e-05
186,0.10036233253777027,0.08379591722041368,,,,8.403499999999999e-05,8.403499999999999e-05
187,0.10019903210923076,0.08564391918480396,,,,8.403499999999999e-05,8.403499999999999e-05
188,0.10064916475676,0.0857912041246891,,,,8.403499999999999e-05,8.403499999999999e-05
189,0.09887606999836862,0.08682737685739994,,,,8.403499999999999e-05,8.403499999999999e-05
190,0.10231810354162008,0.0852560494095087,,,,8.403499999999999e-05,8.403499999999999e-05
191,0.10024938639253378,0.08420072309672832,,,,8.403499999999999e-05,8.403499999999999e-05
192,0.10068868368398398,0.07988810213282704,,,,8.403499999999999e-05,8.403499999999999e-05
193,0.10426797764375806,0.08753245137631893,,,,8.403499999999999e-05,8.403499999999999e-05
194,0.09898682276252657,0.08570799697190523,,,,8.403499999999999e-05,8.403499999999999e-05
195,0.10137836413923651,0.0870317593216896,,,,8.403499999999999e-05,8.403499999999999e-05
196,0.09820414101704955,0.08183812443166971,,,,8.403499999999999e-05,8.403499999999999e-05
197,0.10215203964617103,0.0838811881840229,,,,8.403499999999999e-05,8.403499999999999e-05
198,0.09962655999697745,0.08535575214773417,,,,8.403499999999999e-05,8.403499999999999e-05
199,0.10010826378129423,0.08456795290112495,,,,8.403499999999999e-05,8.403499999999999e-05
200,0.10052932321559638,0.08536799810826778,,,,8.403499999999999e-05,8.403499999999999e-05
201,0.10235966008622199,0.08653547614812851,,,,8.403499999999999e-05,8.403499999999999e-05
202,0.10184763942379504,0.08547674212604761,,,,8.403499999999999e-05,8.403499999999999e-05
203,0.10321514529641718,0.08510588388890028,,,,5.882449999999999e-05,5.882449999999999e-05
204,0.09995272185187787,0.08663893397897482,,,,5.882449999999999e-05,5.882449999999999e-05
205,0.09969238203484565,0.08642239030450583,,,,5.882449999999999e-05,5.882449999999999e-05
206,0.10119620524346828,0.08238723874092102,,,,5.882449999999999e-05,5.882449999999999e-05
207,0.10377882851753384,0.08527474477887154,,,,5.882449999999999e-05,5.882449999999999e-05
208,0.10044143395498395,0.08467752952128649,,,,5.882449999999999e-05,5.882449999999999e-05
209,0.10388176282867789,0.08624685555696487,,,,5.882449999999999e-05,5.882449999999999e-05
210,0.10213851323351264,0.09155012853443623,,,,5.882449999999999e-05,5.882449999999999e-05
211,0.09892424487043172,0.08511322410777211,,,,5.882449999999999e-05,5.882449999999999e-05
212,0.10037255194038153,0.08403358235955238,,,,5.882449999999999e-05,5.882449999999999e-05
213,0.09922563564032316,0.08586153760552406,,,,5.882449999999999e-05,5.882449999999999e-05
214,0.09886262693908066,0.08379590976983309,,,,4.117714999999999e-05,4.117714999999999e-05
215,0.10240736790001392,0.08271412923932076,,,,4.117714999999999e-05,4.117714999999999e-05
216,0.1024683298310265,0.08393014594912529,,,,4.117714999999999e-05,4.117714999999999e-05
217,0.09955734410323203,0.09052753541618586,,,,4.117714999999999e-05,4.117714999999999e-05
218,0.10114435851573944,0.08655600063502789,,,,4.117714999999999e-05,4.117714999999999e-05
219,0.0992643388453871,0.08468908257782459,,,,4.117714999999999e-05,4.117714999999999e-05
220,0.10224144253879786,0.0871761254966259,,,,4.117714999999999e-05,4.117714999999999e-05
221,0.10119277238845825,0.08423245791345835,,,,4.117714999999999e-05,4.117714999999999e-05
222,0.098735824925825,0.08465655334293842,,,,4.117714999999999e-05,4.117714999999999e-05
223,0.09891144267749041,0.08520121034234762,,,,4.117714999999999e-05,4.117714999999999e-05
224,0.09981633257120848,0.08920852653682232,,,,4.117714999999999e-05,4.117714999999999e-05
225,0.10212518449407071,0.08339057397097349,,,,2.8824004999999994e-05,2.8824004999999994e-05
226,0.10263327020220459,0.08788944920524955,,,,2.8824004999999994e-05,2.8824004999999994e-05
227,0.09963204478845,0.08836835948750377,,,,2.8824004999999994e-05,2.8824004999999994e-05
228,0.09823770844377577,0.08791784476488829,,,,2.8824004999999994e-05,2.8824004999999994e-05
229,0.10149026359431446,0.08577035367488861,,,,2.8824004999999994e-05,2.8824004999999994e-05
230,0.10104446555487812,0.08538073673844337,,,,2.8824004999999994e-05,2.8824004999999994e-05
231,0.101144083077088,0.08448235038667917,,,,2.8824004999999994e-05,2.8824004999999994e-05
232,0.09998730639927089,0.08395079709589481,,,,2.8824004999999994e-05,2.8824004999999994e-05
233,0.1018524399260059,0.0863749347627163,,,,2.8824004999999994e-05,2.8824004999999994e-05
234,0.09961115848273039,0.08430563472211361,,,,2.8824004999999994e-05,2.8824004999999994e-05
235,0.0990036188159138,0.08461718121543527,,,,2.8824004999999994e-05,2.8824004999999994e-05
236,0.09834168828092515,0.0857342341914773,,,,2.0176803499999996e-05,2.0176803499999996e-05
237,0.10101463878527284,0.08658233657479286,,,,2.0176803499999996e-05,2.0176803499999996e-05
238,0.10042235278524458,0.08446699380874634,,,,2.0176803499999996e-05,2.0176803499999996e-05
239,0.10150636662729084,0.08473304752260447,,,,2.0176803499999996e-05,2.0176803499999996e-05
240,0.09751304693054408,0.0890283714979887,,,,2.0176803499999996e-05,2.0176803499999996e-05
241,0.10009465902112424,0.08448618091642857,,,,2.0176803499999996e-05,2.0176803499999996e-05
242,0.10357116814702749,0.08669349551200867,,,,2.0176803499999996e-05,2.0176803499999996e-05
243,0.09824961249250919,0.08476641681045294,,,,2.0176803499999996e-05,2.0176803499999996e-05
244,0.09958931989967823,0.08628574665635824,,,,2.0176803499999996e-05,2.0176803499999996e-05
245,0.098701476235874,0.08595517370849848,,,,2.0176803499999996e-05,2.0176803499999996e-05
246,0.09953152388334274,0.08382724644616246,,,,2.0176803499999996e-05,2.0176803499999996e-05
247,0.09765555639751256,0.084691540338099,,,,1.4123762449999997e-05,1.4123762449999997e-05
248,0.09926023182924837,0.0882120132446289,,,,1.4123762449999997e-05,1.4123762449999997e-05
249,0.10031024517957121,0.0851014144718647,,,,1.4123762449999997e-05,1.4123762449999997e-05
250,0.10028913931455463,0.08603328932076693,,,,1.4123762449999997e-05,1.4123762449999997e-05
251,0.10120026231743395,0.08387242630124092,,,,1.4123762449999997e-05,1.4123762449999997e-05
252,0.09997774218209088,0.08510523848235607,,,,1.4123762449999997e-05,1.4123762449999997e-05
253,0.10043021501041949,0.08573585841804743,,,,1.4123762449999997e-05,1.4123762449999997e-05
254,0.09851599438115954,0.08506444748491049,,,,1.4123762449999997e-05,1.4123762449999997e-05
255,0.09968710353132337,0.08545669075101614,,,,1.4123762449999997e-05,1.4123762449999997e-05
256,0.1012010988779366,0.0850164731964469,,,,1.4123762449999997e-05,1.4123762449999997e-05
257,0.10034701356198639,0.08834668714553118,,,,1.4123762449999997e-05,1.4123762449999997e-05
258,0.09892976458650082,0.08466299623250961,,,,9.886633714999997e-06,9.886633714999997e-06
259,0.09928349708206952,0.08598585706204176,,,,9.886633714999997e-06,9.886633714999997e-06
260,0.09939378930721432,0.08522933023050427,,,,9.886633714999997e-06,9.886633714999997e-06
261,0.09789707395248115,0.08595381025224924,,,,9.886633714999997e-06,9.886633714999997e-06
262,0.09952322277240455,0.0859349649399519,,,,9.886633714999997e-06,9.886633714999997e-06
263,0.10380202427040786,0.0880436897277832,,,,9.886633714999997e-06,9.886633714999997e-06
264,0.09864095225930214,0.08177002891898155,,,,9.886633714999997e-06,9.886633714999997e-06
265,0.0993837749119848,0.08583593089133501,,,,9.886633714999997e-06,9.886633714999997e-06
266,0.10103710449766368,0.08352599292993546,,,,9.886633714999997e-06,9.886633714999997e-06
267,0.09956178965512663,0.08586886012926698,,,,9.886633714999997e-06,9.886633714999997e-06
268,0.10038606321904808,0.08504431135952473,,,,9.886633714999997e-06,9.886633714999997e-06
269,0.10350188973825425,0.0846543712541461,,,,6.920643600499998e-06,6.920643600499998e-06
270,0.0978260146221146,0.08354219235479832,,,,6.920643600499998e-06,6.920643600499998e-06
271,0.10110919550061226,0.08704105671495199,,,,6.920643600499998e-06,6.920643600499998e-06
272,0.09963491675443947,0.08525770157575607,,,,6.920643600499998e-06,6.920643600499998e-06
273,0.10077733383513987,0.08506976254284382,,,,6.920643600499998e-06,6.920643600499998e-06
274,0.09894417715258896,0.08410856686532497,,,,6.920643600499998e-06,6.920643600499998e-06
275,0.09727481508161873,0.08674275130033493,,,,6.920643600499998e-06,6.920643600499998e-06
276,0.09915901080239564,0.0874269399791956,,,,6.920643600499998e-06,6.920643600499998e-06
277,0.09998930885922164,0.08536182250827551,,,,6.920643600499998e-06,6.920643600499998e-06
278,0.10191843868233263,0.08734262175858021,,,,6.920643600499998e-06,6.920643600499998e-06
279,0.09977719571907073,0.08865525480359793,,,,6.920643600499998e-06,6.920643600499998e-06
280,0.09816254023462534,0.08524732012301683,,,,4.844450520349998e-06,4.844450520349998e-06
281,0.09736028907354921,0.08437571302056313,,,,4.844450520349998e-06,4.844450520349998e-06
282,0.09909064508974552,0.08375774556770921,,,,4.844450520349998e-06,4.844450520349998e-06
283,0.1017895134864375,0.08599910978227854,,,,4.844450520349998e-06,4.844450520349998e-06
284,0.09976540307980031,0.0882984260097146,,,,4.844450520349998e-06,4.844450520349998e-06
285,0.10101278824731708,0.08569619851186872,,,,4.844450520349998e-06,4.844450520349998e-06
286,0.10027544712647796,0.08421189850196242,,,,4.844450520349998e-06,4.844450520349998e-06
287,0.0987112233415246,0.08551778830587864,,,,4.844450520349998e-06,4.844450520349998e-06
288,0.09894694352988154,0.08288900228217244,,,,4.844450520349998e-06,4.844450520349998e-06
289,0.09901135903783143,0.08824419230222702,,,,4.844450520349998e-06,4.844450520349998e-06
290,0.10014841961674392,0.08460618741810322,,,,4.844450520349998e-06,4.844450520349998e-06
291,0.09930497000459582,0.08421340398490429,,,,3.3911153642449986e-06,3.3911153642449986e-06
292,0.09797872486524284,0.08656738325953484,,,,3.3911153642449986e-06,3.3911153642449986e-06
293,0.10067882225848734,0.0874001057818532,,,,3.3911153642449986e-06,3.3911153642449986e-06
294,0.09997179498896003,0.08713641483336687,,,,3.3911153642449986e-06,3.3911153642449986e-06
295,0.10032251849770546,0.08400842361152172,,,,3.3911153642449986e-06,3.3911153642449986e-06
296,0.09781370800919831,0.0878428341820836,,,,3.3911153642449986e-06,3.3911153642449986e-06
297,0.10166689450852573,0.08663352020084858,,,,3.3911153642449986e-06,3.3911153642449986e-06
298,0.09974316006992012,0.08298449218273163,,,,3.3911153642449986e-06,3.3911153642449986e-06
299,0.09961559064686298,0.08526230044662952,,,,3.3911153642449986e-06,3.3911153642449986e-06
