epoch,train_loss,eval_loss,f1_score,precision,recall,lr,adam_lr
0,2.166413277387619,2.139235883951187,,,,0.0005,0.0005
1,2.0864287093281746,2.0726092159748077,,,,0.0005,0.0005
2,2.008928082883358,1.9896397292613983,,,,0.0005,0.0005
3,1.9303617030382156,1.9065897762775421,,,,0.0005,0.0005
4,1.8376624062657356,1.8155303001403809,,,,0.0005,0.0005
5,1.7290331348776817,1.6788603961467743,,,,0.0005,0.0005
6,1.5912507474422455,1.5242980122566223,,,,0.0005,0.0005
7,1.4217983111739159,1.3314847648143768,,,,0.0005,0.0005
8,1.2027339451014996,1.088918313384056,,,,0.0005,0.0005
9,0.9385508261620998,0.8039499074220657,,,,0.0005,0.0005
10,0.6402083896100521,0.48649320751428604,,,,0.0005,0.0005
11,0.3463425086811185,0.24589480832219124,,,,0.0005,0.0005
12,0.1866579637862742,0.18771814741194248,,,,0.0005,0.0005
13,0.16348991310223937,0.19106376357376575,,,,0.0005,0.0005
14,0.1593705085106194,0.1900212373584509,,,,0.0005,0.0005
15,0.15715607814490795,0.1860652156174183,,,,0.0005,0.0005
16,0.15640035783872008,0.17940111458301544,,,,0.0005,0.0005
17,0.15157538605853915,0.1811142973601818,,,,0.0005,0.0005
18,0.14953355863690376,0.18335040658712387,,,,0.0005,0.0005
19,0.1474035568535328,0.17641275376081467,,,,0.0005,0.0005
20,0.14854170382022858,0.17736705392599106,,,,0.0005,0.0005
21,0.14516292372718453,0.18113896064460278,,,,0.0005,0.0005
22,0.14815303683280945,0.18185883946716785,,,,0.0005,0.0005
23,0.14448944991454482,0.17637545801699162,,,,0.0005,0.0005
24,0.14284164155833423,0.1694000493735075,,,,0.0005,0.0005
25,0.1413233238272369,0.16912927851080894,,,,0.0005,0.0005
26,0.14313898608088493,0.17192277498543262,,,,0.0005,0.0005
27,0.14289665641263127,0.17781427688896656,,,,0.0005,0.0005
28,0.14153286395594478,0.16884338110685349,,,,0.0005,0.0005
29,0.14117640489712358,0.16845573298633099,,,,0.0005,0.0005
30,0.14100145641714334,0.16499081812798977,,,,0.0005,0.0005
31,0.13927936553955078,0.1694454699754715,,,,0.0005,0.0005
32,0.13606328144669533,0.17102162167429924,,,,0.0005,0.0005
33,0.137845057528466,0.17250999249517918,,,,0.0005,0.0005
34,0.13633928541094065,0.16068140417337418,,,,0.0005,0.0005
35,0.13187878648750484,0.16231662407517433,,,,0.0005,0.0005
36,0.1298087164759636,0.15833273343741894,,,,0.0005,0.0005
37,0.1313502285629511,0.15977327898144722,,,,0.0005,0.0005
38,0.133311991347,0.1632697768509388,,,,0.0005,0.0005
39,0.12884987681172788,0.15652935951948166,,,,0.0005,0.0005
40,0.1271449273917824,0.15370167419314384,,,,0.0005,0.0005
41,0.1270921954419464,0.15489831008017063,,,,0.0005,0.0005
42,0.12344164773821831,0.15067111141979694,,,,0.0005,0.0005
43,0.12315244949422777,0.15288745611906052,,,,0.0005,0.0005
44,0.12550061522051692,0.14788267202675343,,,,0.0005,0.0005
45,0.12475930363871157,0.14609318785369396,,,,0.0005,0.0005
46,0.12292352272197604,0.15388244669884443,,,,0.0005,0.0005
47,0.11806679423898458,0.15204209927469492,,,,0.0005,0.0005
48,0.12086481414735317,0.15317355282604694,,,,0.0005,0.0005
49,0.11558921681717038,0.14727862738072872,,,,0.0005,0.0005
50,0.11592925642617047,0.14735416136682034,,,,0.0005,0.0005
51,0.11579260719008744,0.15377414412796497,,,,0.0005,0.0005
52,0.1146309218602255,0.14183219894766808,,,,0.0005,0.0005
53,0.11306188069283962,0.14448300562798977,,,,0.0005,0.0005
54,0.11170558002777398,0.14089203905314207,,,,0.0005,0.0005
55,0.11385499755851924,0.14077924750745296,,,,0.0005,0.0005
56,0.1113708761986345,0.1469152346253395,,,,0.0005,0.0005
57,0.11310659302398562,0.1430373303592205,,,,0.0005,0.0005
58,0.11384574556723237,0.14027532562613487,,,,0.0005,0.0005
59,0.11179930996149778,0.14321543648838997,,,,0.0005,0.0005
60,0.11434026202186942,0.1413458213210106,,,,0.0005,0.0005
61,0.11327641201205552,0.14279554225504398,,,,0.0005,0.0005
62,0.11041793692857027,0.14095761068165302,,,,0.0005,0.0005
63,0.11490885959938169,0.1485836636275053,,,,0.0005,0.0005
64,0.11159853497520089,0.14302201569080353,,,,0.0005,0.0005
65,0.10989813320338726,0.14152289927005768,,,,0.0005,0.0005
66,0.10907788877375424,0.14320771675556898,,,,0.0005,0.0005
67,0.10880073020234704,0.14144564792513847,,,,0.0005,0.0005
68,0.10794899240136147,0.13758779130876064,,,,0.0005,0.0005
69,0.11056362697854638,0.14306331425905228,,,,0.0005,0.0005
70,0.10626680217683315,0.13598335906863213,,,,0.0005,0.0005
71,0.11462884279899299,0.13956476002931595,,,,0.0005,0.0005
72,0.10763113270513713,0.14169707149267197,,,,0.0005,0.0005
73,0.1061077939812094,0.14062545076012611,,,,0.0005,0.0005
74,0.10629072808660567,0.1364603079855442,,,,0.0005,0.0005
75,0.10783204599283636,0.1405957192182541,,,,0.0005,0.0005
76,0.1052939654327929,0.13866821490228176,,,,0.0005,0.0005
77,0.1033650238532573,0.13671308755874634,,,,0.0005,0.0005
78,0.10600550984963775,0.13741454109549522,,,,0.0005,0.0005
79,0.10415795957669616,0.14244876336306334,,,,0.0005,0.0005
80,0.10674862586893141,0.13463698141276836,,,,0.0005,0.0005
81,0.10369978193193674,0.13540586177259684,,,,0.0005,0.0005
82,0.10072135692462325,0.13581188768148422,,,,0.0005,0.0005
83,0.10157421045005322,0.13270770944654942,,,,0.0005,0.0005
84,0.10294785420410335,0.13183662854135036,,,,0.0005,0.0005
85,0.1019643743056804,0.13542998395860195,,,,0.0005,0.0005
86,0.10466340696439147,0.13453107234090567,,,,0.0005,0.0005
87,0.10287934984080493,0.13157366961240768,,,,0.0005,0.0005
88,0.10119855613447726,0.1354828793555498,,,,0.0005,0.0005
89,0.09959459432866424,0.13244326505810022,,,,0.0005,0.0005
90,0.10009076492860913,0.1369288433343172,,,,0.0005,0.0005
91,0.09853928186930716,0.13219907507300377,,,,0.0005,0.0005
92,0.10029533749911934,0.13010000810027122,,,,0.0005,0.0005
93,0.09714847314171493,0.12222911417484283,,,,0.0005,0.0005
94,0.09889925667084754,0.13351248018443584,,,,0.0005,0.0005
95,0.09953594650141895,0.1297876164317131,,,,0.0005,0.0005
96,0.09633624646812677,0.13015812076628208,,,,0.0005,0.0005
97,0.09714179183356464,0.12764912098646164,,,,0.0005,0.0005
98,0.09642772260122001,0.12708080280572176,,,,0.0005,0.0005
99,0.09446084266528487,0.12580185756087303,,,,0.0005,0.0005
100,0.0968875412363559,0.1265796683728695,,,,0.0005,0.0005
101,0.09731687000021338,0.13524650037288666,,,,0.0005,0.0005
102,0.09643320087343454,0.1278987806290388,,,,0.0005,0.0005
103,0.09664756897836924,0.1330267433077097,,,,0.0005,0.0005
104,0.09766549454070628,0.1301895696669817,,,,0.00035,0.00035
105,0.09593843342736363,0.13069087266921997,,,,0.00035,0.00035
106,0.09539002412930131,0.12737572472542524,,,,0.00035,0.00035
107,0.09274322632700205,0.12472052499651909,,,,0.00035,0.00035
108,0.09404393972363323,0.12782318703830242,,,,0.00035,0.00035
109,0.0927195439580828,0.12839552015066147,,,,0.00035,0.00035
110,0.09406303055584431,0.12513604573905468,,,,0.00035,0.00035
111,0.09433503192849457,0.1297473544254899,,,,0.00035,0.00035
112,0.09565269388258457,0.12705113366246223,,,,0.00035,0.00035
113,0.09392897086218,0.1286599151790142,,,,0.00035,0.00035
114,0.09176440467126667,0.12470060214400291,,,,0.00035,0.00035
115,0.09119884599931538,0.12626186944544315,,,,0.000245,0.000245
116,0.0933526671724394,0.12467402592301369,,,,0.000245,0.000245
117,0.09441269491799176,0.12525994516909122,,,,0.000245,0.000245
118,0.09285013226326555,0.12770444713532925,,,,0.000245,0.000245
119,0.09281237632967532,0.12775522284209728,,,,0.000245,0.000245
120,0.09235621173866093,0.12585843494161963,,,,0.000245,0.000245
121,0.09063815185800195,0.12227218225598335,,,,0.000245,0.000245
122,0.09570180543232709,0.12183718010783195,,,,0.000245,0.000245
123,0.09139361802954227,0.12820671312510967,,,,0.000245,0.000245
124,0.09291696804575622,0.12307921890169382,,,,0.000245,0.000245
125,0.09076814143918455,0.1265709213912487,,,,0.000245,0.000245
126,0.09304679837077856,0.11761937290430069,,,,0.000245,0.000245
127,0.09290766320191324,0.12364184111356735,,,,0.000245,0.000245
128,0.0930875256890431,0.12512793438509107,,,,0.000245,0.000245
129,0.091764667769894,0.12321069836616516,,,,0.000245,0.000245
130,0.09028862952254713,0.11785262636840343,,,,0.000245,0.000245
131,0.09446939826011658,0.11886663362383842,,,,0.000245,0.000245
132,0.09253394394181669,0.12266409210860729,,,,0.000245,0.000245
133,0.09408786823041737,0.12276363279670477,,,,0.000245,0.000245
134,0.09214673656970263,0.12528692558407784,,,,0.000245,0.000245
135,0.09247783059254289,0.11895052716135979,,,,0.000245,0.000245
136,0.09146688296459615,0.12233667634427547,,,,0.000245,0.000245
137,0.09286762354895473,0.1265659313648939,,,,0.0001715,0.0001715
138,0.09106050012633204,0.11939820367842913,,,,0.0001715,0.0001715
139,0.09314829611685127,0.11941628204658628,,,,0.0001715,0.0001715
140,0.09168509184382856,0.12391343899071217,,,,0.0001715,0.0001715
141,0.09145666635595262,0.12365168705582619,,,,0.0001715,0.0001715
142,0.09029091335833073,0.12592414021492004,,,,0.0001715,0.0001715
143,0.09370215609669685,0.1223153593018651,,,,0.0001715,0.0001715
144,0.09050656901672482,0.12492255959659815,,,,0.0001715,0.0001715
145,0.08994219487067312,0.12107301969081163,,,,0.0001715,0.0001715
146,0.09168185549788177,0.12662808503955603,,,,0.0001715,0.0001715
147,0.09267044311854988,0.12080444395542145,,,,0.0001715,0.0001715
148,0.09458686097059399,0.12271112017333508,,,,0.00012004999999999999,0.00012004999999999999
149,0.09315924346446991,0.12343610636889935,,,,0.00012004999999999999,0.00012004999999999999
150,0.09051999822258949,0.123980020172894,,,,0.00012004999999999999,0.00012004999999999999
151,0.09301621827762574,0.12465490773320198,,,,0.00012004999999999999,0.00012004999999999999
152,0.09089047508314252,0.12627815641462803,,,,0.00012004999999999999,0.00012004999999999999
153,0.09272597497329116,0.12065882049500942,,,,0.00012004999999999999,0.00012004999999999999
154,0.093136036535725,0.12115263938903809,,,,0.00012004999999999999,0.00012004999999999999
155,0.09052000776864588,0.12604965455830097,,,,0.00012004999999999999,0.00012004999999999999
156,0.09209554269909859,0.12079896032810211,,,,0.00012004999999999999,0.00012004999999999999
157,0.09181707235984504,0.1241344753652811,,,,0.00012004999999999999,0.00012004999999999999
158,0.09190186054911464,0.12319735251367092,,,,0.00012004999999999999,0.00012004999999999999
159,0.09168927755672485,0.12164720520377159,,,,8.403499999999999e-05,8.403499999999999e-05
160,0.08994945790618658,0.12284839805215597,,,,8.403499999999999e-05,8.403499999999999e-05
161,0.0913418959826231,0.12793988082557917,,,,8.403499999999999e-05,8.403499999999999e-05
162,0.09083051548805088,0.12864051572978497,,,,8.403499999999999e-05,8.403499999999999e-05
163,0.09053785761352628,0.12271356303244829,,,,8.403499999999999e-05,8.403499999999999e-05
164,0.08980965171940625,0.12186573259532452,,,,8.403499999999999e-05,8.403499999999999e-05
165,0.09167593682650477,0.1231548897922039,,,,8.403499999999999e-05,8.403499999999999e-05
166,0.09139795461669564,0.1188844833523035,,,,8.403499999999999e-05,8.403499999999999e-05
167,0.08884282188955694,0.12065416947007179,,,,8.403499999999999e-05,8.403499999999999e-05
168,0.0893677476560697,0.12007186561822891,,,,8.403499999999999e-05,8.403499999999999e-05
169,0.08889942755922675,0.1221698448061943,,,,8.403499999999999e-05,8.403499999999999e-05
170,0.08935855724848807,0.12059148866683245,,,,5.882449999999999e-05,5.882449999999999e-05
171,0.09102475317195058,0.1208520159125328,,,,5.882449999999999e-05,5.882449999999999e-05
172,0.09113079868257046,0.12755767814815044,,,,5.882449999999999e-05,5.882449999999999e-05
173,0.08939375740010291,0.12260811449959874,,,,5.882449999999999e-05,5.882449999999999e-05
174,0.08953381981700659,0.12125515379011631,,,,5.882449999999999e-05,5.882449999999999e-05
175,0.08952648658305407,0.12569276150316,,,,5.882449999999999e-05,5.882449999999999e-05
176,0.09071197069715708,0.12065600790083408,,,,5.882449999999999e-05,5.882449999999999e-05
177,0.09090275620110333,0.12598688900470734,,,,5.882449999999999e-05,5.882449999999999e-05
178,0.09009783202782273,0.1228345762938261,,,,5.882449999999999e-05,5.882449999999999e-05
179,0.08982709783595055,0.12310276739299297,,,,5.882449999999999e-05,5.882449999999999e-05
180,0.09103842137847096,0.1208591628819704,,,,5.882449999999999e-05,5.882449999999999e-05
181,0.09102805866859853,0.12352188676595688,,,,4.117714999999999e-05,4.117714999999999e-05
182,0.09219651506282389,0.1246193889528513,,,,4.117714999999999e-05,4.117714999999999e-05
183,0.08922413969412446,0.12222537212073803,,,,4.117714999999999e-05,4.117714999999999e-05
184,0.08979240828193724,0.12258930690586567,,,,4.117714999999999e-05,4.117714999999999e-05
185,0.09058985370211303,0.12375711835920811,,,,4.117714999999999e-05,4.117714999999999e-05
186,0.09095337509643286,0.11911347601562738,,,,4.117714999999999e-05,4.117714999999999e-05
187,0.09073516353964806,0.12007387727499008,,,,4.117714999999999e-05,4.117714999999999e-05
188,0.09107442118693143,0.12049152422696352,,,,4.117714999999999e-05,4.117714999999999e-05
189,0.09178419155068696,0.11983121745288372,,,,4.117714999999999e-05,4.117714999999999e-05
190,0.09050114441197366,0.12415982224047184,,,,4.117714999999999e-05,4.117714999999999e-05
191,0.08818411035463214,0.12477984372526407,,,,4.117714999999999e-05,4.117714999999999e-05
192,0.09123355732299387,0.11854301020503044,,,,2.8824004999999994e-05,2.8824004999999994e-05
193,0.09000646078493446,0.11829438991844654,,,,2.8824004999999994e-05,2.8824004999999994e-05
194,0.08725547580979764,0.1206159284338355,,,,2.8824004999999994e-05,2.8824004999999994e-05
195,0.08975993376225233,0.12350376136600971,,,,2.8824004999999994e-05,2.8824004999999994e-05
196,0.09060028567910194,0.11864025518298149,,,,2.8824004999999994e-05,2.8824004999999994e-05
197,0.08974581700749695,0.12482670322060585,,,,2.8824004999999994e-05,2.8824004999999994e-05
198,0.09049946069717407,0.12110989447683096,,,,2.8824004999999994e-05,2.8824004999999994e-05
199,0.09181959496345371,0.12106559611856937,,,,2.8824004999999994e-05,2.8824004999999994e-05
200,0.08979666826780885,0.12412640824913979,,,,2.8824004999999994e-05,2.8824004999999994e-05
201,0.08960403385572135,0.11799699813127518,,,,2.8824004999999994e-05,2.8824004999999994e-05
202,0.09100172622129321,0.12163602374494076,,,,2.8824004999999994e-05,2.8824004999999994e-05
203,0.09086132980883121,0.12237169034779072,,,,2.0176803499999996e-05,2.0176803499999996e-05
204,0.09204342484008521,0.12156207859516144,,,,2.0176803499999996e-05,2.0176803499999996e-05
205,0.09304494014941156,0.12300487700849771,,,,2.0176803499999996e-05,2.0176803499999996e-05
206,0.08998886169865727,0.12331738788634539,,,,2.0176803499999996e-05,2.0176803499999996e-05
207,0.08897211996372789,0.11989809945225716,,,,2.0176803499999996e-05,2.0176803499999996e-05
208,0.08996286371257156,0.12430151738226414,,,,2.0176803499999996e-05,2.0176803499999996e-05
209,0.09010548749938607,0.1206658836454153,,,,2.0176803499999996e-05,2.0176803499999996e-05
210,0.09189997788053006,0.12133476696908474,,,,2.0176803499999996e-05,2.0176803499999996e-05
211,0.08835252246353775,0.11865132441744208,,,,2.0176803499999996e-05,2.0176803499999996e-05
212,0.09024886589031667,0.12439768854528666,,,,2.0176803499999996e-05,2.0176803499999996e-05
213,0.08934488915838301,0.12279239855706692,,,,2.0176803499999996e-05,2.0176803499999996e-05
214,0.09101915278006345,0.1175104258581996,,,,2.0176803499999996e-05,2.0176803499999996e-05
215,0.09007036208640784,0.12005845457315445,,,,2.0176803499999996e-05,2.0176803499999996e-05
216,0.09059155266731977,0.12283291295170784,,,,2.0176803499999996e-05,2.0176803499999996e-05
217,0.09138178243301809,0.11940194293856621,,,,2.0176803499999996e-05,2.0176803499999996e-05
218,0.08998285711277276,0.12116801925003529,,,,2.0176803499999996e-05,2.0176803499999996e-05
219,0.08968216925859451,0.11753524653613567,,,,2.0176803499999996e-05,2.0176803499999996e-05
220,0.08873439382296056,0.11819779127836227,,,,2.0176803499999996e-05,2.0176803499999996e-05
221,0.09150773100554943,0.12360185664147139,,,,2.0176803499999996e-05,2.0176803499999996e-05
222,0.08981766679789871,0.12151278555393219,,,,2.0176803499999996e-05,2.0176803499999996e-05
223,0.08965952647849917,0.11882809083908796,,,,2.0176803499999996e-05,2.0176803499999996e-05
224,0.0903376373462379,0.12157928757369518,,,,2.0176803499999996e-05,2.0176803499999996e-05
225,0.09131940267980099,0.12101726792752743,,,,1.4123762449999997e-05,1.4123762449999997e-05
226,0.08919950085692108,0.12243639677762985,,,,1.4123762449999997e-05,1.4123762449999997e-05
227,0.09007576573640108,0.12081913650035858,,,,1.4123762449999997e-05,1.4123762449999997e-05
228,0.09287627192679793,0.12292405217885971,,,,1.4123762449999997e-05,1.4123762449999997e-05
229,0.09089299733750522,0.11856779688969254,,,,1.4123762449999997e-05,1.4123762449999997e-05
230,0.08954822807572782,0.12208202108740807,,,,1.4123762449999997e-05,1.4123762449999997e-05
231,0.08922982355579734,0.1177380345761776,,,,1.4123762449999997e-05,1.4123762449999997e-05
232,0.08905234618578106,0.1184460474178195,,,,1.4123762449999997e-05,1.4123762449999997e-05
233,0.09119276108685881,0.12348271533846855,,,,1.4123762449999997e-05,1.4123762449999997e-05
234,0.08913594193290919,0.12286694720387459,,,,1.4123762449999997e-05,1.4123762449999997e-05
235,0.09056464280001819,0.13058570213615894,,,,1.4123762449999997e-05,1.4123762449999997e-05
236,0.08895025844685733,0.1196182444691658,,,,9.886633714999997e-06,9.886633714999997e-06
237,0.08828307723160833,0.127331861294806,,,,9.886633714999997e-06,9.886633714999997e-06
238,0.09079291007947177,0.1218221765011549,,,,9.886633714999997e-06,9.886633714999997e-06
239,0.09021862386725843,0.12016822583973408,,,,9.886633714999997e-06,9.886633714999997e-06
240,0.0895806192420423,0.12428481597453356,,,,9.886633714999997e-06,9.886633714999997e-06
241,0.09026523819193244,0.11576260253787041,,,,9.886633714999997e-06,9.886633714999997e-06
242,0.0906243184581399,0.12296332232654095,,,,9.886633714999997e-06,9.886633714999997e-06
243,0.08839723386336118,0.12059148214757442,,,,9.886633714999997e-06,9.886633714999997e-06
244,0.08997309359256178,0.12085439823567867,,,,9.886633714999997e-06,9.886633714999997e-06
245,0.09156244806945324,0.12111471872776747,,,,9.886633714999997e-06,9.886633714999997e-06
246,0.08995181391946971,0.12220959179103374,,,,9.886633714999997e-06,9.886633714999997e-06
247,0.09297520376276225,0.12476235255599022,,,,9.886633714999997e-06,9.886633714999997e-06
248,0.09045670880004764,0.12075088359415531,,,,9.886633714999997e-06,9.886633714999997e-06
249,0.08888975041918457,0.12084692623466253,,,,9.886633714999997e-06,9.886633714999997e-06
250,0.0877495437161997,0.12313119322061539,,,,9.886633714999997e-06,9.886633714999997e-06
251,0.09213567012920976,0.12234810646623373,,,,9.886633714999997e-06,9.886633714999997e-06
252,0.08955196407623589,0.12273658392950892,,,,6.920643600499998e-06,6.920643600499998e-06
253,0.08997173327952623,0.1241772542707622,,,,6.920643600499998e-06,6.920643600499998e-06
254,0.08872105088084936,0.11948632821440697,,,,6.920643600499998e-06,6.920643600499998e-06
255,0.09004955703858286,0.12109336629509926,,,,6.920643600499998e-06,6.920643600499998e-06
256,0.0883890240220353,0.11981437634676695,,,,6.920643600499998e-06,6.920643600499998e-06
257,0.08837706327904016,0.12746078707277775,,,,6.920643600499998e-06,6.920643600499998e-06
258,0.0897360173985362,0.1239436762407422,,,,6.920643600499998e-06,6.920643600499998e-06
259,0.0883775893598795,0.12481617834419012,,,,6.920643600499998e-06,6.920643600499998e-06
260,0.09032724320422858,0.12310304585844278,,,,6.920643600499998e-06,6.920643600499998e-06
261,0.09518841782119125,0.12129822466522455,,,,6.920643600499998e-06,6.920643600499998e-06
262,0.09031122084707022,0.12273826636373997,,,,6.920643600499998e-06,6.920643600499998e-06
263,0.09066083119250834,0.11985152587294579,,,,4.844450520349998e-06,4.844450520349998e-06
264,0.08988132199738175,0.12178568635135889,,,,4.844450520349998e-06,4.844450520349998e-06
265,0.08981910347938538,0.12061127088963985,,,,4.844450520349998e-06,4.844450520349998e-06
266,0.0896887662820518,0.11981524340808392,,,,4.844450520349998e-06,4.844450520349998e-06
267,0.08954133838415146,0.12098819110542536,,,,4.844450520349998e-06,4.844450520349998e-06
268,0.09292984451167285,0.12122878711670637,,,,4.844450520349998e-06,4.844450520349998e-06
269,0.08679232490248978,0.12009280174970627,,,,4.844450520349998e-06,4.844450520349998e-06
270,0.09252759721130133,0.12065581977367401,,,,4.844450520349998e-06,4.844450520349998e-06
271,0.08740928384941071,0.12293452117592096,,,,4.844450520349998e-06,4.844450520349998e-06
272,0.09162807976827025,0.12150602973997593,,,,4.844450520349998e-06,4.844450520349998e-06
273,0.08851095417048782,0.12172537483274937,,,,4.844450520349998e-06,4.844450520349998e-06
274,0.0889652551850304,0.12207722663879395,,,,3.3911153642449986e-06,3.3911153642449986e-06
275,0.08940331556368619,0.12722753174602985,,,,3.3911153642449986e-06,3.3911153642449986e-06
276,0.09348894283175468,0.12281516660004854,,,,3.3911153642449986e-06,3.3911153642449986e-06
277,0.09052518755197525,0.1271347375586629,,,,3.3911153642449986e-06,3.3911153642449986e-06
278,0.08910802728496492,0.12249847687780857,,,,3.3911153642449986e-06,3.3911153642449986e-06
279,0.09051945991814137,0.12008226197212934,,,,3.3911153642449986e-06,3.3911153642449986e-06
280,0.09188920864835382,0.12220112700015306,,,,3.3911153642449986e-06,3.3911153642449986e-06
281,0.09057433460839093,0.12018498219549656,,,,3.3911153642449986e-06,3.3911153642449986e-06
282,0.0904371680226177,0.12236729357391596,,,,3.3911153642449986e-06,3.3911153642449986e-06
283,0.08844426460564137,0.12006447743624449,,,,3.3911153642449986e-06,3.3911153642449986e-06
284,0.08980177040211856,0.12138522230088711,,,,3.3911153642449986e-06,3.3911153642449986e-06
285,0.08844604063779116,0.12212539371103048,,,,2.373780754971499e-06,2.373780754971499e-06
286,0.08875607559457421,0.12299409601837397,,,,2.373780754971499e-06,2.373780754971499e-06
287,0.09160751011222601,0.12344676814973354,,,,2.373780754971499e-06,2.373780754971499e-06
288,0.09109823033213615,0.12754786666482687,,,,2.373780754971499e-06,2.373780754971499e-06
289,0.09339319658465683,0.12101233378052711,,,,2.373780754971499e-06,2.373780754971499e-06
290,0.09156762133352458,0.1214600708335638,,,,2.373780754971499e-06,2.373780754971499e-06
291,0.0903484538430348,0.1257152846083045,,,,2.373780754971499e-06,2.373780754971499e-06
292,0.09282892174087465,0.12076558545231819,,,,2.373780754971499e-06,2.373780754971499e-06
293,0.09082623373251408,0.11839692760258913,,,,2.373780754971499e-06,2.373780754971499e-06
294,0.08842909650411457,0.11959914118051529,,,,2.373780754971499e-06,2.373780754971499e-06
295,0.09092914778739214,0.11964085977524519,,,,2.373780754971499e-06,2.373780754971499e-06
296,0.09004397096578032,0.11992217227816582,,,,1.661646528480049e-06,1.661646528480049e-06
297,0.0899376249872148,0.11825525434687734,,,,1.661646528480049e-06,1.661646528480049e-06
298,0.09101065224967897,0.12618276197463274,,,,1.661646528480049e-06,1.661646528480049e-06
299,0.09007703349925578,0.12234582751989365,,,,1.661646528480049e-06,1.661646528480049e-06
