epoch,train_loss,eval_loss,f1_score,precision,recall,lr,adam_lr
0,2.4320172667503357,2.41753089427948,,,,0.0005,0.0005
1,2.3762577027082443,2.356307327747345,,,,0.0005,0.0005
2,2.319421648979187,2.308424711227417,,,,0.0005,0.0005
3,2.2640133053064346,2.2526966333389282,,,,0.0005,0.0005
4,2.210664913058281,2.2006503343582153,,,,0.0005,0.0005
5,2.158964231610298,2.138071298599243,,,,0.0005,0.0005
6,2.101969964802265,2.0822901725769043,,,,0.0005,0.0005
7,2.037773236632347,2.0199307799339294,,,,0.0005,0.0005
8,1.9665884673595428,1.9378252625465393,,,,0.0005,0.0005
9,1.881436049938202,1.8421614170074463,,,,0.0005,0.0005
10,1.7806947529315948,1.7381894290447235,,,,0.0005,0.0005
11,1.6661600843071938,1.604644387960434,,,,0.0005,0.0005
12,1.5094787180423737,1.4318282306194305,,,,0.0005,0.0005
13,1.3287499472498894,1.2263647019863129,,,,0.0005,0.0005
14,1.1137089356780052,0.9921297580003738,,,,0.0005,0.0005
15,0.8482882753014565,0.6934714615345001,,,,0.0005,0.0005
16,0.5358701571822166,0.3738568276166916,,,,0.0005,0.0005
17,0.2707275254651904,0.2005929946899414,,,,0.0005,0.0005
18,0.19655861286446452,0.18591659888625145,,,,0.0005,0.0005
19,0.18851502472534776,0.18554911762475967,,,,0.0005,0.0005
20,0.18893488217145205,0.18240834400057793,,,,0.0005,0.0005
21,0.1881919982843101,0.18325639888644218,,,,0.0005,0.0005
22,0.18498244090005755,0.18138613738119602,,,,0.0005,0.0005
23,0.1831309339031577,0.18131347000598907,,,,0.0005,0.0005
24,0.18638421269133687,0.18057217821478844,,,,0.0005,0.0005
25,0.19235489470884204,0.1783202327787876,,,,0.0005,0.0005
26,0.18462511990219355,0.17944882810115814,,,,0.0005,0.0005
27,0.18231692165136337,0.1765921227633953,,,,0.0005,0.0005
28,0.18501846818253398,0.17650560848414898,,,,0.0005,0.0005
29,0.18039745138958097,0.18109779618680477,,,,0.0005,0.0005
30,0.17925343103706837,0.17843756452202797,,,,0.0005,0.0005
31,0.1838059020228684,0.1733148731291294,,,,0.0005,0.0005
32,0.18098536785691977,0.17543311044573784,,,,0.0005,0.0005
33,0.1779668228700757,0.17322689294815063,,,,0.0005,0.0005
34,0.17968912096694112,0.17118613049387932,,,,0.0005,0.0005
35,0.18065171409398317,0.17032230459153652,,,,0.0005,0.0005
36,0.17832890851423144,0.1708210539072752,,,,0.0005,0.0005
37,0.17555751069448888,0.16963744163513184,,,,0.0005,0.0005
38,0.17575886053964496,0.16842009499669075,,,,0.0005,0.0005
39,0.17630057828500867,0.1655723601579666,,,,0.0005,0.0005
40,0.17018181458115578,0.1668377798050642,,,,0.0005,0.0005
41,0.1689539640210569,0.16069982573390007,,,,0.0005,0.0005
42,0.16739093069918454,0.1574217863380909,,,,0.0005,0.0005
43,0.1665891194716096,0.1554219014942646,,,,0.0005,0.0005
44,0.1643621209077537,0.15380047261714935,,,,0.0005,0.0005
45,0.16152375703677535,0.15324687585234642,,,,0.0005,0.0005
46,0.1606262195855379,0.15209104120731354,,,,0.0005,0.0005
47,0.16110488446429372,0.14884614199399948,,,,0.0005,0.0005
48,0.16097930399701,0.15247667767107487,,,,0.0005,0.0005
49,0.15609546285122633,0.14924434386193752,,,,0.0005,0.0005
50,0.1579916262999177,0.14651989936828613,,,,0.0005,0.0005
51,0.15684538334608078,0.14973355643451214,,,,0.0005,0.0005
52,0.15670762723311782,0.1431657187640667,,,,0.0005,0.0005
53,0.15713426377624273,0.14075953140854836,,,,0.0005,0.0005
54,0.1576329511590302,0.14269976504147053,,,,0.0005,0.0005
55,0.15547781391069293,0.1403820849955082,,,,0.0005,0.0005
56,0.15596833499148488,0.14436363987624645,,,,0.0005,0.0005
57,0.1518028094433248,0.1404972206801176,,,,0.0005,0.0005
58,0.15264333738014102,0.13970006816089153,,,,0.0005,0.0005
59,0.15167099912650883,0.14313779771327972,,,,0.0005,0.0005
60,0.15194628993049264,0.1393011137843132,,,,0.0005,0.0005
61,0.14991710148751736,0.1382254008203745,,,,0.0005,0.0005
62,0.14920763974078,0.13653956912457943,,,,0.0005,0.0005
63,0.15044441516511142,0.13710038177669048,,,,0.0005,0.0005
64,0.1536333083640784,0.13494848646223545,,,,0.0005,0.0005
65,0.15411364007741213,0.1361132450401783,,,,0.0005,0.0005
66,0.14945729449391365,0.13385645858943462,,,,0.0005,0.0005
67,0.14846378238871694,0.13225378096103668,,,,0.0005,0.0005
68,0.14645079616457224,0.1310433279722929,,,,0.0005,0.0005
69,0.1467765097040683,0.13483747839927673,,,,0.0005,0.0005
70,0.14547905256040394,0.1330218520015478,,,,0.0005,0.0005
71,0.14856195636093616,0.13040661998093128,,,,0.0005,0.0005
72,0.15048505878075957,0.13107757456600666,,,,0.0005,0.0005
73,0.14501907862722874,0.12822645530104637,,,,0.0005,0.0005
74,0.14433180144988,0.1284453272819519,,,,0.0005,0.0005
75,0.14760640147142112,0.12848153337836266,,,,0.0005,0.0005
76,0.14137973473407328,0.13622150383889675,,,,0.0005,0.0005
77,0.14327348535880446,0.1276524979621172,,,,0.0005,0.0005
78,0.1481880124192685,0.12950540147721767,,,,0.0005,0.0005
79,0.14285604911856353,0.12783408537507057,,,,0.0005,0.0005
80,0.14204495213925838,0.12597513385117054,,,,0.0005,0.0005
81,0.1442480874247849,0.12505661882460117,,,,0.0005,0.0005
82,0.14423235249705613,0.12606755085289478,,,,0.0005,0.0005
83,0.13972955499775708,0.12606127187609673,,,,0.0005,0.0005
84,0.1432969975285232,0.12573991529643536,,,,0.0005,0.0005
85,0.14157194388099015,0.12271234206855297,,,,0.0005,0.0005
86,0.14137982111424208,0.12222639098763466,,,,0.0005,0.0005
87,0.14204157004132867,0.12089147046208382,,,,0.0005,0.0005
88,0.13989204866811633,0.12200115248560905,,,,0.0005,0.0005
89,0.13814164511859417,0.12250690162181854,,,,0.0005,0.0005
90,0.14167405082844198,0.12072249129414558,,,,0.0005,0.0005
91,0.14188176137395203,0.11948573030531406,,,,0.0005,0.0005
92,0.13892687181942165,0.11936546862125397,,,,0.0005,0.0005
93,0.13841758971102536,0.1208362290635705,,,,0.0005,0.0005
94,0.1354892859235406,0.11994032002985477,,,,0.0005,0.0005
95,0.13669280987232924,0.11915508657693863,,,,0.0005,0.0005
96,0.1359597211703658,0.11586778424680233,,,,0.0005,0.0005
97,0.1400155450683087,0.1156841516494751,,,,0.0005,0.0005
98,0.13696525525301695,0.1160026304423809,,,,0.0005,0.0005
99,0.1363878210540861,0.11542526260018349,,,,0.0005,0.0005
100,0.13440149347297847,0.11528158746659756,,,,0.0005,0.0005
101,0.13366465456783772,0.11992040649056435,,,,0.0005,0.0005
102,0.13275148393586278,0.11748784128576517,,,,0.0005,0.0005
103,0.1319606297183782,0.11070161685347557,,,,0.0005,0.0005
104,0.13342583971098065,0.11215879954397678,,,,0.0005,0.0005
105,0.13332461239770055,0.1116634551435709,,,,0.0005,0.0005
106,0.13201396958902478,0.10990298353135586,,,,0.0005,0.0005
107,0.1335414571221918,0.11057722754776478,,,,0.0005,0.0005
108,0.13211301784031093,0.10687161237001419,,,,0.0005,0.0005
109,0.13123745028860867,0.11126837506890297,,,,0.0005,0.0005
110,0.1310957414098084,0.10654995404183865,,,,0.0005,0.0005
111,0.13030069321393967,0.10839330591261387,,,,0.0005,0.0005
112,0.1323971296660602,0.10732660070061684,,,,0.0005,0.0005
113,0.12877412629313767,0.10904297046363354,,,,0.0005,0.0005
114,0.1294435269664973,0.1088824849575758,,,,0.0005,0.0005
115,0.12663940247148275,0.10658098757266998,,,,0.0005,0.0005
116,0.12827374949119985,0.10360705852508545,,,,0.0005,0.0005
117,0.12761695380322635,0.10262222215533257,,,,0.0005,0.0005
118,0.1254656482487917,0.1029841611161828,,,,0.0005,0.0005
119,0.12477487442083657,0.10498714447021484,,,,0.0005,0.0005
120,0.12929007201455534,0.10788474977016449,,,,0.0005,0.0005
121,0.13195634400472045,0.10623433999717236,,,,0.0005,0.0005
122,0.12457470293156803,0.10378636885434389,,,,0.0005,0.0005
123,0.1222667854744941,0.10152691975235939,,,,0.0005,0.0005
124,0.12162666325457394,0.10388868767768145,,,,0.0005,0.0005
125,0.12175698601640761,0.10298771411180496,,,,0.0005,0.0005
126,0.12360642571002245,0.10066617466509342,,,,0.0005,0.0005
127,0.12047043698839843,0.09743116237223148,,,,0.0005,0.0005
128,0.12267781281843781,0.0994512727484107,,,,0.0005,0.0005
129,0.12528856471180916,0.09647336788475513,,,,0.0005,0.0005
130,0.12233876646496356,0.09464396070688963,,,,0.0005,0.0005
131,0.12225662730634212,0.09398581180721521,,,,0.0005,0.0005
132,0.12040532100945711,0.09584941063076258,,,,0.0005,0.0005
133,0.1200662306509912,0.0936360489577055,,,,0.0005,0.0005
134,0.1244899386074394,0.09120369516313076,,,,0.0005,0.0005
135,0.11813776078633964,0.09570735599845648,,,,0.0005,0.0005
136,0.12305527972057462,0.09241322055459023,,,,0.0005,0.0005
137,0.11882768641225994,0.09387080557644367,,,,0.0005,0.0005
138,0.11923194886185229,0.09060749039053917,,,,0.0005,0.0005
139,0.1134354411624372,0.09033201169222593,,,,0.0005,0.0005
140,0.11859406041912735,0.08866506349295378,,,,0.0005,0.0005
141,0.1192123165819794,0.09082814212888479,,,,0.0005,0.0005
142,0.11339650361333042,0.095649104565382,,,,0.0005,0.0005
143,0.11478639673441648,0.09084779676049948,,,,0.0005,0.0005
144,0.1189397843554616,0.11484428681433201,,,,0.0005,0.0005
145,0.12452541687525809,0.09285746328532696,,,,0.0005,0.0005
146,0.11403871839866042,0.08809174783527851,,,,0.0005,0.0005
147,0.11387286521494389,0.08917783293873072,,,,0.0005,0.0005
148,0.11290933913551271,0.08990092389285564,,,,0.0005,0.0005
149,0.11651204200461507,0.08834154531359673,,,,0.0005,0.0005
150,0.11395369004458189,0.08742736279964447,,,,0.0005,0.0005
151,0.11256694491021335,0.09113082103431225,,,,0.0005,0.0005
152,0.11098951450549066,0.08737904019653797,,,,0.0005,0.0005
153,0.1108562849694863,0.0849355161190033,,,,0.0005,0.0005
154,0.11330098402686417,0.08504997938871384,,,,0.0005,0.0005
155,0.10774658480659127,0.08786270022392273,,,,0.0005,0.0005
156,0.11353845719713718,0.08900007605552673,,,,0.0005,0.0005
157,0.10989465028978884,0.08480353653430939,,,,0.0005,0.0005
158,0.1111193299293518,0.08303829375654459,,,,0.0005,0.0005
159,0.11172896041534841,0.0838564783334732,,,,0.0005,0.0005
160,0.11078764940612018,0.08457031659781933,,,,0.0005,0.0005
161,0.10933899157680571,0.08507726900279522,,,,0.0005,0.0005
162,0.11020231409929693,0.09052597125992179,,,,0.0005,0.0005
163,0.10786363389343023,0.08249350544065237,,,,0.0005,0.0005
164,0.10950456513091922,0.08295160811394453,,,,0.0005,0.0005
165,0.11094703781418502,0.09115686640143394,,,,0.0005,0.0005
166,0.11113145540002733,0.08230052888393402,,,,0.0005,0.0005
167,0.11168459744658321,0.08681794442236423,,,,0.0005,0.0005
168,0.10964605817571282,0.08065984304994345,,,,0.0005,0.0005
169,0.1090696428436786,0.08401459641754627,,,,0.0005,0.0005
170,0.10716885607689619,0.08567323442548513,,,,0.0005,0.0005
171,0.11034414870664477,0.08483496215194464,,,,0.0005,0.0005
172,0.11013499624095857,0.0847888607531786,,,,0.0005,0.0005
173,0.10891753132455051,0.08356031868606806,,,,0.0005,0.0005
174,0.10958615993149579,0.08268270269036293,,,,0.0005,0.0005
175,0.1098317988216877,0.08236400038003922,,,,0.0005,0.0005
176,0.10962144657969475,0.08403797168284655,,,,0.0005,0.0005
177,0.10594154032878578,0.08166840299963951,,,,0.0005,0.0005
178,0.10835121595300734,0.08196573611348867,,,,0.0005,0.0005
179,0.11020994931459427,0.08512030215933919,,,,0.00035,0.00035
180,0.108707640087232,0.08289976045489311,,,,0.00035,0.00035
181,0.10588814178481698,0.0836187694221735,,,,0.00035,0.00035
182,0.10727850871626288,0.08092253096401691,,,,0.00035,0.00035
183,0.10682934080250561,0.08088575582951307,,,,0.00035,0.00035
184,0.10882442630827427,0.0843629976734519,,,,0.00035,0.00035
185,0.10589440073817968,0.08181866817176342,,,,0.00035,0.00035
186,0.10970689915120602,0.08158886432647705,,,,0.00035,0.00035
187,0.1073265279410407,0.08208066504448652,,,,0.00035,0.00035
188,0.10939610004425049,0.08253397420048714,,,,0.00035,0.00035
189,0.10713792161550373,0.08740700501948595,,,,0.00035,0.00035
190,0.10637089260853827,0.08425899408757687,,,,0.000245,0.000245
191,0.10800195496995002,0.08181733824312687,,,,0.000245,0.000245
192,0.10872402461245656,0.08548741322010756,,,,0.000245,0.000245
193,0.10804193606600165,0.0839522983878851,,,,0.000245,0.000245
194,0.10721703758463264,0.0822359248995781,,,,0.000245,0.000245
195,0.10779683233704418,0.0813701432198286,,,,0.000245,0.000245
196,0.10708898585289717,0.08106567244976759,,,,0.000245,0.000245
197,0.10481910989619792,0.08243037108331919,,,,0.000245,0.000245
198,0.10671729920431972,0.08315446693450212,,,,0.000245,0.000245
199,0.10576602024957538,0.08425847347825766,,,,0.000245,0.000245
200,0.10629531019367278,0.08259904012084007,,,,0.000245,0.000245
201,0.10730752046220005,0.08113229367882013,,,,0.0001715,0.0001715
202,0.10411343688610941,0.0818381067365408,,,,0.0001715,0.0001715
203,0.10345910117030144,0.08189269341528416,,,,0.0001715,0.0001715
204,0.10842851595953107,0.08062446862459183,,,,0.0001715,0.0001715
205,0.10782524733804166,0.08289445750415325,,,,0.0001715,0.0001715
206,0.10679350781720132,0.08012231439352036,,,,0.0001715,0.0001715
207,0.10828247386962175,0.08107609115540981,,,,0.0001715,0.0001715
208,0.10477336123585701,0.08112566825002432,,,,0.0001715,0.0001715
209,0.10533412056975067,0.08098956011235714,,,,0.0001715,0.0001715
210,0.1062163730384782,0.08180869929492474,,,,0.0001715,0.0001715
211,0.10836829314939678,0.0843079062178731,,,,0.0001715,0.0001715
212,0.10710620286408812,0.0820859195664525,,,,0.0001715,0.0001715
213,0.1069568854290992,0.08083885721862316,,,,0.0001715,0.0001715
214,0.10874829953536391,0.08213420491665602,,,,0.0001715,0.0001715
215,0.10759036103263497,0.08086806908249855,,,,0.0001715,0.0001715
216,0.10971750691533089,0.0820278525352478,,,,0.0001715,0.0001715
217,0.10862979548983276,0.07991694565862417,,,,0.0001715,0.0001715
218,0.10710895899683237,0.08198839705437422,,,,0.0001715,0.0001715
219,0.10755050927400589,0.08205422852188349,,,,0.0001715,0.0001715
220,0.10720456950366497,0.08140637166798115,,,,0.0001715,0.0001715
221,0.10786605544853956,0.08212219085544348,,,,0.0001715,0.0001715
222,0.10648249788209796,0.08368677087128162,,,,0.0001715,0.0001715
223,0.11108218680601567,0.08485673554241657,,,,0.0001715,0.0001715
224,0.1074026154819876,0.08259087894111872,,,,0.0001715,0.0001715
225,0.10941959428600967,0.0803648317232728,,,,0.0001715,0.0001715
226,0.10773989954032004,0.08171791955828667,,,,0.0001715,0.0001715
227,0.11026349279563874,0.08067018538713455,,,,0.0001715,0.0001715
228,0.11003191536292434,0.08396941609680653,,,,0.00012004999999999999,0.00012004999999999999
229,0.11219044320750982,0.08137376885861158,,,,0.00012004999999999999,0.00012004999999999999
230,0.10635948635172099,0.080200488679111,,,,0.00012004999999999999,0.00012004999999999999
231,0.10639383271336555,0.08108041249215603,,,,0.00012004999999999999,0.00012004999999999999
232,0.1063580020563677,0.08355630561709404,,,,0.00012004999999999999,0.00012004999999999999
233,0.10452605434693396,0.08222829643636942,,,,0.00012004999999999999,0.00012004999999999999
234,0.10586871788837016,0.0805059727281332,,,,0.00012004999999999999,0.00012004999999999999
235,0.10817418177612126,0.0807423060759902,,,,0.00012004999999999999,0.00012004999999999999
236,0.10557732917368412,0.08139155153185129,,,,0.00012004999999999999,0.00012004999999999999
237,0.10834349179640412,0.07999825663864613,,,,0.00012004999999999999,0.00012004999999999999
238,0.10611566342413425,0.07990565709769726,,,,0.00012004999999999999,0.00012004999999999999
239,0.1063426430337131,0.0819999473169446,,,,0.00012004999999999999,0.00012004999999999999
240,0.10532732075080276,0.08288735337555408,,,,0.00012004999999999999,0.00012004999999999999
241,0.10454660537652671,0.08160753455013037,,,,0.00012004999999999999,0.00012004999999999999
242,0.10724908136762679,0.08057033084332943,,,,0.00012004999999999999,0.00012004999999999999
243,0.10732331417966634,0.08064674958586693,,,,0.00012004999999999999,0.00012004999999999999
244,0.10886203567497432,0.07976255752146244,,,,0.00012004999999999999,0.00012004999999999999
245,0.10656435263808817,0.08150164037942886,,,,0.00012004999999999999,0.00012004999999999999
246,0.10726151126436889,0.08028668258339167,,,,0.00012004999999999999,0.00012004999999999999
247,0.1056645306525752,0.08186334185302258,,,,0.00012004999999999999,0.00012004999999999999
248,0.10580579494126141,0.08072066120803356,,,,0.00012004999999999999,0.00012004999999999999
249,0.1083702479954809,0.08045963104814291,,,,0.00012004999999999999,0.00012004999999999999
250,0.10653984709642828,0.08031131699681282,,,,0.00012004999999999999,0.00012004999999999999
251,0.10620403662323952,0.0824082363396883,,,,0.00012004999999999999,0.00012004999999999999
252,0.11077528703026474,0.08104204200208187,,,,0.00012004999999999999,0.00012004999999999999
253,0.10860851313918829,0.08083749562501907,,,,0.00012004999999999999,0.00012004999999999999
254,0.10721754108089954,0.08170298859477043,,,,0.00012004999999999999,0.00012004999999999999
255,0.10736604023259133,0.08331770822405815,,,,8.403499999999999e-05,8.403499999999999e-05
256,0.1078173277201131,0.08241519425064325,,,,8.403499999999999e-05,8.403499999999999e-05
257,0.1109887002967298,0.08036552369594574,,,,8.403499999999999e-05,8.403499999999999e-05
258,0.10562514921184629,0.08072094526141882,,,,8.403499999999999e-05,8.403499999999999e-05
259,0.1057077650912106,0.08166881650686264,,,,8.403499999999999e-05,8.403499999999999e-05
260,0.10535584099125117,0.08093195874243975,,,,8.403499999999999e-05,8.403499999999999e-05
261,0.10496407002210617,0.08027683384716511,,,,8.403499999999999e-05,8.403499999999999e-05
262,0.10694371513091028,0.07967986911535263,,,,8.403499999999999e-05,8.403499999999999e-05
263,0.10664056451059878,0.08127978723496199,,,,8.403499999999999e-05,8.403499999999999e-05
264,0.10941475233994424,0.08317554742097855,,,,8.403499999999999e-05,8.403499999999999e-05
265,0.11105258809402585,0.08098020404577255,,,,8.403499999999999e-05,8.403499999999999e-05
266,0.10735860257409513,0.08135988377034664,,,,8.403499999999999e-05,8.403499999999999e-05
267,0.10896647023037076,0.08174504060298204,,,,8.403499999999999e-05,8.403499999999999e-05
268,0.10537114436738193,0.0821173470467329,,,,8.403499999999999e-05,8.403499999999999e-05
269,0.10764852585271001,0.08089387230575085,,,,8.403499999999999e-05,8.403499999999999e-05
270,0.10526503412984312,0.08165141940116882,,,,8.403499999999999e-05,8.403499999999999e-05
271,0.10901546746026725,0.07952439412474632,,,,8.403499999999999e-05,8.403499999999999e-05
272,0.10462241619825363,0.08459797874093056,,,,8.403499999999999e-05,8.403499999999999e-05
273,0.10537355882115662,0.08138980623334646,,,,8.403499999999999e-05,8.403499999999999e-05
274,0.10930171888321638,0.07995645981281996,,,,8.403499999999999e-05,8.403499999999999e-05
275,0.10756821045652032,0.08207172621041536,,,,8.403499999999999e-05,8.403499999999999e-05
276,0.10733882919885218,0.08172974921762943,,,,8.403499999999999e-05,8.403499999999999e-05
277,0.10713707038667053,0.08114507421851158,,,,8.403499999999999e-05,8.403499999999999e-05
278,0.10735382395796478,0.08018305245786905,,,,8.403499999999999e-05,8.403499999999999e-05
279,0.10528156452346593,0.0793024692684412,,,,8.403499999999999e-05,8.403499999999999e-05
280,0.10575778933707625,0.08121262211352587,,,,8.403499999999999e-05,8.403499999999999e-05
281,0.10461907042190433,0.0800661351531744,,,,8.403499999999999e-05,8.403499999999999e-05
282,0.1050921370042488,0.08124294690787792,,,,8.403499999999999e-05,8.403499999999999e-05
283,0.10579080646857619,0.08389602601528168,,,,8.403499999999999e-05,8.403499999999999e-05
284,0.10659589152783155,0.08069658931344748,,,,8.403499999999999e-05,8.403499999999999e-05
285,0.10959499189630151,0.08026902284473181,,,,8.403499999999999e-05,8.403499999999999e-05
286,0.1060193155426532,0.08080700132995844,,,,8.403499999999999e-05,8.403499999999999e-05
287,0.10584750026464462,0.0811061104759574,,,,8.403499999999999e-05,8.403499999999999e-05
288,0.11234425217844546,0.08111932966858149,,,,8.403499999999999e-05,8.403499999999999e-05
289,0.10732950060628355,0.08013997506350279,,,,8.403499999999999e-05,8.403499999999999e-05
290,0.1047410579631105,0.0784966740757227,,,,8.403499999999999e-05,8.403499999999999e-05
291,0.10671490803360939,0.08204218652099371,,,,8.403499999999999e-05,8.403499999999999e-05
292,0.1064128028228879,0.08261239714920521,,,,8.403499999999999e-05,8.403499999999999e-05
293,0.1088246937142685,0.08028044737875462,,,,8.403499999999999e-05,8.403499999999999e-05
294,0.10757725278381258,0.0792288426309824,,,,8.403499999999999e-05,8.403499999999999e-05
295,0.1075745802372694,0.08140991069376469,,,,8.403499999999999e-05,8.403499999999999e-05
296,0.10481257922947407,0.0819085892289877,,,,8.403499999999999e-05,8.403499999999999e-05
297,0.10644106706604362,0.0846732147037983,,,,8.403499999999999e-05,8.403499999999999e-05
298,0.10822913213633001,0.08052230440080166,,,,8.403499999999999e-05,8.403499999999999e-05
299,0.10373061674181372,0.08286827430129051,,,,8.403499999999999e-05,8.403499999999999e-05
