epoch,train_loss,eval_loss,f1_score,precision,recall,lr,adam_lr
0,1.7730588540434837,1.7709679007530212,,,,0.0005,0.0005
1,1.7123713344335556,1.7159583866596222,,,,0.0005,0.0005
2,1.6572286859154701,1.6628697514533997,,,,0.0005,0.0005
3,1.6046310141682625,1.6088296473026276,,,,0.0005,0.0005
4,1.5502744317054749,1.5504084527492523,,,,0.0005,0.0005
5,1.4999539479613304,1.4948821663856506,,,,0.0005,0.0005
6,1.4397690519690514,1.434397965669632,,,,0.0005,0.0005
7,1.3809428066015244,1.3778529167175293,,,,0.0005,0.0005
8,1.3063672557473183,1.2959932386875153,,,,0.0005,0.0005
9,1.2225703075528145,1.2004689276218414,,,,0.0005,0.0005
10,1.1212196052074432,1.0901908874511719,,,,0.0005,0.0005
11,1.0040864944458008,0.9560255408287048,,,,0.0005,0.0005
12,0.8504525423049927,0.7888663560152054,,,,0.0005,0.0005
13,0.6714033335447311,0.5828181356191635,,,,0.0005,0.0005
14,0.4536886103451252,0.3597836196422577,,,,0.0005,0.0005
15,0.249494475312531,0.20148011296987534,,,,0.0005,0.0005
16,0.16460011014714837,0.16280096396803856,,,,0.0005,0.0005
17,0.15253391256555915,0.16145179606974125,,,,0.0005,0.0005
18,0.1519071846269071,0.16056419722735882,,,,0.0005,0.0005
19,0.1459261435084045,0.15913697332143784,,,,0.0005,0.0005
20,0.14487969689071178,0.15601351112127304,,,,0.0005,0.0005
21,0.14308442128822207,0.15288414806127548,,,,0.0005,0.0005
22,0.140634975861758,0.15354869700968266,,,,0.0005,0.0005
23,0.13697713240981102,0.1502719298005104,,,,0.0005,0.0005
24,0.1372769013978541,0.14694731123745441,,,,0.0005,0.0005
25,0.13642847491428256,0.14565368182957172,,,,0.0005,0.0005
26,0.13211673265323043,0.1422170978039503,,,,0.0005,0.0005
27,0.12637892947532237,0.13320273347198963,,,,0.0005,0.0005
28,0.12251624837517738,0.13055004552006721,,,,0.0005,0.0005
29,0.11681834585033357,0.12764747999608517,,,,0.0005,0.0005
30,0.11320853559300303,0.1235481295734644,,,,0.0005,0.0005
31,0.11205862602218986,0.12035585939884186,,,,0.0005,0.0005
32,0.11164348432794213,0.11874311976134777,,,,0.0005,0.0005
33,0.10606490774080157,0.11619741097092628,,,,0.0005,0.0005
34,0.10500827571377158,0.11164656840264797,,,,0.0005,0.0005
35,0.10312035027891397,0.10897018946707249,,,,0.0005,0.0005
36,0.10089697386138141,0.1096382737159729,,,,0.0005,0.0005
37,0.09761699265800416,0.1068853847682476,,,,0.0005,0.0005
38,0.09748026193119586,0.1034340662881732,,,,0.0005,0.0005
39,0.09643492521718144,0.10339902900159359,,,,0.0005,0.0005
40,0.09422368463128805,0.10328466724604368,,,,0.0005,0.0005
41,0.0923654071521014,0.09880219027400017,,,,0.0005,0.0005
42,0.09189100470393896,0.09663231950253248,,,,0.0005,0.0005
43,0.09007468773052096,0.09640203788876534,,,,0.0005,0.0005
44,0.08902979455888271,0.09463165048509836,,,,0.0005,0.0005
45,0.0871042930521071,0.09334629029035568,,,,0.0005,0.0005
46,0.08670393214561045,0.09309870563447475,,,,0.0005,0.0005
47,0.08760905032977462,0.09211625251919031,,,,0.0005,0.0005
48,0.08520220895297825,0.09202021919190884,,,,0.0005,0.0005
49,0.08333618566393852,0.09184273146092892,,,,0.0005,0.0005
50,0.08213650272227824,0.08920911978930235,,,,0.0005,0.0005
51,0.08292420976795256,0.08874442614614964,,,,0.0005,0.0005
52,0.08270478493068367,0.08736198022961617,,,,0.0005,0.0005
53,0.08266267878934741,0.08394786063581705,,,,0.0005,0.0005
54,0.08446077862754464,0.08562059421092272,,,,0.0005,0.0005
55,0.08079207013361156,0.08332014922052622,,,,0.0005,0.0005
56,0.08192599099129438,0.08532286062836647,,,,0.0005,0.0005
57,0.07935911323875189,0.0844439435750246,,,,0.0005,0.0005
58,0.08041112986393273,0.08362296037375927,,,,0.0005,0.0005
59,0.07868762675207108,0.08668506797403097,,,,0.0005,0.0005
60,0.07757570047397166,0.08339655306190252,,,,0.0005,0.0005
61,0.07789696380496025,0.0809765113517642,,,,0.0005,0.0005
62,0.07724173658061773,0.08121235016733408,,,,0.0005,0.0005
63,0.07638565672095865,0.0814379621297121,,,,0.0005,0.0005
64,0.07681002805475146,0.07879179902374744,,,,0.0005,0.0005
65,0.07567238667979836,0.08077851869165897,,,,0.0005,0.0005
66,0.07812664983794093,0.07757049519568682,,,,0.0005,0.0005
67,0.07497071870602667,0.07702626660466194,,,,0.0005,0.0005
68,0.07473001768812537,0.07536284904927015,,,,0.0005,0.0005
69,0.07388761558104306,0.07884995359927416,,,,0.0005,0.0005
70,0.071576003334485,0.07595855090767145,,,,0.0005,0.0005
71,0.0740223026368767,0.0744573250412941,,,,0.0005,0.0005
72,0.07328737853094935,0.07624633703380823,,,,0.0005,0.0005
73,0.07073221751488745,0.07317454740405083,,,,0.0005,0.0005
74,0.07004821847658604,0.07097811158746481,,,,0.0005,0.0005
75,0.0722376077901572,0.07397331763058901,,,,0.0005,0.0005
76,0.06744030897971243,0.07321017049252987,,,,0.0005,0.0005
77,0.0678385718492791,0.0694722943007946,,,,0.0005,0.0005
78,0.06789988710079342,0.07246885448694229,,,,0.0005,0.0005
79,0.06673938687890768,0.07291354797780514,,,,0.0005,0.0005
80,0.06514937710016966,0.06619400065392256,,,,0.0005,0.0005
81,0.0687756366096437,0.06761724688112736,,,,0.0005,0.0005
82,0.0662019916344434,0.06913379486650229,,,,0.0005,0.0005
83,0.06418524484615773,0.06552323792129755,,,,0.0005,0.0005
84,0.06611145671922714,0.06577310618013144,,,,0.0005,0.0005
85,0.06420394114684314,0.06296363472938538,,,,0.0005,0.0005
86,0.06195400434080511,0.0625902283936739,,,,0.0005,0.0005
87,0.06330331403296441,0.05998594406992197,,,,0.0005,0.0005
88,0.06336463137995452,0.06237110588699579,,,,0.0005,0.0005
89,0.05982620909344405,0.061135356314480305,,,,0.0005,0.0005
90,0.061491240398027,0.05941221956163645,,,,0.0005,0.0005
91,0.060191130614839494,0.05829481594264507,,,,0.0005,0.0005
92,0.05869853880722076,0.059869838412851095,,,,0.0005,0.0005
93,0.059048720402643085,0.0597337051294744,,,,0.0005,0.0005
94,0.055835546809248626,0.054770960472524166,,,,0.0005,0.0005
95,0.055602954467758536,0.055844690185040236,,,,0.0005,0.0005
96,0.055209142970852554,0.05222107423469424,,,,0.0005,0.0005
97,0.0538906822912395,0.051541867200285196,,,,0.0005,0.0005
98,0.053081716294400394,0.05209552962332964,,,,0.0005,0.0005
99,0.053703912417404354,0.05002962052822113,,,,0.0005,0.0005
100,0.0526666374062188,0.0494986935518682,,,,0.0005,0.0005
101,0.05088950553908944,0.04891584301367402,,,,0.0005,0.0005
102,0.04714202869217843,0.04694845201447606,,,,0.0005,0.0005
103,0.04468084534164518,0.0404029730707407,,,,0.0005,0.0005
104,0.04182872688397765,0.03982971189543605,,,,0.0005,0.0005
105,0.041956673143431544,0.03687609499320388,,,,0.0005,0.0005
106,0.04019891086500138,0.03612815076485276,,,,0.0005,0.0005
107,0.03988196770660579,0.03499454562552273,,,,0.0005,0.0005
108,0.03856228198856115,0.03253787010908127,,,,0.0005,0.0005
109,0.037111021927557886,0.03516791178844869,,,,0.0005,0.0005
110,0.038548402837477624,0.03141073137521744,,,,0.0005,0.0005
111,0.037389168806839734,0.034722467651590705,,,,0.0005,0.0005
112,0.03814547031652182,0.030019920086488128,,,,0.0005,0.0005
113,0.034677273011766374,0.029960927786305547,,,,0.0005,0.0005
114,0.03368412223062478,0.03049524687230587,,,,0.0005,0.0005
115,0.035047116834903136,0.031985663808882236,,,,0.0005,0.0005
116,0.03481264234869741,0.030568325659260154,,,,0.0005,0.0005
117,0.0335115767957177,0.029309048550203443,,,,0.0005,0.0005
118,0.032898613455472514,0.03264448745176196,,,,0.0005,0.0005
119,0.034835285507142544,0.02834126725792885,,,,0.0005,0.0005
120,0.03600753075443208,0.02782491547986865,,,,0.0005,0.0005
121,0.03831164390430786,0.02942310064099729,,,,0.0005,0.0005
122,0.033130994852399454,0.029325553681701422,,,,0.0005,0.0005
123,0.032006148248910904,0.028703518444672227,,,,0.0005,0.0005
124,0.033536722185090184,0.03168270946480334,,,,0.0005,0.0005
125,0.03244607651140541,0.028751531150192022,,,,0.0005,0.0005
126,0.03389214747585356,0.02684498205780983,,,,0.0005,0.0005
127,0.033379948494257405,0.02648401423357427,,,,0.0005,0.0005
128,0.034212022146675736,0.03065575158689171,,,,0.0005,0.0005
129,0.034479071240639314,0.027216483373194933,,,,0.0005,0.0005
130,0.03135448042303324,0.028214750345796347,,,,0.0005,0.0005
131,0.03201758427894674,0.02681840700097382,,,,0.0005,0.0005
132,0.031024173978948966,0.025902365799993277,,,,0.0005,0.0005
133,0.031062090449268,0.025906878523528576,,,,0.0005,0.0005
134,0.034347115200944245,0.024953760905191302,,,,0.0005,0.0005
135,0.032049911678768694,0.02559154515620321,,,,0.0005,0.0005
136,0.03274504953878932,0.02691736724227667,,,,0.0005,0.0005
137,0.03185541613493115,0.027471054578199983,,,,0.0005,0.0005
138,0.034663059865124524,0.025546713266521692,,,,0.0005,0.0005
139,0.03000751417130232,0.02371683972887695,,,,0.0005,0.0005
140,0.03231140723801218,0.029268470127135515,,,,0.0005,0.0005
141,0.03416253306204453,0.02610184531658888,,,,0.0005,0.0005
142,0.029829876410076395,0.02623362629674375,,,,0.0005,0.0005
143,0.030709608021425083,0.024813107098452747,,,,0.0005,0.0005
144,0.030379162402823567,0.02549260132946074,,,,0.0005,0.0005
145,0.033153126831166446,0.028881663223728538,,,,0.0005,0.0005
146,0.03257123599178158,0.02723208349198103,,,,0.0005,0.0005
147,0.031657156301662326,0.027714416617527604,,,,0.0005,0.0005
148,0.03129640329279937,0.026890386012382805,,,,0.0005,0.0005
149,0.030773982114624232,0.027053062338382006,,,,0.0005,0.0005
150,0.03147822225582786,0.02505766204558313,,,,0.00035,0.00035
151,0.02989439491648227,0.023808866273611784,,,,0.00035,0.00035
152,0.029653118195710704,0.026617845287546515,,,,0.00035,0.00035
153,0.029974435543408617,0.024709934019483626,,,,0.00035,0.00035
154,0.029624874150613323,0.02312694606371224,,,,0.00035,0.00035
155,0.02861051569925621,0.02503341413103044,,,,0.00035,0.00035
156,0.032495194202056155,0.02592023112811148,,,,0.00035,0.00035
157,0.029157260694773868,0.02369605447165668,,,,0.00035,0.00035
158,0.03077904146630317,0.022733958554454148,,,,0.00035,0.00035
159,0.030367877887329087,0.02401882316917181,,,,0.00035,0.00035
160,0.031751900707604364,0.023068586830049753,,,,0.00035,0.00035
161,0.028352758527034894,0.025561023503541946,,,,0.00035,0.00035
162,0.029779510397929698,0.027084842673502862,,,,0.00035,0.00035
163,0.029500968928914517,0.02406807034276426,,,,0.00035,0.00035
164,0.029607405682327226,0.023021141765639186,,,,0.00035,0.00035
165,0.029487659194273874,0.025731160771101713,,,,0.00035,0.00035
166,0.029498036310542375,0.021684841834940016,,,,0.00035,0.00035
167,0.03025419736513868,0.0256510975304991,,,,0.00035,0.00035
168,0.028082362056011334,0.0217809445457533,,,,0.00035,0.00035
169,0.030173917417414486,0.023143486469052732,,,,0.00035,0.00035
170,0.027546810393687338,0.02425919973757118,,,,0.00035,0.00035
171,0.028993884712690488,0.025229211198166013,,,,0.00035,0.00035
172,0.03032391075976193,0.0245637409389019,,,,0.00035,0.00035
173,0.030020869482541457,0.023548672208562493,,,,0.00035,0.00035
174,0.028939805459231138,0.02245925203897059,,,,0.00035,0.00035
175,0.029393589531537145,0.023800170398317277,,,,0.00035,0.00035
176,0.03043369046645239,0.025681517086923122,,,,0.00035,0.00035
177,0.029028249060502276,0.02404210774693638,,,,0.000245,0.000245
178,0.028097817266825587,0.022668197751045227,,,,0.000245,0.000245
179,0.02963694155914709,0.02300745388492942,,,,0.000245,0.000245
180,0.02918559912359342,0.024452564772218466,,,,0.000245,0.000245
181,0.029785128455841914,0.0226027590688318,,,,0.000245,0.000245
182,0.03038681243197061,0.022539967787452042,,,,0.000245,0.000245
183,0.02830325425020419,0.02293985616415739,,,,0.000245,0.000245
184,0.029723101994022727,0.02656589774414897,,,,0.000245,0.000245
185,0.029382066262769513,0.022647285484708846,,,,0.000245,0.000245
186,0.029708597110584378,0.022796055069193244,,,,0.000245,0.000245
187,0.02779288898454979,0.023686235421337187,,,,0.000245,0.000245
188,0.032291290699504316,0.022602215292863548,,,,0.0001715,0.0001715
189,0.028246377973118797,0.024556432384997606,,,,0.0001715,0.0001715
190,0.029003879404626787,0.022334832814522088,,,,0.0001715,0.0001715
191,0.02819836707203649,0.022059332230128348,,,,0.0001715,0.0001715
192,0.028618018521228805,0.02349685109220445,,,,0.0001715,0.0001715
193,0.029893456972786225,0.022028166567906737,,,,0.0001715,0.0001715
194,0.028991511586355045,0.023525778902694583,,,,0.0001715,0.0001715
195,0.02909454659675248,0.02338577900081873,,,,0.0001715,0.0001715
196,0.02829547051806003,0.02281373110599816,,,,0.0001715,0.0001715
197,0.028999209636822343,0.02235668757930398,,,,0.0001715,0.0001715
198,0.029459069977747276,0.023651367984712124,,,,0.0001715,0.0001715
199,0.027796510607004166,0.024701590766198933,,,,0.00012004999999999999,0.00012004999999999999
200,0.027869386423844844,0.023570928256958723,,,,0.00012004999999999999,0.00012004999999999999
201,0.02896883641369641,0.02137788408435881,,,,0.00012004999999999999,0.00012004999999999999
202,0.02827954397071153,0.021786527591757476,,,,0.00012004999999999999,0.00012004999999999999
203,0.02747543147415854,0.025509760482236743,,,,0.00012004999999999999,0.00012004999999999999
204,0.02978244234691374,0.023075066157616675,,,,0.00012004999999999999,0.00012004999999999999
205,0.027994309057248756,0.02279417891986668,,,,0.00012004999999999999,0.00012004999999999999
206,0.02888190047815442,0.021295037236995995,,,,0.00012004999999999999,0.00012004999999999999
207,0.028485136979725212,0.022009367705322802,,,,0.00012004999999999999,0.00012004999999999999
208,0.027841805364005268,0.023425558116286993,,,,0.00012004999999999999,0.00012004999999999999
209,0.02800915011903271,0.022163109621033072,,,,0.00012004999999999999,0.00012004999999999999
210,0.028634393034735695,0.022489838767796755,,,,0.00012004999999999999,0.00012004999999999999
211,0.02779599084169604,0.0223285366082564,,,,0.00012004999999999999,0.00012004999999999999
212,0.02674358317744918,0.02137231780216098,,,,0.00012004999999999999,0.00012004999999999999
213,0.027789882791694254,0.022919769515283406,,,,0.00012004999999999999,0.00012004999999999999
214,0.0303639949997887,0.024656201829202473,,,,0.00012004999999999999,0.00012004999999999999
215,0.028397501446306705,0.022352976258844137,,,,0.00012004999999999999,0.00012004999999999999
216,0.030242217966588214,0.024866194580681622,,,,0.00012004999999999999,0.00012004999999999999
217,0.02852122311014682,0.02099380746949464,,,,0.00012004999999999999,0.00012004999999999999
218,0.029413826938252896,0.02254017919767648,,,,0.00012004999999999999,0.00012004999999999999
219,0.028687074780464172,0.02223584905732423,,,,0.00012004999999999999,0.00012004999999999999
220,0.029471079353243113,0.021790109807625413,,,,0.00012004999999999999,0.00012004999999999999
221,0.029223982186522335,0.022356074070557952,,,,0.00012004999999999999,0.00012004999999999999
222,0.02860656744451262,0.02416891569737345,,,,0.00012004999999999999,0.00012004999999999999
223,0.02772499795537442,0.023504147422499955,,,,0.00012004999999999999,0.00012004999999999999
224,0.029181308040278964,0.024788634735159576,,,,0.00012004999999999999,0.00012004999999999999
225,0.030569873342756182,0.023206842597573996,,,,0.00012004999999999999,0.00012004999999999999
226,0.027997637807857245,0.023764671059325337,,,,0.00012004999999999999,0.00012004999999999999
227,0.029090513242408633,0.021697706542909145,,,,0.00012004999999999999,0.00012004999999999999
228,0.030195153318345547,0.023692861665040255,,,,8.403499999999999e-05,8.403499999999999e-05
229,0.03200496840872802,0.02223666908685118,,,,8.403499999999999e-05,8.403499999999999e-05
230,0.02756516810040921,0.022685099975205958,,,,8.403499999999999e-05,8.403499999999999e-05
231,0.028437983128242195,0.02288519241847098,,,,8.403499999999999e-05,8.403499999999999e-05
232,0.02812521214946173,0.02335016441065818,,,,8.403499999999999e-05,8.403499999999999e-05
233,0.02706587396096438,0.023393067996948957,,,,8.403499999999999e-05,8.403499999999999e-05
234,0.028721890703309327,0.021478211972862482,,,,8.403499999999999e-05,8.403499999999999e-05
235,0.02933557194774039,0.023028331343084574,,,,8.403499999999999e-05,8.403499999999999e-05
236,0.027678478945745155,0.02234896959271282,,,,8.403499999999999e-05,8.403499999999999e-05
237,0.028836836776463315,0.02235459815710783,,,,8.403499999999999e-05,8.403499999999999e-05
238,0.027536767825949937,0.022487033274956048,,,,8.403499999999999e-05,8.403499999999999e-05
239,0.028166293253889307,0.02223072515334934,,,,5.882449999999999e-05,5.882449999999999e-05
240,0.028659186617005616,0.02301384916063398,,,,5.882449999999999e-05,5.882449999999999e-05
241,0.027260182978352532,0.021711120731197298,,,,5.882449999999999e-05,5.882449999999999e-05
242,0.02933724134345539,0.022419397602789104,,,,5.882449999999999e-05,5.882449999999999e-05
243,0.028880787518573925,0.02318120887503028,,,,5.882449999999999e-05,5.882449999999999e-05
244,0.029832211090251803,0.022434343700297177,,,,5.882449999999999e-05,5.882449999999999e-05
245,0.02946792490547523,0.02228414686396718,,,,5.882449999999999e-05,5.882449999999999e-05
246,0.028076274145860225,0.021918104379437864,,,,5.882449999999999e-05,5.882449999999999e-05
247,0.02874591454747133,0.022214913740754128,,,,5.882449999999999e-05,5.882449999999999e-05
248,0.02865776451653801,0.023377588018774986,,,,5.882449999999999e-05,5.882449999999999e-05
249,0.02953231384162791,0.022660023998469114,,,,5.882449999999999e-05,5.882449999999999e-05
250,0.027720182901248336,0.021292623598128557,,,,4.117714999999999e-05,4.117714999999999e-05
251,0.02733570206328295,0.02364134811796248,,,,4.117714999999999e-05,4.117714999999999e-05
252,0.028114634158555418,0.023035506368614733,,,,4.117714999999999e-05,4.117714999999999e-05
253,0.029023044713540003,0.022745773778297007,,,,4.117714999999999e-05,4.117714999999999e-05
254,0.02973073339671828,0.023451721179299057,,,,4.117714999999999e-05,4.117714999999999e-05
255,0.029918731655925512,0.023331988137215376,,,,4.117714999999999e-05,4.117714999999999e-05
256,0.029301077680429444,0.023464419064112008,,,,4.117714999999999e-05,4.117714999999999e-05
257,0.029385857691522688,0.02167973155155778,,,,4.117714999999999e-05,4.117714999999999e-05
258,0.027373613498639315,0.023839482804760337,,,,4.117714999999999e-05,4.117714999999999e-05
259,0.027311030979035422,0.02203192049637437,,,,4.117714999999999e-05,4.117714999999999e-05
260,0.028028686618199572,0.021659552585333586,,,,4.117714999999999e-05,4.117714999999999e-05
261,0.026699143432779238,0.02138525270856917,,,,2.8824004999999994e-05,2.8824004999999994e-05
262,0.027910532196983695,0.021272375946864486,,,,2.8824004999999994e-05,2.8824004999999994e-05
263,0.02847317955456674,0.023473482229746878,,,,2.8824004999999994e-05,2.8824004999999994e-05
264,0.030815189908025786,0.023497192305512726,,,,2.8824004999999994e-05,2.8824004999999994e-05
265,0.032578249025391415,0.022651756647974253,,,,2.8824004999999994e-05,2.8824004999999994e-05
266,0.028065424179658294,0.022289174026809633,,,,2.8824004999999994e-05,2.8824004999999994e-05
267,0.030213461024686694,0.021771438419818878,,,,2.8824004999999994e-05,2.8824004999999994e-05
268,0.027575430809520185,0.023308967822231352,,,,2.8824004999999994e-05,2.8824004999999994e-05
269,0.029035346407908946,0.02288308134302497,,,,2.8824004999999994e-05,2.8824004999999994e-05
270,0.02763830819458235,0.02330723195336759,,,,2.8824004999999994e-05,2.8824004999999994e-05
271,0.028294871968682855,0.019668713794089854,,,,2.8824004999999994e-05,2.8824004999999994e-05
272,0.027288680255878717,0.023691465612500906,,,,2.8824004999999994e-05,2.8824004999999994e-05
273,0.028316927375271916,0.02240823209285736,,,,2.8824004999999994e-05,2.8824004999999994e-05
274,0.031157615187112242,0.021839428460225463,,,,2.8824004999999994e-05,2.8824004999999994e-05
275,0.02792838419554755,0.02271524374373257,,,,2.8824004999999994e-05,2.8824004999999994e-05
276,0.029203161189798266,0.023251933977007866,,,,2.8824004999999994e-05,2.8824004999999994e-05
277,0.02833291341084987,0.023011421086266637,,,,2.8824004999999994e-05,2.8824004999999994e-05
278,0.028623046033317223,0.022256660042330623,,,,2.8824004999999994e-05,2.8824004999999994e-05
279,0.027839711867272854,0.020948053221218288,,,,2.8824004999999994e-05,2.8824004999999994e-05
280,0.0285249424923677,0.022808579728007317,,,,2.8824004999999994e-05,2.8824004999999994e-05
281,0.027208702987991273,0.02197470609098673,,,,2.8824004999999994e-05,2.8824004999999994e-05
282,0.027134857708006166,0.022285461076535285,,,,2.0176803499999996e-05,2.0176803499999996e-05
283,0.027805313904536888,0.02339713426772505,,,,2.0176803499999996e-05,2.0176803499999996e-05
284,0.02730363275622949,0.02369695995002985,,,,2.0176803499999996e-05,2.0176803499999996e-05
285,0.030368089559488,0.022039341856725514,,,,2.0176803499999996e-05,2.0176803499999996e-05
286,0.028455012215999886,0.021814932813867927,,,,2.0176803499999996e-05,2.0176803499999996e-05
287,0.028390641338774003,0.022167013841681182,,,,2.0176803499999996e-05,2.0176803499999996e-05
288,0.029946487309644,0.022720357053913176,,,,2.0176803499999996e-05,2.0176803499999996e-05
289,0.028541135048726574,0.02164825762156397,,,,2.0176803499999996e-05,2.0176803499999996e-05
290,0.02760428370675072,0.020974792423658073,,,,2.0176803499999996e-05,2.0176803499999996e-05
291,0.02794714883202687,0.023246374796144664,,,,2.0176803499999996e-05,2.0176803499999996e-05
292,0.028524536726763472,0.022408017423003912,,,,2.0176803499999996e-05,2.0176803499999996e-05
293,0.03194375554448925,0.0222221112344414,,,,1.4123762449999997e-05,1.4123762449999997e-05
294,0.028262871608603746,0.022182280314154923,,,,1.4123762449999997e-05,1.4123762449999997e-05
295,0.030010744696483016,0.02249318838585168,,,,1.4123762449999997e-05,1.4123762449999997e-05
296,0.02786799136083573,0.023233253275975585,,,,1.4123762449999997e-05,1.4123762449999997e-05
297,0.029383902990957722,0.025087207672186196,,,,1.4123762449999997e-05,1.4123762449999997e-05
298,0.02767513776780106,0.021788575453683734,,,,1.4123762449999997e-05,1.4123762449999997e-05
299,0.026671677303966135,0.021644493332132697,,,,1.4123762449999997e-05,1.4123762449999997e-05
