epoch,train_loss,eval_loss,f1_score,precision,recall,lr,adam_lr
0,1.5322353914380074,1.3928398489952087,,,,0.0005,0.0005
1,1.4483982175588608,1.3116658329963684,,,,0.0005,0.0005
2,1.3726304396986961,1.233365774154663,,,,0.0005,0.0005
3,1.2923094555735588,1.152202308177948,,,,0.0005,0.0005
4,1.2009873166680336,1.054424837231636,,,,0.0005,0.0005
5,1.0973496697843075,0.9338018000125885,,,,0.0005,0.0005
6,0.9583938494324684,0.7756222039461136,,,,0.0005,0.0005
7,0.7824321091175079,0.5857476517558098,,,,0.0005,0.0005
8,0.5676775816828012,0.34148120880126953,,,,0.0005,0.0005
9,0.31890380568802357,0.1335143093019724,,,,0.0005,0.0005
10,0.16197704477235675,0.1000378169119358,,,,0.0005,0.0005
11,0.13458838406950235,0.11053424887359142,,,,0.0005,0.0005
12,0.13087399024516344,0.10794962383806705,,,,0.0005,0.0005
13,0.12960141757503152,0.10092362016439438,,,,0.0005,0.0005
14,0.12839803146198392,0.09646467305719852,,,,0.0005,0.0005
15,0.12745844246819615,0.09577641263604164,,,,0.0005,0.0005
16,0.1259789541363716,0.0968135092407465,,,,0.0005,0.0005
17,0.1224671546369791,0.09196791611611843,,,,0.0005,0.0005
18,0.12068394897505641,0.09122798964381218,,,,0.0005,0.0005
19,0.12096801702864468,0.08597681857645512,,,,0.0005,0.0005
20,0.11961754597723484,0.08500508032739162,,,,0.0005,0.0005
21,0.11657094350084662,0.08358152396976948,,,,0.0005,0.0005
22,0.11575403437018394,0.08057167008519173,,,,0.0005,0.0005
23,0.11461996682919562,0.08164368011057377,,,,0.0005,0.0005
24,0.111392583232373,0.07981629855930805,,,,0.0005,0.0005
25,0.11091173579916358,0.0753862913697958,,,,0.0005,0.0005
26,0.10843731183558702,0.07351583801209927,,,,0.0005,0.0005
27,0.10752704832702875,0.07331960834562778,,,,0.0005,0.0005
28,0.10359699022956192,0.07118222303688526,,,,0.0005,0.0005
29,0.10286988574080169,0.06744293961673975,,,,0.0005,0.0005
30,0.10240119812078774,0.06506592407822609,,,,0.0005,0.0005
31,0.09787532920017838,0.06331226322799921,,,,0.0005,0.0005
32,0.09636301104910672,0.06031233258545399,,,,0.0005,0.0005
33,0.09759245999157429,0.05859860312193632,,,,0.0005,0.0005
34,0.09287907555699348,0.055629175156354904,,,,0.0005,0.0005
35,0.08887019730173051,0.05488764215260744,,,,0.0005,0.0005
36,0.08545826049521565,0.04981100745499134,,,,0.0005,0.0005
37,0.08534811460413039,0.049091121181845665,,,,0.0005,0.0005
38,0.08355323155410588,0.044082454405725,,,,0.0005,0.0005
39,0.07893427205272019,0.04440146591514349,,,,0.0005,0.0005
40,0.07872601458802819,0.03974228212609887,,,,0.0005,0.0005
41,0.07490853359922767,0.04086730815470219,,,,0.0005,0.0005
42,0.07232540310360491,0.03933467110618949,,,,0.0005,0.0005
43,0.0732673805905506,0.03487243503332138,,,,0.0005,0.0005
44,0.07084099017083645,0.03477394860237837,,,,0.0005,0.0005
45,0.07029036246240139,0.03456552606076002,,,,0.0005,0.0005
46,0.07052474631927907,0.033131069503724575,,,,0.0005,0.0005
47,0.06526763434521854,0.03302469477057457,,,,0.0005,0.0005
48,0.06585465522948653,0.031132769072428346,,,,0.0005,0.0005
49,0.06591842463240027,0.03156197955831885,,,,0.0005,0.0005
50,0.06357401667628437,0.032058003824204206,,,,0.0005,0.0005
51,0.06352702609729022,0.029505475889891386,,,,0.0005,0.0005
52,0.06086634343955666,0.029177688993513584,,,,0.0005,0.0005
53,0.05956687859725207,0.028732319362461567,,,,0.0005,0.0005
54,0.06082976586185396,0.027268264908343554,,,,0.0005,0.0005
55,0.05906271538697183,0.02721794554963708,,,,0.0005,0.0005
56,0.0568934113252908,0.025570855010300875,,,,0.0005,0.0005
57,0.054456991725601256,0.024858609773218632,,,,0.0005,0.0005
58,0.05388025351567194,0.02295181341469288,,,,0.0005,0.0005
59,0.05255914619192481,0.023914535529911518,,,,0.0005,0.0005
60,0.05259097652742639,0.022134720347821712,,,,0.0005,0.0005
61,0.0501009306171909,0.02112771710380912,,,,0.0005,0.0005
62,0.04827692988328636,0.02100934204645455,,,,0.0005,0.0005
63,0.04721829103073105,0.019962639082223177,,,,0.0005,0.0005
64,0.04538483207579702,0.020239996491000056,,,,0.0005,0.0005
65,0.04501894232816994,0.019251586869359016,,,,0.0005,0.0005
66,0.042082784813828766,0.01779862050898373,,,,0.0005,0.0005
67,0.04139853472588584,0.01844113622792065,,,,0.0005,0.0005
68,0.04229814698919654,0.0168453857768327,,,,0.0005,0.0005
69,0.04161641944665462,0.016875850269570947,,,,0.0005,0.0005
70,0.038162110664416105,0.016010416438803077,,,,0.0005,0.0005
71,0.038065455766627565,0.016597451642155647,,,,0.0005,0.0005
72,0.035699435509741306,0.014579796930775046,,,,0.0005,0.0005
73,0.03483380627585575,0.015213371138088405,,,,0.0005,0.0005
74,0.03625810972880572,0.0137344382237643,,,,0.0005,0.0005
75,0.03491389419650659,0.013835606281645596,,,,0.0005,0.0005
76,0.03423358063446358,0.013245191890746355,,,,0.0005,0.0005
77,0.032245977519778535,0.012372908764518797,,,,0.0005,0.0005
78,0.03305140443262644,0.013001668034121394,,,,0.0005,0.0005
79,0.03441159654175863,0.01264919526875019,,,,0.0005,0.0005
80,0.0313080440973863,0.014096987433731556,,,,0.0005,0.0005
81,0.03190862326300703,0.01490312023088336,,,,0.0005,0.0005
82,0.034001093183178455,0.01238767895847559,,,,0.0005,0.0005
83,0.031806942366529256,0.01488031109329313,,,,0.0005,0.0005
84,0.03617677965667099,0.014718929072842002,,,,0.0005,0.0005
85,0.030578913167119026,0.015675568021833897,,,,0.0005,0.0005
86,0.032941861427389085,0.012105081812478602,,,,0.0005,0.0005
87,0.03137733769835904,0.013118048082105815,,,,0.0005,0.0005
88,0.03146950324298814,0.012221335084177554,,,,0.0005,0.0005
89,0.031458769721211866,0.01273834821768105,,,,0.0005,0.0005
90,0.03137895042891614,0.012344070593826473,,,,0.0005,0.0005
91,0.030669187573948875,0.012175635201856494,,,,0.0005,0.0005
92,0.03227445634547621,0.012254001339897513,,,,0.0005,0.0005
93,0.030792489589657634,0.012391597381792963,,,,0.0005,0.0005
94,0.029847371188225225,0.012745146290399134,,,,0.0005,0.0005
95,0.03081486708833836,0.01185580063611269,,,,0.0005,0.0005
96,0.029439943231409416,0.013477003551088274,,,,0.0005,0.0005
97,0.029270467290189117,0.011372229317203164,,,,0.0005,0.0005
98,0.032675336638931185,0.011877303244546056,,,,0.0005,0.0005
99,0.02909644809551537,0.011866576271131635,,,,0.0005,0.0005
100,0.029054512036964297,0.01414518931414932,,,,0.0005,0.0005
101,0.030131250416161492,0.014989937073551118,,,,0.0005,0.0005
102,0.029248498351080343,0.012527149054221809,,,,0.0005,0.0005
103,0.02982834493741393,0.01105781621299684,,,,0.0005,0.0005
104,0.031128895847359672,0.014935951447114348,,,,0.0005,0.0005
105,0.031238088762620464,0.01251413265708834,,,,0.0005,0.0005
106,0.03025690367212519,0.011509696836583316,,,,0.0005,0.0005
107,0.029649219039129093,0.011686232523061335,,,,0.0005,0.0005
108,0.030117668968159705,0.011572022456675768,,,,0.0005,0.0005
109,0.028614963870495558,0.011585664004087448,,,,0.0005,0.0005
110,0.028721076698275283,0.011444321018643677,,,,0.0005,0.0005
111,0.03011384842102416,0.012488045264035463,,,,0.0005,0.0005
112,0.029566055280156434,0.01148577977437526,,,,0.0005,0.0005
113,0.029066873335978016,0.01186611840967089,,,,0.0005,0.0005
114,0.029483198246452957,0.012058792635798454,,,,0.00035,0.00035
115,0.02878888219129294,0.011461456073448062,,,,0.00035,0.00035
116,0.028986273508053273,0.011562400963157415,,,,0.00035,0.00035
117,0.030005620705196634,0.01187298004515469,,,,0.00035,0.00035
118,0.028915007162140682,0.011596760130487382,,,,0.00035,0.00035
119,0.028502477012807503,0.01251838798634708,,,,0.00035,0.00035
120,0.02941213917802088,0.012693848577328026,,,,0.00035,0.00035
121,0.027232251566601917,0.01144379936158657,,,,0.00035,0.00035
122,0.028225217101862654,0.011245902976952493,,,,0.00035,0.00035
123,0.03040672783390619,0.011531090014614165,,,,0.00035,0.00035
124,0.02865231074974872,0.010565443080849946,,,,0.00035,0.00035
125,0.031853466789470986,0.010894164792262018,,,,0.00035,0.00035
126,0.02821491751819849,0.012046679737977684,,,,0.00035,0.00035
127,0.027767521853093058,0.011632446781732142,,,,0.00035,0.00035
128,0.029656142316525802,0.012085782829672098,,,,0.00035,0.00035
129,0.028475287224864587,0.012150127091445029,,,,0.00035,0.00035
130,0.029692513548070565,0.01073874079156667,,,,0.00035,0.00035
131,0.026170133147388697,0.010682080523110926,,,,0.00035,0.00035
132,0.029703266394790262,0.012114707729779184,,,,0.00035,0.00035
133,0.02931161774904467,0.011851369170472026,,,,0.00035,0.00035
134,0.0276508086535614,0.011135316570289433,,,,0.00035,0.00035
135,0.028714773652609438,0.01148018054664135,,,,0.000245,0.000245
136,0.027647223585518077,0.01180322328582406,,,,0.000245,0.000245
137,0.02933072904124856,0.011189702549017966,,,,0.000245,0.000245
138,0.02824842819245532,0.010843504685908556,,,,0.000245,0.000245
139,0.02832689866772853,0.01168040232732892,,,,0.000245,0.000245
140,0.02822016822756268,0.010783579433336854,,,,0.000245,0.000245
141,0.026825836015632376,0.01178120553959161,,,,0.000245,0.000245
142,0.02908827899955213,0.011342334793880582,,,,0.000245,0.000245
143,0.027903548267204314,0.010579186608083546,,,,0.000245,0.000245
144,0.030296234443085268,0.01239173230715096,,,,0.000245,0.000245
145,0.027750706212827936,0.011509118136018515,,,,0.000245,0.000245
146,0.029692007752601057,0.010231883148662746,,,,0.000245,0.000245
147,0.027462364552775398,0.01066982577322051,,,,0.000245,0.000245
148,0.028238177386811003,0.011128883808851242,,,,0.000245,0.000245
149,0.027823530952446163,0.01084253448061645,,,,0.000245,0.000245
150,0.028568601206643507,0.011231011478230357,,,,0.000245,0.000245
151,0.027206717611989006,0.010955726727843285,,,,0.000245,0.000245
152,0.028950092004379258,0.01232429244555533,,,,0.000245,0.000245
153,0.029243300057714805,0.01063063694164157,,,,0.000245,0.000245
154,0.029185525374487042,0.011494513135403395,,,,0.000245,0.000245
155,0.03258852584986016,0.01192690385505557,,,,0.000245,0.000245
156,0.02690311142941937,0.01050853228662163,,,,0.000245,0.000245
157,0.02948224314604886,0.011114566936157644,,,,0.0001715,0.0001715
158,0.028752534853992984,0.011285178130492568,,,,0.0001715,0.0001715
159,0.027405398432165384,0.010347691015340388,,,,0.0001715,0.0001715
160,0.027478398667881265,0.011026430292986333,,,,0.0001715,0.0001715
161,0.029699541250010952,0.011701804818585515,,,,0.0001715,0.0001715
162,0.028999847068917006,0.011247595539316535,,,,0.0001715,0.0001715
163,0.026207527291262522,0.01068288937676698,,,,0.0001715,0.0001715
164,0.027742338454118,0.0109350704587996,,,,0.0001715,0.0001715
165,0.027712542476365343,0.011716805631294847,,,,0.0001715,0.0001715
166,0.027479425829369575,0.010756879928521812,,,,0.0001715,0.0001715
167,0.027343399415258318,0.01084740983787924,,,,0.0001715,0.0001715
168,0.027228912542341277,0.010503694764338434,,,,0.00012004999999999999,0.00012004999999999999
169,0.026144578936509788,0.01068306714296341,,,,0.00012004999999999999,0.00012004999999999999
170,0.029987971007358283,0.010715675656683743,,,,0.00012004999999999999,0.00012004999999999999
171,0.026795738813234493,0.010790573200210929,,,,0.00012004999999999999,0.00012004999999999999
172,0.027321074448991567,0.011074943817220628,,,,0.00012004999999999999,0.00012004999999999999
173,0.027035840786993504,0.010067722876556218,,,,0.00012004999999999999,0.00012004999999999999
174,0.027071791555499658,0.010954193712677807,,,,0.00012004999999999999,0.00012004999999999999
175,0.027559012349229306,0.010448300978168845,,,,0.00012004999999999999,0.00012004999999999999
176,0.027256779663730413,0.011158111738041043,,,,0.00012004999999999999,0.00012004999999999999
177,0.026491446449654177,0.010758896358311176,,,,0.00012004999999999999,0.00012004999999999999
178,0.02806263160891831,0.011133803869597614,,,,0.00012004999999999999,0.00012004999999999999
179,0.026931255968520418,0.010736138210631907,,,,0.00012004999999999999,0.00012004999999999999
180,0.02635370977804996,0.010850330465473235,,,,0.00012004999999999999,0.00012004999999999999
181,0.026978961162967607,0.010632083052769303,,,,0.00012004999999999999,0.00012004999999999999
182,0.028043813887052238,0.009975393302738667,,,,0.00012004999999999999,0.00012004999999999999
183,0.027110871131299064,0.011240033665671945,,,,0.00012004999999999999,0.00012004999999999999
184,0.02943162148585543,0.010477907955646515,,,,0.00012004999999999999,0.00012004999999999999
185,0.027774080663220957,0.010656076134182513,,,,0.00012004999999999999,0.00012004999999999999
186,0.026911147928331047,0.010670825839042664,,,,0.00012004999999999999,0.00012004999999999999
187,0.02700265552266501,0.010914798942394555,,,,0.00012004999999999999,0.00012004999999999999
188,0.027279195084702224,0.011055659037083387,,,,0.00012004999999999999,0.00012004999999999999
189,0.027613636484602466,0.010174565599299967,,,,0.00012004999999999999,0.00012004999999999999
190,0.02644625966786407,0.01063300494570285,,,,0.00012004999999999999,0.00012004999999999999
191,0.027486649807542562,0.010562336654402316,,,,0.00012004999999999999,0.00012004999999999999
192,0.028547047782922164,0.01028894423507154,,,,0.00012004999999999999,0.00012004999999999999
193,0.02968832285841927,0.01103608321864158,,,,8.403499999999999e-05,8.403499999999999e-05
194,0.0263007405155804,0.010255897184833884,,,,8.403499999999999e-05,8.403499999999999e-05
195,0.026721623406047,0.010738326702266932,,,,8.403499999999999e-05,8.403499999999999e-05
196,0.026189851108938456,0.009921015007421374,,,,8.403499999999999e-05,8.403499999999999e-05
197,0.0315038287662901,0.01100524771027267,,,,8.403499999999999e-05,8.403499999999999e-05
198,0.02780416631139815,0.01048938138410449,,,,8.403499999999999e-05,8.403499999999999e-05
199,0.0281599480076693,0.010496197966858745,,,,8.403499999999999e-05,8.403499999999999e-05
200,0.026641824253601953,0.010440613725222647,,,,8.403499999999999e-05,8.403499999999999e-05
201,0.029812986409524456,0.010995052172802389,,,,8.403499999999999e-05,8.403499999999999e-05
202,0.027060791209805757,0.010478423326276243,,,,8.403499999999999e-05,8.403499999999999e-05
203,0.029828014288796112,0.01051036175340414,,,,8.403499999999999e-05,8.403499999999999e-05
204,0.0269972387177404,0.010314534534700215,,,,8.403499999999999e-05,8.403499999999999e-05
205,0.02851150865899399,0.011064307997003198,,,,8.403499999999999e-05,8.403499999999999e-05
206,0.027565063501242548,0.010045467060990632,,,,8.403499999999999e-05,8.403499999999999e-05
207,0.029675729922018945,0.010407771216705441,,,,5.882449999999999e-05,5.882449999999999e-05
208,0.02785155174206011,0.010452786111272871,,,,5.882449999999999e-05,5.882449999999999e-05
209,0.030267536858445965,0.010820552066434175,,,,5.882449999999999e-05,5.882449999999999e-05
210,0.028750344179570675,0.01158275199122727,,,,5.882449999999999e-05,5.882449999999999e-05
211,0.026589377521304414,0.010690358700230718,,,,5.882449999999999e-05,5.882449999999999e-05
212,0.028362346987705678,0.010437338496558368,,,,5.882449999999999e-05,5.882449999999999e-05
213,0.026947280566673726,0.01111133152153343,,,,5.882449999999999e-05,5.882449999999999e-05
214,0.026888159540249035,0.010580343776382506,,,,5.882449999999999e-05,5.882449999999999e-05
215,0.028754659317201003,0.010268764570355415,,,,5.882449999999999e-05,5.882449999999999e-05
216,0.027305741095915437,0.0105748251080513,,,,5.882449999999999e-05,5.882449999999999e-05
217,0.02748318956582807,0.01080555614316836,,,,5.882449999999999e-05,5.882449999999999e-05
218,0.027026713447412476,0.011586039094254375,,,,4.117714999999999e-05,4.117714999999999e-05
219,0.027339469030266628,0.010227021644823253,,,,4.117714999999999e-05,4.117714999999999e-05
220,0.027501163160195574,0.010935224243439734,,,,4.117714999999999e-05,4.117714999999999e-05
221,0.027992629882646725,0.010395827936008573,,,,4.117714999999999e-05,4.117714999999999e-05
222,0.026867393316933885,0.01029891544021666,,,,4.117714999999999e-05,4.117714999999999e-05
223,0.02652160229627043,0.010283397394232452,,,,4.117714999999999e-05,4.117714999999999e-05
224,0.027637860388495028,0.011292481678538024,,,,4.117714999999999e-05,4.117714999999999e-05
225,0.027161098463693634,0.010519382893107831,,,,4.117714999999999e-05,4.117714999999999e-05
226,0.02727802292793058,0.011173113132826984,,,,4.117714999999999e-05,4.117714999999999e-05
227,0.027126596542075276,0.010643168003298342,,,,4.117714999999999e-05,4.117714999999999e-05
228,0.026909426203928888,0.011130987550131977,,,,4.117714999999999e-05,4.117714999999999e-05
229,0.029017791443038732,0.010397758916951716,,,,2.8824004999999994e-05,2.8824004999999994e-05
230,0.026911427703453228,0.011175584979355335,,,,2.8824004999999994e-05,2.8824004999999994e-05
231,0.027366285590687767,0.010534859378822148,,,,2.8824004999999994e-05,2.8824004999999994e-05
232,0.02713041301467456,0.010690587223507464,,,,2.8824004999999994e-05,2.8824004999999994e-05
233,0.029239964293083176,0.010622733039781451,,,,2.8824004999999994e-05,2.8824004999999994e-05
234,0.026967567566316575,0.010558441048488021,,,,2.8824004999999994e-05,2.8824004999999994e-05
235,0.027038724394515157,0.010473017347976565,,,,2.8824004999999994e-05,2.8824004999999994e-05
236,0.026830677554244176,0.010820165392942727,,,,2.8824004999999994e-05,2.8824004999999994e-05
237,0.027672296128002927,0.010215167421847582,,,,2.8824004999999994e-05,2.8824004999999994e-05
238,0.027765510516474023,0.011266661516856402,,,,2.8824004999999994e-05,2.8824004999999994e-05
239,0.027064158726716414,0.010334026184864342,,,,2.8824004999999994e-05,2.8824004999999994e-05
240,0.026021469180705026,0.011382753495126963,,,,2.0176803499999996e-05,2.0176803499999996e-05
241,0.026328473730245605,0.01012320234440267,,,,2.0176803499999996e-05,2.0176803499999996e-05
242,0.02747843455290422,0.010588641627691686,,,,2.0176803499999996e-05,2.0176803499999996e-05
243,0.026506004156544805,0.010260314156766981,,,,2.0176803499999996e-05,2.0176803499999996e-05
244,0.02689676347654313,0.010134055686648935,,,,2.0176803499999996e-05,2.0176803499999996e-05
245,0.026961669354932383,0.010522653348743916,,,,2.0176803499999996e-05,2.0176803499999996e-05
246,0.028166843607323244,0.010843757772818208,,,,2.0176803499999996e-05,2.0176803499999996e-05
247,0.025615502352593467,0.010622872505337,,,,2.0176803499999996e-05,2.0176803499999996e-05
248,0.027567430064664222,0.011336522409692407,,,,2.0176803499999996e-05,2.0176803499999996e-05
249,0.027219772542594,0.0105301906587556,,,,2.0176803499999996e-05,2.0176803499999996e-05
250,0.027233494227402844,0.010987163870595396,,,,2.0176803499999996e-05,2.0176803499999996e-05
251,0.027532668667845428,0.010433572577312589,,,,1.4123762449999997e-05,1.4123762449999997e-05
252,0.026588677137624472,0.010922567220404744,,,,1.4123762449999997e-05,1.4123762449999997e-05
253,0.027097722748294473,0.010607852367684245,,,,1.4123762449999997e-05,1.4123762449999997e-05
254,0.026193256897386163,0.010481532430276275,,,,1.4123762449999997e-05,1.4123762449999997e-05
255,0.027818039467092603,0.010522189433686435,,,,1.4123762449999997e-05,1.4123762449999997e-05
256,0.028581224818481132,0.010886260773986578,,,,1.4123762449999997e-05,1.4123762449999997e-05
257,0.026973293453920633,0.0110940458253026,,,,1.4123762449999997e-05,1.4123762449999997e-05
258,0.02654979392536916,0.010278812143951654,,,,1.4123762449999997e-05,1.4123762449999997e-05
259,0.02698222707840614,0.010699772275984287,,,,1.4123762449999997e-05,1.4123762449999997e-05
260,0.027313878294080496,0.010934287565760314,,,,1.4123762449999997e-05,1.4123762449999997e-05
261,0.02689004357671365,0.010496838949620724,,,,1.4123762449999997e-05,1.4123762449999997e-05
262,0.027802509925095364,0.010520522482693195,,,,9.886633714999997e-06,9.886633714999997e-06
263,0.028570331836817786,0.010533111053518951,,,,9.886633714999997e-06,9.886633714999997e-06
264,0.026816527533810586,0.010089606395922601,,,,9.886633714999997e-06,9.886633714999997e-06
265,0.02726875140797347,0.010336986393667758,,,,9.886633714999997e-06,9.886633714999997e-06
266,0.02735965928877704,0.011283600935712457,,,,9.886633714999997e-06,9.886633714999997e-06
267,0.02620631252648309,0.010708708432503045,,,,9.886633714999997e-06,9.886633714999997e-06
268,0.027660844469210133,0.010267661069519818,,,,9.886633714999997e-06,9.886633714999997e-06
269,0.027986640692688525,0.01036070508416742,,,,9.886633714999997e-06,9.886633714999997e-06
270,0.026842198189115152,0.010571262217126787,,,,9.886633714999997e-06,9.886633714999997e-06
271,0.027606867370195687,0.010987204499542713,,,,9.886633714999997e-06,9.886633714999997e-06
272,0.029279031354235485,0.010571399820037186,,,,9.886633714999997e-06,9.886633714999997e-06
273,0.02649732428835705,0.010607542819343507,,,,6.920643600499998e-06,6.920643600499998e-06
274,0.02685946019482799,0.010370508534833789,,,,6.920643600499998e-06,6.920643600499998e-06
275,0.025837377819698304,0.011172594502568245,,,,6.920643600499998e-06,6.920643600499998e-06
276,0.026950330851832405,0.010810301289893687,,,,6.920643600499998e-06,6.920643600499998e-06
277,0.027357461774954572,0.010652804281562567,,,,6.920643600499998e-06,6.920643600499998e-06
278,0.029026428295765072,0.010912652127444744,,,,6.920643600499998e-06,6.920643600499998e-06
279,0.026157722721109167,0.011454817489720881,,,,6.920643600499998e-06,6.920643600499998e-06
280,0.025644036315497942,0.010536377900280058,,,,6.920643600499998e-06,6.920643600499998e-06
281,0.02537061445764266,0.010408658068627119,,,,6.920643600499998e-06,6.920643600499998e-06
282,0.026709238503826782,0.010231167660094798,,,,6.920643600499998e-06,6.920643600499998e-06
283,0.02773881994653493,0.010297318804077804,,,,6.920643600499998e-06,6.920643600499998e-06
284,0.02677725240937434,0.01099701365455985,,,,4.844450520349998e-06,4.844450520349998e-06
285,0.028411928069544956,0.011112709995359182,,,,4.844450520349998e-06,4.844450520349998e-06
286,0.026517384045291692,0.010370775824412704,,,,4.844450520349998e-06,4.844450520349998e-06
287,0.02715437626466155,0.010866652126424015,,,,4.844450520349998e-06,4.844450520349998e-06
288,0.02646159366122447,0.010788788087666035,,,,4.844450520349998e-06,4.844450520349998e-06
289,0.02617817049031146,0.011271120980381966,,,,4.844450520349998e-06,4.844450520349998e-06
290,0.027849234611494467,0.010745744919404387,,,,4.844450520349998e-06,4.844450520349998e-06
291,0.02667512570042163,0.010037065716460347,,,,4.844450520349998e-06,4.844450520349998e-06
292,0.026728221942903474,0.010997608886100352,,,,4.844450520349998e-06,4.844450520349998e-06
293,0.02855829952750355,0.011251768795773387,,,,4.844450520349998e-06,4.844450520349998e-06
294,0.02735561813460663,0.010431076749227941,,,,4.844450520349998e-06,4.844450520349998e-06
295,0.026274042960722,0.010469738743267953,,,,3.3911153642449986e-06,3.3911153642449986e-06
296,0.026643542427336797,0.011196062434464693,,,,3.3911153642449986e-06,3.3911153642449986e-06
297,0.028963642893359065,0.009952147724106908,,,,3.3911153642449986e-06,3.3911153642449986e-06
298,0.026668333099223673,0.010285635478794575,,,,3.3911153642449986e-06,3.3911153642449986e-06
299,0.027486679377034307,0.010434303083457053,,,,3.3911153642449986e-06,3.3911153642449986e-06
