epoch,train_loss,eval_loss,f1_score,precision,recall,lr,adam_lr
0,2.455352082848549,2.5362287163734436,,,,0.0005,0.0005
1,2.396196663379669,2.4722610116004944,,,,0.0005,0.0005
2,2.343500643968582,2.4242571592330933,,,,0.0005,0.0005
3,2.285426840186119,2.3702776432037354,,,,0.0005,0.0005
4,2.234060138463974,2.3160834908485413,,,,0.0005,0.0005
5,2.1802759170532227,2.262808680534363,,,,0.0005,0.0005
6,2.127729579806328,2.200903296470642,,,,0.0005,0.0005
7,2.061268113553524,2.1330187916755676,,,,0.0005,0.0005
8,1.9894306883215904,2.0592585504055023,,,,0.0005,0.0005
9,1.9044870808720589,1.9699859917163849,,,,0.0005,0.0005
10,1.8054003193974495,1.8557399809360504,,,,0.0005,0.0005
11,1.6921907663345337,1.7138164639472961,,,,0.0005,0.0005
12,1.5339088663458824,1.5438641607761383,,,,0.0005,0.0005
13,1.352804683148861,1.3404888808727264,,,,0.0005,0.0005
14,1.1359561569988728,1.0956094563007355,,,,0.0005,0.0005
15,0.8716576658189297,0.8044387847185135,,,,0.0005,0.0005
16,0.5601980872452259,0.4760565385222435,,,,0.0005,0.0005
17,0.27288081031292677,0.2719285115599632,,,,0.0005,0.0005
18,0.1794521980918944,0.24400129541754723,,,,0.0005,0.0005
19,0.1779097388498485,0.2417861893773079,,,,0.0005,0.0005
20,0.17763302521780133,0.2437387928366661,,,,0.0005,0.0005
21,0.17432636907324195,0.24594775587320328,,,,0.0005,0.0005
22,0.17214651126414537,0.24140568263828754,,,,0.0005,0.0005
23,0.17284007323905826,0.24393000081181526,,,,0.0005,0.0005
24,0.17223712662234902,0.24282632023096085,,,,0.0005,0.0005
25,0.1755565325729549,0.23820646479725838,,,,0.0005,0.0005
26,0.1705895233899355,0.2429614346474409,,,,0.0005,0.0005
27,0.17258817749097943,0.23932094126939774,,,,0.0005,0.0005
28,0.1703273057937622,0.24378270097076893,,,,0.0005,0.0005
29,0.1668605781160295,0.2409769967198372,,,,0.0005,0.0005
30,0.16839005425572395,0.23470105603337288,,,,0.0005,0.0005
31,0.16835274174809456,0.2352792676538229,,,,0.0005,0.0005
32,0.1663850429467857,0.23403329402208328,,,,0.0005,0.0005
33,0.16508723702281713,0.2406115010380745,,,,0.0005,0.0005
34,0.16709451656788588,0.2317529357969761,,,,0.0005,0.0005
35,0.1646641348488629,0.24179572239518166,,,,0.0005,0.0005
36,0.1640201574191451,0.23181074112653732,,,,0.0005,0.0005
37,0.16514978907071054,0.23071378841996193,,,,0.0005,0.0005
38,0.16343742865137756,0.23500146716833115,,,,0.0005,0.0005
39,0.16398242488503456,0.2278793714940548,,,,0.0005,0.0005
40,0.15799770271405578,0.22386441193521023,,,,0.0005,0.0005
41,0.1591298831626773,0.22264450043439865,,,,0.0005,0.0005
42,0.1551362657919526,0.22846969217061996,,,,0.0005,0.0005
43,0.1513762315735221,0.217160290107131,,,,0.0005,0.0005
44,0.15105718467384577,0.2162950336933136,,,,0.0005,0.0005
45,0.14835435757413507,0.2223058007657528,,,,0.0005,0.0005
46,0.1479034279473126,0.20965713262557983,,,,0.0005,0.0005
47,0.14538573240861297,0.21336868405342102,,,,0.0005,0.0005
48,0.14689993602223694,0.21279935725033283,,,,0.0005,0.0005
49,0.14800760662183166,0.21166987903416157,,,,0.0005,0.0005
50,0.14526361087337136,0.20903106220066547,,,,0.0005,0.0005
51,0.14442206639796495,0.21276367455720901,,,,0.0005,0.0005
52,0.1455465010367334,0.20232774689793587,,,,0.0005,0.0005
53,0.14047275530174375,0.20750220492482185,,,,0.0005,0.0005
54,0.14217294985428452,0.2022465243935585,,,,0.0005,0.0005
55,0.14171838434413075,0.20058631524443626,,,,0.0005,0.0005
56,0.1427104128524661,0.20326785370707512,,,,0.0005,0.0005
57,0.1412148172967136,0.20215434208512306,,,,0.0005,0.0005
58,0.1389617172535509,0.2000255584716797,,,,0.0005,0.0005
59,0.14172772597521544,0.20130127854645252,,,,0.0005,0.0005
60,0.13669594004750252,0.199384531006217,,,,0.0005,0.0005
61,0.1376544525846839,0.19840876758098602,,,,0.0005,0.0005
62,0.1356883142143488,0.19795573502779007,,,,0.0005,0.0005
63,0.13759440439753234,0.1970725990831852,,,,0.0005,0.0005
64,0.14081129408441484,0.19530509039759636,,,,0.0005,0.0005
65,0.13915050704963505,0.19708871468901634,,,,0.0005,0.0005
66,0.13377274898812175,0.20192803256213665,,,,0.0005,0.0005
67,0.1365584540180862,0.19768026471138,,,,0.0005,0.0005
68,0.13339878106489778,0.1943840328603983,,,,0.0005,0.0005
69,0.1327804287429899,0.19082244485616684,,,,0.0005,0.0005
70,0.13211555499583483,0.19783859699964523,,,,0.0005,0.0005
71,0.1331414480227977,0.190353624522686,,,,0.0005,0.0005
72,0.13529357081279159,0.19149509444832802,,,,0.0005,0.0005
73,0.13330608746036887,0.18911155313253403,,,,0.0005,0.0005
74,0.13259896007366478,0.19089549034833908,,,,0.0005,0.0005
75,0.13494880707003176,0.1874172892421484,,,,0.0005,0.0005
76,0.1296365219168365,0.19476114213466644,,,,0.0005,0.0005
77,0.13212950807064772,0.18957969173789024,,,,0.0005,0.0005
78,0.13386907102540135,0.19139095582067966,,,,0.0005,0.0005
79,0.13193119899369776,0.19059079326689243,,,,0.0005,0.0005
80,0.1316903750412166,0.18619735538959503,,,,0.0005,0.0005
81,0.13209079764783382,0.1852088924497366,,,,0.0005,0.0005
82,0.13216705713421106,0.18537435494363308,,,,0.0005,0.0005
83,0.12814127001911402,0.19776366464793682,,,,0.0005,0.0005
84,0.12805851502344012,0.18490848131477833,,,,0.0005,0.0005
85,0.12978435400873423,0.1833905391395092,,,,0.0005,0.0005
86,0.13003494823351502,0.18156017176806927,,,,0.0005,0.0005
87,0.13136144261807203,0.1845499463379383,,,,0.0005,0.0005
88,0.12784941587597132,0.18735818564891815,,,,0.0005,0.0005
89,0.12546660471707582,0.1907591000199318,,,,0.0005,0.0005
90,0.1280295744072646,0.18535377457737923,,,,0.0005,0.0005
91,0.12797808926552534,0.17972035892307758,,,,0.0005,0.0005
92,0.12531487364321947,0.180247837677598,,,,0.0005,0.0005
93,0.12511947378516197,0.18261715024709702,,,,0.0005,0.0005
94,0.12680365657433867,0.18715481646358967,,,,0.0005,0.0005
95,0.12595935678109527,0.1822864841669798,,,,0.0005,0.0005
96,0.1272891196422279,0.17872152477502823,,,,0.0005,0.0005
97,0.12918622372671962,0.17678669281303883,,,,0.0005,0.0005
98,0.1232316312380135,0.18082071840763092,,,,0.0005,0.0005
99,0.12502252240665257,0.1709613110870123,,,,0.0005,0.0005
100,0.1220254641957581,0.17733305506408215,,,,0.0005,0.0005
101,0.12336081848479807,0.17694339342415333,,,,0.0005,0.0005
102,0.12320201122201979,0.17273835465312004,,,,0.0005,0.0005
103,0.12242861278355122,0.17380515486001968,,,,0.0005,0.0005
104,0.1235564099624753,0.1751696914434433,,,,0.0005,0.0005
105,0.12174168159253895,0.1742031704634428,,,,0.0005,0.0005
106,0.12090596929192543,0.17121909745037556,,,,0.0005,0.0005
107,0.12157062184996903,0.1720694713294506,,,,0.0005,0.0005
108,0.1213142997585237,0.17096217349171638,,,,0.0005,0.0005
109,0.11912526097148657,0.172970999032259,,,,0.0005,0.0005
110,0.11831220518797636,0.17586584202945232,,,,0.00035,0.00035
111,0.11843339400365949,0.17955225333571434,,,,0.00035,0.00035
112,0.12179782893508673,0.16695008799433708,,,,0.00035,0.00035
113,0.11738445237278938,0.17540511582046747,,,,0.00035,0.00035
114,0.11887618131004274,0.17523903120309114,,,,0.00035,0.00035
115,0.11857507191598415,0.17320043686777353,,,,0.00035,0.00035
116,0.11636312585324049,0.16969017125666142,,,,0.00035,0.00035
117,0.1189862594474107,0.16991120018064976,,,,0.00035,0.00035
118,0.11555609875358641,0.16769229248166084,,,,0.00035,0.00035
119,0.11584357707761228,0.17079114075750113,,,,0.00035,0.00035
120,0.11840672325342894,0.16959243919700384,,,,0.00035,0.00035
121,0.11562258750200272,0.17740381881594658,,,,0.00035,0.00035
122,0.11623764922842383,0.16563552245497704,,,,0.00035,0.00035
123,0.1152072271797806,0.16801111958920956,,,,0.00035,0.00035
124,0.11398492590524256,0.1639459179714322,,,,0.00035,0.00035
125,0.11498743901029229,0.16592883504927158,,,,0.00035,0.00035
126,0.11526783462613821,0.16444521956145763,,,,0.00035,0.00035
127,0.11279489868320525,0.17082951962947845,,,,0.00035,0.00035
128,0.1140031791292131,0.15947716869413853,,,,0.00035,0.00035
129,0.11493407422676682,0.160609919577837,,,,0.00035,0.00035
130,0.11478613805957139,0.16360069438815117,,,,0.00035,0.00035
131,0.11329274717718363,0.16388186998665333,,,,0.00035,0.00035
132,0.11384058021940291,0.1583621446043253,,,,0.00035,0.00035
133,0.11354348203167319,0.15961771178990602,,,,0.00035,0.00035
134,0.11487609753385186,0.15654457360506058,,,,0.00035,0.00035
135,0.11240545567125082,0.155124694108963,,,,0.00035,0.00035
136,0.11478587309829891,0.16105146892368793,,,,0.00035,0.00035
137,0.11014966852962971,0.16014139913022518,,,,0.00035,0.00035
138,0.11253624153323472,0.15914682298898697,,,,0.00035,0.00035
139,0.10962356952950358,0.16086309030652046,,,,0.00035,0.00035
140,0.10959141352213919,0.16048894822597504,,,,0.00035,0.00035
141,0.10930972942151129,0.1628076797351241,,,,0.00035,0.00035
142,0.1117967579048127,0.15552132949233055,,,,0.00035,0.00035
143,0.1082173481117934,0.15467834286391735,,,,0.00035,0.00035
144,0.1096882987767458,0.16672749444842339,,,,0.00035,0.00035
145,0.10942183062434196,0.1510251984000206,,,,0.00035,0.00035
146,0.10779782896861434,0.15479167457669973,,,,0.00035,0.00035
147,0.108973408350721,0.1590755097568035,,,,0.00035,0.00035
148,0.10847253235988319,0.17548950761556625,,,,0.00035,0.00035
149,0.10832537896931171,0.15345141105353832,,,,0.00035,0.00035
150,0.1067799748852849,0.15130783803761005,,,,0.00035,0.00035
151,0.10445645998697728,0.15784496068954468,,,,0.00035,0.00035
152,0.10677541210316122,0.1670985920354724,,,,0.00035,0.00035
153,0.10667016101069748,0.15259073860943317,,,,0.00035,0.00035
154,0.10826957528479397,0.1482430435717106,,,,0.00035,0.00035
155,0.10427395650185645,0.15747673995792866,,,,0.00035,0.00035
156,0.10598571016453207,0.151478486135602,,,,0.00035,0.00035
157,0.10432449821382761,0.14994869753718376,,,,0.00035,0.00035
158,0.10453429911285639,0.15697394777089357,,,,0.00035,0.00035
159,0.10452427295967937,0.15340430289506912,,,,0.00035,0.00035
160,0.10390988807193935,0.15088901482522488,,,,0.00035,0.00035
161,0.10450788331218064,0.1493342211470008,,,,0.00035,0.00035
162,0.10464999661780894,0.15879068616777658,,,,0.00035,0.00035
163,0.1010136145632714,0.14685660041868687,,,,0.00035,0.00035
164,0.10315684578381479,0.15143274143338203,,,,0.00035,0.00035
165,0.10487060388550162,0.15073048137128353,,,,0.00035,0.00035
166,0.10600617690943182,0.150413041934371,,,,0.00035,0.00035
167,0.10784049052745104,0.14995169080793858,,,,0.00035,0.00035
168,0.10574267199262977,0.14963860251009464,,,,0.00035,0.00035
169,0.10228947410359979,0.14752758108079433,,,,0.00035,0.00035
170,0.1012101408559829,0.1525904145091772,,,,0.00035,0.00035
171,0.10408522072248161,0.1478015137836337,,,,0.00035,0.00035
172,0.10070899734273553,0.16174199618399143,,,,0.00035,0.00035
173,0.10069971391931176,0.14804961066693068,,,,0.00035,0.00035
174,0.10417477274313569,0.14523673988878727,,,,0.00035,0.00035
175,0.10141368536278605,0.14787745475769043,,,,0.00035,0.00035
176,0.1024058882612735,0.14543980546295643,,,,0.00035,0.00035
177,0.1007628325605765,0.14948228932917118,,,,0.00035,0.00035
178,0.10373210918623954,0.15476683154702187,,,,0.00035,0.00035
179,0.10280262515880167,0.1476355753839016,,,,0.00035,0.00035
180,0.10025807982310653,0.14607178792357445,,,,0.00035,0.00035
181,0.10172518144827336,0.15457331202924252,,,,0.00035,0.00035
182,0.1012210682965815,0.1435145754367113,,,,0.00035,0.00035
183,0.103256153059192,0.14891557581722736,,,,0.00035,0.00035
184,0.10266295471228659,0.14982536435127258,,,,0.00035,0.00035
185,0.10028672555927187,0.1569851152598858,,,,0.00035,0.00035
186,0.1052702103042975,0.14768147841095924,,,,0.00035,0.00035
187,0.10019604850094765,0.1457492932677269,,,,0.00035,0.00035
188,0.09922938141971827,0.14801486022770405,,,,0.00035,0.00035
189,0.10192633862607181,0.1547719817608595,,,,0.00035,0.00035
190,0.09969512885436416,0.1416430724784732,,,,0.00035,0.00035
191,0.10112864896655083,0.14322997070848942,,,,0.00035,0.00035
192,0.10132425045594573,0.1512584201991558,,,,0.00035,0.00035
193,0.09863793628755957,0.14686474949121475,,,,0.00035,0.00035
194,0.10056122380774468,0.1485619004815817,,,,0.00035,0.00035
195,0.10017798701301217,0.1448105201125145,,,,0.00035,0.00035
196,0.09969954018015414,0.14657366275787354,,,,0.00035,0.00035
197,0.09947196452412754,0.14509657677263021,,,,0.00035,0.00035
198,0.10020164668094367,0.14442231506109238,,,,0.00035,0.00035
199,0.10178426443599164,0.1446598283946514,,,,0.00035,0.00035
200,0.09905578300822526,0.16612320486456156,,,,0.00035,0.00035
201,0.10039247875101864,0.14278014563024044,,,,0.000245,0.000245
202,0.09834582428447902,0.1459596734493971,,,,0.000245,0.000245
203,0.09779265848919749,0.14289763383567333,,,,0.000245,0.000245
204,0.09998994611669332,0.1509985364973545,,,,0.000245,0.000245
205,0.10273137327749282,0.1483563594520092,,,,0.000245,0.000245
206,0.10176787851378322,0.1401118291541934,,,,0.000245,0.000245
207,0.10071427328512073,0.14413865469396114,,,,0.000245,0.000245
208,0.10048415581695735,0.15054759662598372,,,,0.000245,0.000245
209,0.09721962362527847,0.1446141041815281,,,,0.000245,0.000245
210,0.1003169056493789,0.1448787609115243,,,,0.000245,0.000245
211,0.10271203075535595,0.14909919537603855,,,,0.000245,0.000245
212,0.09954593784641474,0.14457710273563862,,,,0.000245,0.000245
213,0.1010680717881769,0.15419973339885473,,,,0.000245,0.000245
214,0.09917788160964847,0.14477930776774883,,,,0.000245,0.000245
215,0.10022415011189878,0.14440998621284962,,,,0.000245,0.000245
216,0.10191108635626733,0.14777996204793453,,,,0.000245,0.000245
217,0.101814468158409,0.14298277627676725,,,,0.0001715,0.0001715
218,0.09964549145661294,0.14225351251661777,,,,0.0001715,0.0001715
219,0.10021049052011222,0.14692219998687506,,,,0.0001715,0.0001715
220,0.0977789358003065,0.14433362148702145,,,,0.0001715,0.0001715
221,0.09861137252300978,0.14487489871680737,,,,0.0001715,0.0001715
222,0.09838012955151498,0.14827486127614975,,,,0.0001715,0.0001715
223,0.10341937316115946,0.15315933898091316,,,,0.0001715,0.0001715
224,0.09910466603469104,0.1552868946455419,,,,0.0001715,0.0001715
225,0.10167341097258031,0.1460083182901144,,,,0.0001715,0.0001715
226,0.10185393888968974,0.14620618149638176,,,,0.0001715,0.0001715
227,0.10261128179263324,0.1435344535857439,,,,0.0001715,0.0001715
228,0.10078714392147958,0.15185769693925977,,,,0.00012004999999999999,0.00012004999999999999
229,0.10091000678949058,0.14298361726105213,,,,0.00012004999999999999,0.00012004999999999999
230,0.09842820279300213,0.14947525411844254,,,,0.00012004999999999999,0.00012004999999999999
231,0.09780617489013821,0.1544182114303112,,,,0.00012004999999999999,0.00012004999999999999
232,0.0984613208565861,0.1428838772699237,,,,0.00012004999999999999,0.00012004999999999999
233,0.09939883882179856,0.14429495111107826,,,,0.00012004999999999999,0.00012004999999999999
234,0.09620982559863478,0.14602983370423317,,,,0.00012004999999999999,0.00012004999999999999
235,0.09812543680891395,0.15144358482211828,,,,0.00012004999999999999,0.00012004999999999999
236,0.09834460017737001,0.1421020533889532,,,,0.00012004999999999999,0.00012004999999999999
237,0.09923218074254692,0.14425157755613327,,,,0.00012004999999999999,0.00012004999999999999
238,0.09944436163641512,0.14219161309301853,,,,0.00012004999999999999,0.00012004999999999999
239,0.09839464607648551,0.14272044226527214,,,,8.403499999999999e-05,8.403499999999999e-05
240,0.09735308971721679,0.15320095559582114,,,,8.403499999999999e-05,8.403499999999999e-05
241,0.09864660119637847,0.1399779161438346,,,,8.403499999999999e-05,8.403499999999999e-05
242,0.10093084373511374,0.14366836287081242,,,,8.403499999999999e-05,8.403499999999999e-05
243,0.09593070007394999,0.14911896642297506,,,,8.403499999999999e-05,8.403499999999999e-05
244,0.09765820461325347,0.1439833641052246,,,,8.403499999999999e-05,8.403499999999999e-05
245,0.0980092971585691,0.14999407902359962,,,,8.403499999999999e-05,8.403499999999999e-05
246,0.10078114725183696,0.14378374069929123,,,,8.403499999999999e-05,8.403499999999999e-05
247,0.10054094262886792,0.14722480904310942,,,,8.403499999999999e-05,8.403499999999999e-05
248,0.09708205109927803,0.14465745445340872,,,,8.403499999999999e-05,8.403499999999999e-05
249,0.09925411536823958,0.1407981589436531,,,,8.403499999999999e-05,8.403499999999999e-05
250,0.09977546148002148,0.14328128844499588,,,,8.403499999999999e-05,8.403499999999999e-05
251,0.09998648590408266,0.14418319426476955,,,,8.403499999999999e-05,8.403499999999999e-05
252,0.1028555566444993,0.1446565706282854,,,,5.882449999999999e-05,5.882449999999999e-05
253,0.09808523068204522,0.14667358621954918,,,,5.882449999999999e-05,5.882449999999999e-05
254,0.09952896030154079,0.15213451720774174,,,,5.882449999999999e-05,5.882449999999999e-05
255,0.09825779066886753,0.14270571433007717,,,,5.882449999999999e-05,5.882449999999999e-05
256,0.09748248336836696,0.14964318554848433,,,,5.882449999999999e-05,5.882449999999999e-05
257,0.10167428699787706,0.14261490479111671,,,,5.882449999999999e-05,5.882449999999999e-05
258,0.0970535232918337,0.14080870151519775,,,,5.882449999999999e-05,5.882449999999999e-05
259,0.10059069469571114,0.14104432985186577,,,,5.882449999999999e-05,5.882449999999999e-05
260,0.09710568794980645,0.14013016503304243,,,,5.882449999999999e-05,5.882449999999999e-05
261,0.099554248386994,0.14239210821688175,,,,5.882449999999999e-05,5.882449999999999e-05
262,0.09780343063175678,0.14372584782540798,,,,5.882449999999999e-05,5.882449999999999e-05
263,0.09807970584370196,0.14363900758326054,,,,4.117714999999999e-05,4.117714999999999e-05
264,0.09842127782758325,0.14396691042929888,,,,4.117714999999999e-05,4.117714999999999e-05
265,0.100530578289181,0.1418137289583683,,,,4.117714999999999e-05,4.117714999999999e-05
266,0.09870534460060298,0.14073969796299934,,,,4.117714999999999e-05,4.117714999999999e-05
267,0.09879702283069491,0.1411419752985239,,,,4.117714999999999e-05,4.117714999999999e-05
268,0.09658616641536355,0.14750431198626757,,,,4.117714999999999e-05,4.117714999999999e-05
269,0.10026124434079975,0.14755155891180038,,,,4.117714999999999e-05,4.117714999999999e-05
270,0.0969666235614568,0.14776042569428682,,,,4.117714999999999e-05,4.117714999999999e-05
271,0.09879528312012553,0.1472000228241086,,,,4.117714999999999e-05,4.117714999999999e-05
272,0.09771020500920713,0.14098334312438965,,,,4.117714999999999e-05,4.117714999999999e-05
273,0.09912635525688529,0.1465581189841032,,,,4.117714999999999e-05,4.117714999999999e-05
274,0.09824907733127475,0.1419588103890419,,,,2.8824004999999994e-05,2.8824004999999994e-05
275,0.09967583022080362,0.14967516530305147,,,,2.8824004999999994e-05,2.8824004999999994e-05
276,0.09666484745685011,0.143849303945899,,,,2.8824004999999994e-05,2.8824004999999994e-05
277,0.09838064527139068,0.1433512531220913,,,,2.8824004999999994e-05,2.8824004999999994e-05
278,0.09895327419508249,0.14205134846270084,,,,2.8824004999999994e-05,2.8824004999999994e-05
279,0.09779539960436523,0.14609139133244753,,,,2.8824004999999994e-05,2.8824004999999994e-05
280,0.0983302891254425,0.142271283082664,,,,2.8824004999999994e-05,2.8824004999999994e-05
281,0.0970516693778336,0.14191589690744877,,,,2.8824004999999994e-05,2.8824004999999994e-05
282,0.09746050206013024,0.1437629871070385,,,,2.8824004999999994e-05,2.8824004999999994e-05
283,0.09905231767334044,0.14150123298168182,,,,2.8824004999999994e-05,2.8824004999999994e-05
284,0.09872658061794937,0.1425699582323432,,,,2.8824004999999994e-05,2.8824004999999994e-05
285,0.10029780922923237,0.14162551425397396,,,,2.0176803499999996e-05,2.0176803499999996e-05
286,0.0990862911567092,0.14344940520823002,,,,2.0176803499999996e-05,2.0176803499999996e-05
287,0.0971162582281977,0.1453417632728815,,,,2.0176803499999996e-05,2.0176803499999996e-05
288,0.10301489825360477,0.14441965892910957,,,,2.0176803499999996e-05,2.0176803499999996e-05
289,0.09911772550549358,0.14562539383769035,,,,2.0176803499999996e-05,2.0176803499999996e-05
290,0.09719475638121367,0.14738131500780582,,,,2.0176803499999996e-05,2.0176803499999996e-05
291,0.09864392725285143,0.14345608837902546,,,,2.0176803499999996e-05,2.0176803499999996e-05
292,0.09712700848467648,0.14066942036151886,,,,2.0176803499999996e-05,2.0176803499999996e-05
293,0.10029559931717813,0.14291074126958847,,,,2.0176803499999996e-05,2.0176803499999996e-05
294,0.09897588659077883,0.14201230183243752,,,,2.0176803499999996e-05,2.0176803499999996e-05
295,0.10092205891851336,0.14151412062346935,,,,2.0176803499999996e-05,2.0176803499999996e-05
296,0.09748191421385854,0.148697251919657,,,,1.4123762449999997e-05,1.4123762449999997e-05
297,0.0989325997652486,0.14010800793766975,,,,1.4123762449999997e-05,1.4123762449999997e-05
298,0.09936356963589787,0.14355834014713764,,,,1.4123762449999997e-05,1.4123762449999997e-05
299,0.09804842143785208,0.14462663605809212,,,,1.4123762449999997e-05,1.4123762449999997e-05
