epoch,train_loss,eval_loss,f1_score,precision,recall,lr,adam_lr
0,2.3884170204401016,2.3743993639945984,,,,0.0005,0.0005
1,2.306052803993225,2.2985342741012573,,,,0.0005,0.0005
2,2.231360971927643,2.2154570817947388,,,,0.0005,0.0005
3,2.1541571468114853,2.132151633501053,,,,0.0005,0.0005
4,2.0633423551917076,2.0412075519561768,,,,0.0005,0.0005
5,1.951226368546486,1.9072310626506805,,,,0.0005,0.0005
6,1.811441384255886,1.7519464194774628,,,,0.0005,0.0005
7,1.6454820930957794,1.5641688704490662,,,,0.0005,0.0005
8,1.424764409661293,1.3192737996578217,,,,0.0005,0.0005
9,1.1574712730944157,1.0224335044622421,,,,0.0005,0.0005
10,0.8560183234512806,0.7060361504554749,,,,0.0005,0.0005
11,0.5341305825859308,0.3964326046407223,,,,0.0005,0.0005
12,0.2684740899130702,0.22052143141627312,,,,0.0005,0.0005
13,0.17123132571578026,0.19661084190011024,,,,0.0005,0.0005
14,0.15847815945744514,0.19847530126571655,,,,0.0005,0.0005
15,0.15678939083591104,0.19878818094730377,,,,0.0005,0.0005
16,0.15564833022654057,0.19381114467978477,,,,0.0005,0.0005
17,0.15170128247700632,0.19240324944257736,,,,0.0005,0.0005
18,0.1488010105676949,0.18841606751084328,,,,0.0005,0.0005
19,0.14810591749846935,0.18658404424786568,,,,0.0005,0.0005
20,0.14831638429313898,0.18650305643677711,,,,0.0005,0.0005
21,0.1445809155702591,0.19213111698627472,,,,0.0005,0.0005
22,0.14572682790458202,0.19336260855197906,,,,0.0005,0.0005
23,0.14399498514831066,0.1858944483101368,,,,0.0005,0.0005
24,0.14265497284941375,0.18275396153330803,,,,0.0005,0.0005
25,0.14114345842972398,0.1859830655157566,,,,0.0005,0.0005
26,0.1419700849801302,0.18395593389868736,,,,0.0005,0.0005
27,0.14159827516414225,0.18376308493316174,,,,0.0005,0.0005
28,0.14240385685116053,0.18193904124200344,,,,0.0005,0.0005
29,0.1422012262046337,0.18448567762970924,,,,0.0005,0.0005
30,0.14160732878372073,0.17671447433531284,,,,0.0005,0.0005
31,0.14087348361499608,0.18131267093122005,,,,0.0005,0.0005
32,0.13940126588568091,0.1889510080218315,,,,0.0005,0.0005
33,0.141162583604455,0.18237478844821453,,,,0.0005,0.0005
34,0.1396953398361802,0.1774462889879942,,,,0.0005,0.0005
35,0.13587595708668232,0.1738610714673996,,,,0.0005,0.0005
36,0.13355317432433367,0.18645599484443665,,,,0.0005,0.0005
37,0.1361579797230661,0.1772405207157135,,,,0.0005,0.0005
38,0.13877863460220397,0.17899173125624657,,,,0.0005,0.0005
39,0.13438894785940647,0.17358310893177986,,,,0.0005,0.0005
40,0.13411809597164392,0.1734185442328453,,,,0.0005,0.0005
41,0.13346385466866195,0.17392583563923836,,,,0.0005,0.0005
42,0.13386127864941955,0.1735539510846138,,,,0.0005,0.0005
43,0.13071341440081596,0.1766633465886116,,,,0.0005,0.0005
44,0.13400365272536874,0.16844340413808823,,,,0.0005,0.0005
45,0.1345968395471573,0.16957465186715126,,,,0.0005,0.0005
46,0.13191345729865134,0.17132176272571087,,,,0.0005,0.0005
47,0.12817931291647255,0.1699443981051445,,,,0.0005,0.0005
48,0.13410177594050765,0.17695718444883823,,,,0.0005,0.0005
49,0.12711075926199555,0.166584774851799,,,,0.0005,0.0005
50,0.1280308528803289,0.16959984973073006,,,,0.0005,0.0005
51,0.12933476432226598,0.17209573835134506,,,,0.0005,0.0005
52,0.12639808165840805,0.1646834835410118,,,,0.0005,0.0005
53,0.12458405015058815,0.16573120467364788,,,,0.0005,0.0005
54,0.12442858389113098,0.1622924581170082,,,,0.0005,0.0005
55,0.12678322987630963,0.15880385786294937,,,,0.0005,0.0005
56,0.12659565778449178,0.16264772042632103,,,,0.0005,0.0005
57,0.12575628538616002,0.1654021069407463,,,,0.0005,0.0005
58,0.1270784882362932,0.16094127669930458,,,,0.0005,0.0005
59,0.12398955645039678,0.15812036581337452,,,,0.0005,0.0005
60,0.12649577436968684,0.16161465644836426,,,,0.0005,0.0005
61,0.12315608467906713,0.159978698939085,,,,0.0005,0.0005
62,0.12190876249223948,0.1608172133564949,,,,0.0005,0.0005
63,0.12511233263649046,0.1660784687846899,,,,0.0005,0.0005
64,0.12214046251028776,0.16046712454408407,,,,0.0005,0.0005
65,0.11939775128848851,0.1597584318369627,,,,0.0005,0.0005
66,0.11936857388354838,0.16025598160922527,,,,0.0005,0.0005
67,0.12081661657430232,0.16063966788351536,,,,0.0005,0.0005
68,0.11969098658300936,0.1576674673706293,,,,0.0005,0.0005
69,0.12210085755214095,0.16221405193209648,,,,0.0005,0.0005
70,0.11794133624061942,0.15148687828332186,,,,0.0005,0.0005
71,0.1268713427707553,0.15808339789509773,,,,0.0005,0.0005
72,0.12052338663488626,0.162010058760643,,,,0.0005,0.0005
73,0.11935120052658021,0.1598168071359396,,,,0.0005,0.0005
74,0.1186023186892271,0.15492636896669865,,,,0.0005,0.0005
75,0.12042511580511928,0.16048972774297,,,,0.0005,0.0005
76,0.11775203328579664,0.16196436621248722,,,,0.0005,0.0005
77,0.11823032284155488,0.1531998384743929,,,,0.0005,0.0005
78,0.11935379356145859,0.15641647763550282,,,,0.0005,0.0005
79,0.11641395720653236,0.16061393916606903,,,,0.0005,0.0005
80,0.11790487263351679,0.15407591871917248,,,,0.0005,0.0005
81,0.116542809875682,0.15147116594016552,,,,0.0005,0.0005
82,0.11572393658570945,0.15728831849992275,,,,0.0005,0.0005
83,0.1152102006599307,0.15045653469860554,,,,0.0005,0.0005
84,0.11774199106730521,0.15220585651695728,,,,0.0005,0.0005
85,0.11893360922113061,0.1560201346874237,,,,0.0005,0.0005
86,0.11724545573815703,0.1530701145529747,,,,0.0005,0.0005
87,0.11785774724557996,0.1510694306343794,,,,0.0005,0.0005
88,0.11679596127942204,0.1573335975408554,,,,0.0005,0.0005
89,0.11476656259037554,0.15171690750867128,,,,0.0005,0.0005
90,0.11704406887292862,0.15807303972542286,,,,0.0005,0.0005
91,0.11712528695352376,0.15237140469253063,,,,0.0005,0.0005
92,0.11483244365081191,0.14995580352842808,,,,0.0005,0.0005
93,0.11437295353971422,0.14553125016391277,,,,0.0005,0.0005
94,0.11330981971696019,0.1492476798593998,,,,0.0005,0.0005
95,0.11569664324633777,0.14671297743916512,,,,0.0005,0.0005
96,0.11517944443039596,0.15160320093855262,,,,0.0005,0.0005
97,0.11508755874820054,0.150618402287364,,,,0.0005,0.0005
98,0.11441446002572775,0.14998013712465763,,,,0.0005,0.0005
99,0.11364571517333388,0.1491372548043728,,,,0.0005,0.0005
100,0.11245127057190984,0.14996673166751862,,,,0.0005,0.0005
101,0.11536749172955751,0.14662531297653913,,,,0.0005,0.0005
102,0.11498255794867873,0.15185385197401047,,,,0.0005,0.0005
103,0.11518857697956264,0.15145159140229225,,,,0.0005,0.0005
104,0.11587890959344804,0.15363154746592045,,,,0.00035,0.00035
105,0.11360627505928278,0.1503791119903326,,,,0.00035,0.00035
106,0.11203161557205021,0.14672992937266827,,,,0.00035,0.00035
107,0.11141354846768081,0.14611397869884968,,,,0.00035,0.00035
108,0.1110049698036164,0.14795180223882198,,,,0.00035,0.00035
109,0.10989785206038505,0.15029402822256088,,,,0.00035,0.00035
110,0.1117386216064915,0.1465221494436264,,,,0.00035,0.00035
111,0.1109516229480505,0.1501246402040124,,,,0.00035,0.00035
112,0.11317583778873086,0.14537779614329338,,,,0.00035,0.00035
113,0.1131126694381237,0.1464956346899271,,,,0.00035,0.00035
114,0.1102051418274641,0.1465069931000471,,,,0.00035,0.00035
115,0.11005940637551248,0.14438542071729898,,,,0.00035,0.00035
116,0.10978411440737545,0.14777922444045544,,,,0.00035,0.00035
117,0.11308936425484717,0.14576755929738283,,,,0.00035,0.00035
118,0.10968049173243344,0.1489647552371025,,,,0.00035,0.00035
119,0.11005211272276938,0.14842013642191887,,,,0.00035,0.00035
120,0.1094393057283014,0.1479482650756836,,,,0.00035,0.00035
121,0.11074144532904029,0.14126427471637726,,,,0.00035,0.00035
122,0.11690143193118274,0.14275437407195568,,,,0.00035,0.00035
123,0.10897704085800797,0.14629126992076635,,,,0.00035,0.00035
124,0.11085079796612263,0.1494413958862424,,,,0.00035,0.00035
125,0.11021227366290987,0.1443021334707737,,,,0.00035,0.00035
126,0.11148307239636779,0.1431012600660324,,,,0.00035,0.00035
127,0.11122304410673678,0.1402893364429474,,,,0.00035,0.00035
128,0.1103717084042728,0.1450688410550356,,,,0.00035,0.00035
129,0.11019090423360467,0.145085159689188,,,,0.00035,0.00035
130,0.1081559918820858,0.14274783991277218,,,,0.00035,0.00035
131,0.11309646361041814,0.14203193970024586,,,,0.00035,0.00035
132,0.11196384998038411,0.14193736668676138,,,,0.00035,0.00035
133,0.11174257192760706,0.14555354975163937,,,,0.00035,0.00035
134,0.10871844156645238,0.1467926949262619,,,,0.00035,0.00035
135,0.10764827416278422,0.13952071219682693,,,,0.00035,0.00035
136,0.10939210408832878,0.14514848217368126,,,,0.00035,0.00035
137,0.11115889460779727,0.14448945131152868,,,,0.00035,0.00035
138,0.10826349188573658,0.14087595604360104,,,,0.00035,0.00035
139,0.11029928829520941,0.13871353678405285,,,,0.00035,0.00035
140,0.10913992370478809,0.14129417017102242,,,,0.00035,0.00035
141,0.10919888189528137,0.14025702606886625,,,,0.00035,0.00035
142,0.10779248783364892,0.1439708061516285,,,,0.00035,0.00035
143,0.11008605384267867,0.14465278014540672,,,,0.00035,0.00035
144,0.10753385839052498,0.1458922941237688,,,,0.00035,0.00035
145,0.10878332750871778,0.1403028229251504,,,,0.00035,0.00035
146,0.10985754011198878,0.1448149336501956,,,,0.00035,0.00035
147,0.11033466458320618,0.14232448674738407,,,,0.00035,0.00035
148,0.11300414777360857,0.13669696170836687,,,,0.00035,0.00035
149,0.10804527858272195,0.13845772854983807,,,,0.00035,0.00035
150,0.10708655067719519,0.14150178339332342,,,,0.00035,0.00035
151,0.1096896652597934,0.14188864920288324,,,,0.00035,0.00035
152,0.10499612521380186,0.1446954868733883,,,,0.00035,0.00035
153,0.1102023464627564,0.13765472173690796,,,,0.00035,0.00035
154,0.10925631935242563,0.1418525166809559,,,,0.00035,0.00035
155,0.10780771914869547,0.14030409697443247,,,,0.00035,0.00035
156,0.10986302001401782,0.13892227970063686,,,,0.00035,0.00035
157,0.10883855354040861,0.14688961394131184,,,,0.00035,0.00035
158,0.10634685005061328,0.1387957762926817,,,,0.00035,0.00035
159,0.10762427619192749,0.14024202805012465,,,,0.000245,0.000245
160,0.10570372641086578,0.1390203069895506,,,,0.000245,0.000245
161,0.10939097218215466,0.1434804806485772,,,,0.000245,0.000245
162,0.10744396084919572,0.14766952581703663,,,,0.000245,0.000245
163,0.1072968386579305,0.13874597288668156,,,,0.000245,0.000245
164,0.10553633444942534,0.13856629841029644,,,,0.000245,0.000245
165,0.10752371209673584,0.14085109531879425,,,,0.000245,0.000245
166,0.1090397514635697,0.13575837668031454,,,,0.000245,0.000245
167,0.10726541327312589,0.13894596323370934,,,,0.000245,0.000245
168,0.10725378431379795,0.14004057459533215,,,,0.000245,0.000245
169,0.10598693857900798,0.1399308182299137,,,,0.000245,0.000245
170,0.10458918521180749,0.13833501748740673,,,,0.000245,0.000245
171,0.10735404537990689,0.14319785125553608,,,,0.000245,0.000245
172,0.10770542081445456,0.14340723399072886,,,,0.000245,0.000245
173,0.10650911834090948,0.14075523801147938,,,,0.000245,0.000245
174,0.10551083693280816,0.1370860729366541,,,,0.000245,0.000245
175,0.10698562627658248,0.143338143825531,,,,0.000245,0.000245
176,0.10606398666277528,0.13985075987875462,,,,0.000245,0.000245
177,0.10659167636185884,0.14151201210916042,,,,0.0001715,0.0001715
178,0.10536812571808696,0.14009189419448376,,,,0.0001715,0.0001715
179,0.10657251428347081,0.13633564300835133,,,,0.0001715,0.0001715
180,0.10622561990749091,0.13472380116581917,,,,0.0001715,0.0001715
181,0.10708106262609363,0.1370429638773203,,,,0.0001715,0.0001715
182,0.10700135980732739,0.14625724963843822,,,,0.0001715,0.0001715
183,0.10496471787337214,0.13804713357239962,,,,0.0001715,0.0001715
184,0.10537189221940935,0.13652815204113722,,,,0.0001715,0.0001715
185,0.10711262933909893,0.1403566412627697,,,,0.0001715,0.0001715
186,0.10764842433854938,0.13495149090886116,,,,0.0001715,0.0001715
187,0.10494003025814891,0.13698656298220158,,,,0.0001715,0.0001715
188,0.10708152817096561,0.13909606728702784,,,,0.0001715,0.0001715
189,0.10695027955807745,0.13889529649168253,,,,0.0001715,0.0001715
190,0.10789074702188373,0.1374244373291731,,,,0.0001715,0.0001715
191,0.104527881834656,0.14054417051374912,,,,0.00012004999999999999,0.00012004999999999999
192,0.10511703207157552,0.13288983330130577,,,,0.00012004999999999999,0.00012004999999999999
193,0.10673943161964417,0.134806415066123,,,,0.00012004999999999999,0.00012004999999999999
194,0.10402494529262185,0.1417610151693225,,,,0.00012004999999999999,0.00012004999999999999
195,0.10655374242924154,0.13779051415622234,,,,0.00012004999999999999,0.00012004999999999999
196,0.10637602815404534,0.14009291492402554,,,,0.00012004999999999999,0.00012004999999999999
197,0.10570418392308056,0.13929238077253103,,,,0.00012004999999999999,0.00012004999999999999
198,0.10548043111339211,0.13504095748066902,,,,0.00012004999999999999,0.00012004999999999999
199,0.10588030493818223,0.1359115857630968,,,,0.00012004999999999999,0.00012004999999999999
200,0.10456503764726222,0.13481740094721317,,,,0.00012004999999999999,0.00012004999999999999
201,0.10647249419707805,0.1360995788127184,,,,0.00012004999999999999,0.00012004999999999999
202,0.10792466171551496,0.13706330209970474,,,,0.00012004999999999999,0.00012004999999999999
203,0.10598268220201135,0.13704604282975197,,,,8.403499999999999e-05,8.403499999999999e-05
204,0.1073170593008399,0.13860232010483742,,,,8.403499999999999e-05,8.403499999999999e-05
205,0.10724612302146852,0.13790767826139927,,,,8.403499999999999e-05,8.403499999999999e-05
206,0.10425435460638255,0.13985731918364763,,,,8.403499999999999e-05,8.403499999999999e-05
207,0.1064409005921334,0.13571989443153143,,,,8.403499999999999e-05,8.403499999999999e-05
208,0.10488035646267235,0.14067910984158516,,,,8.403499999999999e-05,8.403499999999999e-05
209,0.10745688865426928,0.1350974291563034,,,,8.403499999999999e-05,8.403499999999999e-05
210,0.10994443146046251,0.14049716107547283,,,,8.403499999999999e-05,8.403499999999999e-05
211,0.10539182252250612,0.13566502928733826,,,,8.403499999999999e-05,8.403499999999999e-05
212,0.10690219991374761,0.1398783978074789,,,,8.403499999999999e-05,8.403499999999999e-05
213,0.10687149805016816,0.1350809670984745,,,,8.403499999999999e-05,8.403499999999999e-05
214,0.10674897336866707,0.1335689378902316,,,,5.882449999999999e-05,5.882449999999999e-05
215,0.10866463417187333,0.13816289976239204,,,,5.882449999999999e-05,5.882449999999999e-05
216,0.10759500518906862,0.1381150484085083,,,,5.882449999999999e-05,5.882449999999999e-05
217,0.10820202936884016,0.1339953662827611,,,,5.882449999999999e-05,5.882449999999999e-05
218,0.10666255420073867,0.13800530321896076,,,,5.882449999999999e-05,5.882449999999999e-05
219,0.10547592490911484,0.13576174713671207,,,,5.882449999999999e-05,5.882449999999999e-05
220,0.1069410921772942,0.13687005266547203,,,,5.882449999999999e-05,5.882449999999999e-05
221,0.1068591243820265,0.13810326531529427,,,,5.882449999999999e-05,5.882449999999999e-05
222,0.10552834742702544,0.13521786220371723,,,,5.882449999999999e-05,5.882449999999999e-05
223,0.10638166393619031,0.1336053814738989,,,,5.882449999999999e-05,5.882449999999999e-05
224,0.10578559804707766,0.1352605689316988,,,,5.882449999999999e-05,5.882449999999999e-05
225,0.1086634355597198,0.13396873138844967,,,,4.117714999999999e-05,4.117714999999999e-05
226,0.10476090433076024,0.1371417073532939,,,,4.117714999999999e-05,4.117714999999999e-05
227,0.10693097929470241,0.13880908861756325,,,,4.117714999999999e-05,4.117714999999999e-05
228,0.10821436368860304,0.14251839742064476,,,,4.117714999999999e-05,4.117714999999999e-05
229,0.10599529277533293,0.13501937873661518,,,,4.117714999999999e-05,4.117714999999999e-05
230,0.10707616689614952,0.13730066642165184,,,,4.117714999999999e-05,4.117714999999999e-05
231,0.10431418637745082,0.1330271828919649,,,,4.117714999999999e-05,4.117714999999999e-05
232,0.1048094853758812,0.13330641761422157,,,,4.117714999999999e-05,4.117714999999999e-05
233,0.107693140511401,0.13862592168152332,,,,4.117714999999999e-05,4.117714999999999e-05
234,0.10513515584170818,0.1353579629212618,,,,4.117714999999999e-05,4.117714999999999e-05
235,0.10828050295822322,0.14004453644156456,,,,4.117714999999999e-05,4.117714999999999e-05
236,0.10594655014574528,0.1348226461559534,,,,2.8824004999999994e-05,2.8824004999999994e-05
237,0.10589540796354413,0.13890450354665518,,,,2.8824004999999994e-05,2.8824004999999994e-05
238,0.10592766001354903,0.1395566500723362,,,,2.8824004999999994e-05,2.8824004999999994e-05
239,0.1065547342877835,0.13520481623709202,,,,2.8824004999999994e-05,2.8824004999999994e-05
240,0.10485524754039943,0.13824486546218395,,,,2.8824004999999994e-05,2.8824004999999994e-05
241,0.10531178175006062,0.1324060228653252,,,,2.8824004999999994e-05,2.8824004999999994e-05
242,0.10630170139484107,0.13931464403867722,,,,2.8824004999999994e-05,2.8824004999999994e-05
243,0.10625617078039795,0.13758782390505075,,,,2.8824004999999994e-05,2.8824004999999994e-05
244,0.10706257726997137,0.13492292165756226,,,,2.8824004999999994e-05,2.8824004999999994e-05
245,0.10599632072262466,0.13079087529331446,,,,2.8824004999999994e-05,2.8824004999999994e-05
246,0.1053858723025769,0.137766825966537,,,,2.8824004999999994e-05,2.8824004999999994e-05
247,0.10828208760358393,0.13713675737380981,,,,2.8824004999999994e-05,2.8824004999999994e-05
248,0.1060876976698637,0.1318776849657297,,,,2.8824004999999994e-05,2.8824004999999994e-05
249,0.10584695124998689,0.13627649191766977,,,,2.8824004999999994e-05,2.8824004999999994e-05
250,0.10435959487222135,0.13911509979516268,,,,2.8824004999999994e-05,2.8824004999999994e-05
251,0.10988009860739112,0.14044566452503204,,,,2.8824004999999994e-05,2.8824004999999994e-05
252,0.10371249599847943,0.13550211489200592,,,,2.8824004999999994e-05,2.8824004999999994e-05
253,0.10487832815852016,0.13949134200811386,,,,2.8824004999999994e-05,2.8824004999999994e-05
254,0.10519099398516119,0.13736285641789436,,,,2.8824004999999994e-05,2.8824004999999994e-05
255,0.10557417839299887,0.13435533922165632,,,,2.8824004999999994e-05,2.8824004999999994e-05
256,0.10295020020566881,0.1347787920385599,,,,2.0176803499999996e-05,2.0176803499999996e-05
257,0.10634579276666045,0.13956522569060326,,,,2.0176803499999996e-05,2.0176803499999996e-05
258,0.1057424817699939,0.13779315166175365,,,,2.0176803499999996e-05,2.0176803499999996e-05
259,0.10395648598205298,0.13709624763578176,,,,2.0176803499999996e-05,2.0176803499999996e-05
260,0.10603064473252743,0.1365748532116413,,,,2.0176803499999996e-05,2.0176803499999996e-05
261,0.10894059995189309,0.1406067255884409,,,,2.0176803499999996e-05,2.0176803499999996e-05
262,0.10525937913917005,0.13939168862998486,,,,2.0176803499999996e-05,2.0176803499999996e-05
263,0.10575531981885433,0.138762635178864,,,,2.0176803499999996e-05,2.0176803499999996e-05
264,0.10698736389167607,0.1375754326581955,,,,2.0176803499999996e-05,2.0176803499999996e-05
265,0.10600177058950067,0.13783154636621475,,,,2.0176803499999996e-05,2.0176803499999996e-05
266,0.10638992511667311,0.137033823877573,,,,2.0176803499999996e-05,2.0176803499999996e-05
267,0.10517501016147435,0.1373317986726761,,,,1.4123762449999997e-05,1.4123762449999997e-05
268,0.10792479943484068,0.13586205057799816,,,,1.4123762449999997e-05,1.4123762449999997e-05
269,0.10378620773553848,0.1332487314939499,,,,1.4123762449999997e-05,1.4123762449999997e-05
270,0.1075856143143028,0.1296805515885353,,,,1.4123762449999997e-05,1.4123762449999997e-05
271,0.10402337263803929,0.1416322933509946,,,,1.4123762449999997e-05,1.4123762449999997e-05
272,0.1066372140776366,0.13618746399879456,,,,1.4123762449999997e-05,1.4123762449999997e-05
273,0.10442722542211413,0.1377210607752204,,,,1.4123762449999997e-05,1.4123762449999997e-05
274,0.10585018491838127,0.13660833984613419,,,,1.4123762449999997e-05,1.4123762449999997e-05
275,0.10574324219487607,0.14415284804999828,,,,1.4123762449999997e-05,1.4123762449999997e-05
276,0.10899699619039893,0.1368999406695366,,,,1.4123762449999997e-05,1.4123762449999997e-05
277,0.10564925684593618,0.1409637201577425,,,,1.4123762449999997e-05,1.4123762449999997e-05
278,0.10456692485604435,0.13574188947677612,,,,1.4123762449999997e-05,1.4123762449999997e-05
279,0.10764917323831469,0.1373402662575245,,,,1.4123762449999997e-05,1.4123762449999997e-05
280,0.10601164563558996,0.13410809449851513,,,,1.4123762449999997e-05,1.4123762449999997e-05
281,0.10559888917487115,0.1369648613035679,,,,9.886633714999997e-06,9.886633714999997e-06
282,0.10680676123593003,0.13701766915619373,,,,9.886633714999997e-06,9.886633714999997e-06
283,0.1065731206908822,0.13850926514714956,,,,9.886633714999997e-06,9.886633714999997e-06
284,0.10540535114705563,0.13737986702471972,,,,9.886633714999997e-06,9.886633714999997e-06
285,0.10347528464626521,0.13790656626224518,,,,9.886633714999997e-06,9.886633714999997e-06
286,0.10623208875767887,0.1389498021453619,,,,9.886633714999997e-06,9.886633714999997e-06
287,0.10753367724828422,0.13798236101865768,,,,9.886633714999997e-06,9.886633714999997e-06
288,0.10482563788536936,0.14445051923394203,,,,9.886633714999997e-06,9.886633714999997e-06
289,0.10771228023804724,0.13234014436602592,,,,9.886633714999997e-06,9.886633714999997e-06
290,0.10738219146151096,0.13570229802280664,,,,9.886633714999997e-06,9.886633714999997e-06
291,0.10730717179831117,0.1432043770328164,,,,9.886633714999997e-06,9.886633714999997e-06
292,0.10900344094261527,0.1353820003569126,,,,6.920643600499998e-06,6.920643600499998e-06
293,0.10665923450142145,0.13459430076181889,,,,6.920643600499998e-06,6.920643600499998e-06
294,0.1053416954819113,0.13667235150933266,,,,6.920643600499998e-06,6.920643600499998e-06
295,0.10755898687057197,0.13582608848810196,,,,6.920643600499998e-06,6.920643600499998e-06
296,0.10576337669044733,0.13600429892539978,,,,6.920643600499998e-06,6.920643600499998e-06
297,0.10482014389708638,0.13555010966956615,,,,6.920643600499998e-06,6.920643600499998e-06
298,0.10630641272291541,0.14122856594622135,,,,6.920643600499998e-06,6.920643600499998e-06
299,0.10651291836984456,0.1366558074951172,,,,6.920643600499998e-06,6.920643600499998e-06
