epoch,train_loss,eval_loss,f1_score,precision,recall,lr,adam_lr
0,2.476179912686348,2.470579445362091,,,,0.0005,0.0005
1,2.420935496687889,2.4099618196487427,,,,0.0005,0.0005
2,2.364123657345772,2.360051155090332,,,,0.0005,0.0005
3,2.30728080868721,2.304841101169586,,,,0.0005,0.0005
4,2.2529747784137726,2.2527450919151306,,,,0.0005,0.0005
5,2.2035551220178604,2.1914255619049072,,,,0.0005,0.0005
6,2.14689814299345,2.1326188445091248,,,,0.0005,0.0005
7,2.084026239812374,2.0720930993556976,,,,0.0005,0.0005
8,2.0109115540981293,1.9901436269283295,,,,0.0005,0.0005
9,1.925743207335472,1.8943331837654114,,,,0.0005,0.0005
10,1.8246502429246902,1.7895249426364899,,,,0.0005,0.0005
11,1.7115971222519875,1.6565029323101044,,,,0.0005,0.0005
12,1.5545791983604431,1.48379647731781,,,,0.0005,0.0005
13,1.3744120448827744,1.2761885821819305,,,,0.0005,0.0005
14,1.1548668071627617,1.0425717681646347,,,,0.0005,0.0005
15,0.8916470594704151,0.7449321448802948,,,,0.0005,0.0005
16,0.5797126526013017,0.4181894138455391,,,,0.0005,0.0005
17,0.29760087421163917,0.21996766328811646,,,,0.0005,0.0005
18,0.20542288199067116,0.1946163959801197,,,,0.0005,0.0005
19,0.1963202846236527,0.19481691718101501,,,,0.0005,0.0005
20,0.1963739818893373,0.1924300342798233,,,,0.0005,0.0005
21,0.19632304226979613,0.1923156939446926,,,,0.0005,0.0005
22,0.19186075823381543,0.19192048534750938,,,,0.0005,0.0005
23,0.1899864301085472,0.1933557167649269,,,,0.0005,0.0005
24,0.19432746013626456,0.19129447638988495,,,,0.0005,0.0005
25,0.19895981904119253,0.186809491366148,,,,0.0005,0.0005
26,0.19039363879710436,0.19009015336632729,,,,0.0005,0.0005
27,0.19066384341567755,0.1880614422261715,,,,0.0005,0.0005
28,0.1911689811386168,0.18679039180278778,,,,0.0005,0.0005
29,0.18678825022652745,0.19077619165182114,,,,0.0005,0.0005
30,0.18705140613019466,0.18940855003893375,,,,0.0005,0.0005
31,0.19146609073504806,0.1826312206685543,,,,0.0005,0.0005
32,0.18979334319010377,0.18470221012830734,,,,0.0005,0.0005
33,0.18505413411185145,0.1843164972960949,,,,0.0005,0.0005
34,0.18760007759556174,0.18005850166082382,,,,0.0005,0.0005
35,0.18629232561215758,0.18147794529795647,,,,0.0005,0.0005
36,0.1862144279293716,0.182615390047431,,,,0.0005,0.0005
37,0.18364039855077863,0.18124564364552498,,,,0.0005,0.0005
38,0.18358360137790442,0.17881417274475098,,,,0.0005,0.0005
39,0.18593833083286881,0.1783745251595974,,,,0.0005,0.0005
40,0.18205425748601556,0.18098266422748566,,,,0.0005,0.0005
41,0.18164453306235373,0.17633509635925293,,,,0.0005,0.0005
42,0.1827267580665648,0.1756710670888424,,,,0.0005,0.0005
43,0.18073192983865738,0.17287187837064266,,,,0.0005,0.0005
44,0.1779633373953402,0.17216327600181103,,,,0.0005,0.0005
45,0.17418092861771584,0.16856427490711212,,,,0.0005,0.0005
46,0.17176632210612297,0.1674126274883747,,,,0.0005,0.0005
47,0.17145420238375664,0.1620214357972145,,,,0.0005,0.0005
48,0.16927098343148828,0.16371768712997437,,,,0.0005,0.0005
49,0.16546697448939085,0.16134131141006947,,,,0.0005,0.0005
50,0.16629532352089882,0.1567747201770544,,,,0.0005,0.0005
51,0.1647878186777234,0.1604535523802042,,,,0.0005,0.0005
52,0.16476463829167187,0.15465687401592731,,,,0.0005,0.0005
53,0.16582034528255463,0.1525394171476364,,,,0.0005,0.0005
54,0.16600521467626095,0.15284774638712406,,,,0.0005,0.0005
55,0.163685604929924,0.1511586308479309,,,,0.0005,0.0005
56,0.16571706254035234,0.1544773057103157,,,,0.0005,0.0005
57,0.1602335968054831,0.15060358680784702,,,,0.0005,0.0005
58,0.16155872447416186,0.14934483915567398,,,,0.0005,0.0005
59,0.16148736234754324,0.15492333844304085,,,,0.0005,0.0005
60,0.15885771391913295,0.1492518037557602,,,,0.0005,0.0005
61,0.15803314838558435,0.14714000932872295,,,,0.0005,0.0005
62,0.15634983545169234,0.14544947631657124,,,,0.0005,0.0005
63,0.15774441650137305,0.14744738303124905,,,,0.0005,0.0005
64,0.1617502043955028,0.14480672031641006,,,,0.0005,0.0005
65,0.1606543487869203,0.1449454464018345,,,,0.0005,0.0005
66,0.1573414341546595,0.14274856261909008,,,,0.0005,0.0005
67,0.15587484370917082,0.14086157269775867,,,,0.0005,0.0005
68,0.15446523763239384,0.14026477746665478,,,,0.0005,0.0005
69,0.15275044506415725,0.1469034757465124,,,,0.0005,0.0005
70,0.15209552343003452,0.1415242739021778,,,,0.0005,0.0005
71,0.15549503220245242,0.14052505604922771,,,,0.0005,0.0005
72,0.1584570468403399,0.13995595462620258,,,,0.0005,0.0005
73,0.15188532741740346,0.13809950090944767,,,,0.0005,0.0005
74,0.15151989227160811,0.13789627887308598,,,,0.0005,0.0005
75,0.15463770111091435,0.13762712106108665,,,,0.0005,0.0005
76,0.14977406128309667,0.14482192881405354,,,,0.0005,0.0005
77,0.15094622084870934,0.1352942567318678,,,,0.0005,0.0005
78,0.15513965231366456,0.13915315456688404,,,,0.0005,0.0005
79,0.15014069457538426,0.13734952546656132,,,,0.0005,0.0005
80,0.1491393451578915,0.1344293560832739,,,,0.0005,0.0005
81,0.15167278377339244,0.1344188190996647,,,,0.0005,0.0005
82,0.15243324870243669,0.13554217852652073,,,,0.0005,0.0005
83,0.14716308610513806,0.1348527893424034,,,,0.0005,0.0005
84,0.1513086543418467,0.13454808108508587,,,,0.0005,0.0005
85,0.1506033765617758,0.13108027540147305,,,,0.0005,0.0005
86,0.1485974327661097,0.13089451752603054,,,,0.0005,0.0005
87,0.14870746177621186,0.13092020526528358,,,,0.0005,0.0005
88,0.14815246779471636,0.1303291842341423,,,,0.0005,0.0005
89,0.14622032246552408,0.13214039988815784,,,,0.0005,0.0005
90,0.1482459099497646,0.12980524636805058,,,,0.0005,0.0005
91,0.14935920014977455,0.1297054272145033,,,,0.0005,0.0005
92,0.14845153549686074,0.1278152335435152,,,,0.0005,0.0005
93,0.14685221551917493,0.13076206296682358,,,,0.0005,0.0005
94,0.14284225087612867,0.1304290909320116,,,,0.0005,0.0005
95,0.14436900755390525,0.12904026918113232,,,,0.0005,0.0005
96,0.1445619014557451,0.12834428623318672,,,,0.0005,0.0005
97,0.147903025848791,0.12518377229571342,,,,0.0005,0.0005
98,0.14644264755770564,0.12646388448774815,,,,0.0005,0.0005
99,0.14575958787463605,0.12633355893194675,,,,0.0005,0.0005
100,0.14302406599745154,0.12660916335880756,,,,0.0005,0.0005
101,0.1426981866825372,0.1315695084631443,,,,0.0005,0.0005
102,0.14094622200354934,0.12754091061651707,,,,0.0005,0.0005
103,0.139693382428959,0.12014689669013023,,,,0.0005,0.0005
104,0.1417011229787022,0.12191442213952541,,,,0.0005,0.0005
105,0.14225681126117706,0.1206457894295454,,,,0.0005,0.0005
106,0.1410723547451198,0.12057184427976608,,,,0.0005,0.0005
107,0.14170384407043457,0.1189813893288374,,,,0.0005,0.0005
108,0.1410200281534344,0.11860819719731808,,,,0.0005,0.0005
109,0.13903028122149408,0.11962303705513477,,,,0.0005,0.0005
110,0.1399427109863609,0.11685315147042274,,,,0.0005,0.0005
111,0.13948061736300588,0.11997461691498756,,,,0.0005,0.0005
112,0.14148555020801723,0.11682416126132011,,,,0.0005,0.0005
113,0.13625252258498222,0.12041515484452248,,,,0.0005,0.0005
114,0.13660542108118534,0.11622660607099533,,,,0.0005,0.0005
115,0.13492415891960263,0.11558418348431587,,,,0.0005,0.0005
116,0.13631335692480206,0.11246665753424168,,,,0.0005,0.0005
117,0.13574555306695402,0.1112616527825594,,,,0.0005,0.0005
118,0.13329472625628114,0.1134672500193119,,,,0.0005,0.0005
119,0.1323216923046857,0.11557475663721561,,,,0.0005,0.0005
120,0.137375422520563,0.11342387832701206,,,,0.0005,0.0005
121,0.1420832215808332,0.11374517902731895,,,,0.0005,0.0005
122,0.13383136200718582,0.11360825039446354,,,,0.0005,0.0005
123,0.13160867406986654,0.11051975004374981,,,,0.0005,0.0005
124,0.1306702436413616,0.11482229735702276,,,,0.0005,0.0005
125,0.1297159323003143,0.11112061329185963,,,,0.0005,0.0005
126,0.13389052380807698,0.10951481852680445,,,,0.0005,0.0005
127,0.12892885087057948,0.10527845285832882,,,,0.0005,0.0005
128,0.13160487124696374,0.1084408788010478,,,,0.0005,0.0005
129,0.1336695826612413,0.10522574465721846,,,,0.0005,0.0005
130,0.12960409675724804,0.10349031258374453,,,,0.0005,0.0005
131,0.12928402912802994,0.10233881883323193,,,,0.0005,0.0005
132,0.1303613588679582,0.10560048557817936,,,,0.0005,0.0005
133,0.12843686644919217,0.1038555447012186,,,,0.0005,0.0005
134,0.13365091616287827,0.10033100098371506,,,,0.0005,0.0005
135,0.1274092469830066,0.10269451793283224,,,,0.0005,0.0005
136,0.13284765928983688,0.10049204342067242,,,,0.0005,0.0005
137,0.12761991121806204,0.10468972660601139,,,,0.0005,0.0005
138,0.1285276471171528,0.09949350357055664,,,,0.0005,0.0005
139,0.12270479963626713,0.10021758917719126,,,,0.0005,0.0005
140,0.12742048897780478,0.0978812426328659,,,,0.0005,0.0005
141,0.12874713470228016,0.10095302574336529,,,,0.0005,0.0005
142,0.12366982398089021,0.10978532209992409,,,,0.0005,0.0005
143,0.1255785650573671,0.10086303111165762,,,,0.0005,0.0005
144,0.12709343794267625,0.1216023899614811,,,,0.0005,0.0005
145,0.13216752209700644,0.10315916407853365,,,,0.0005,0.0005
146,0.12278732052072883,0.09635696560144424,,,,0.0005,0.0005
147,0.12167636980302632,0.09716406837105751,,,,0.0005,0.0005
148,0.12261729966849089,0.10325389355421066,,,,0.0005,0.0005
149,0.12681456934660673,0.09701026603579521,,,,0.0005,0.0005
150,0.12402147671673447,0.09523214027285576,,,,0.0005,0.0005
151,0.1215371279977262,0.09697645902633667,,,,0.0005,0.0005
152,0.12022989825345576,0.09803225286304951,,,,0.0005,0.0005
153,0.11985022877342999,0.09720652177929878,,,,0.0005,0.0005
154,0.12200963229406625,0.0940075982362032,,,,0.0005,0.0005
155,0.11684533604420722,0.09675688669085503,,,,0.0005,0.0005
156,0.12344804056920111,0.10015872679650784,,,,0.0005,0.0005
157,0.11898251052480191,0.09814158454537392,,,,0.0005,0.0005
158,0.1208107874263078,0.0923066446557641,,,,0.0005,0.0005
159,0.12406582338735461,0.09309320338070393,,,,0.0005,0.0005
160,0.1208003219217062,0.09301330149173737,,,,0.0005,0.0005
161,0.11828340380452573,0.09351841267198324,,,,0.0005,0.0005
162,0.11970047827344388,0.10009161103516817,,,,0.0005,0.0005
163,0.11801597301382571,0.09230998903512955,,,,0.0005,0.0005
164,0.12003458174876869,0.09205976407974958,,,,0.0005,0.0005
165,0.11980127030983567,0.09871634840965271,,,,0.0005,0.0005
166,0.1211141417734325,0.0924463989213109,,,,0.0005,0.0005
167,0.12377441243734211,0.09433102607727051,,,,0.0005,0.0005
168,0.11917492956854403,0.08900316618382931,,,,0.0005,0.0005
169,0.12008117022924125,0.09323717001825571,,,,0.0005,0.0005
170,0.11723142233677208,0.09345745202153921,,,,0.0005,0.0005
171,0.12042916635982692,0.094798618927598,,,,0.0005,0.0005
172,0.12038290197961032,0.09311484079807997,,,,0.0005,0.0005
173,0.11932290717959404,0.0928264781832695,,,,0.0005,0.0005
174,0.11850799154490232,0.09259869903326035,,,,0.0005,0.0005
175,0.11913045216351748,0.09159761480987072,,,,0.0005,0.0005
176,0.11937191314063966,0.0947957281023264,,,,0.0005,0.0005
177,0.11642755498178303,0.0907070990651846,,,,0.0005,0.0005
178,0.11738599697127938,0.09119731560349464,,,,0.0005,0.0005
179,0.11919567780569196,0.09288916969671845,,,,0.00035,0.00035
180,0.11794428655412048,0.09158489294350147,,,,0.00035,0.00035
181,0.11423687252681702,0.09514782764017582,,,,0.00035,0.00035
182,0.11923421896062791,0.0886845150962472,,,,0.00035,0.00035
183,0.11663380195386708,0.08977136854082346,,,,0.00035,0.00035
184,0.11916145333088934,0.09374160133302212,,,,0.00035,0.00035
185,0.11629716807510704,0.09100781194865704,,,,0.00035,0.00035
186,0.11989888898096979,0.0899837464094162,,,,0.00035,0.00035
187,0.11741856578737497,0.09288506302982569,,,,0.00035,0.00035
188,0.11977774673141539,0.09154995623975992,,,,0.00035,0.00035
189,0.11691947269719094,0.09476480726152658,,,,0.00035,0.00035
190,0.1160261892946437,0.09060090407729149,,,,0.00035,0.00035
191,0.11865293676964939,0.09017365053296089,,,,0.00035,0.00035
192,0.11946492292918265,0.09959033876657486,,,,0.00035,0.00035
193,0.11786916211713105,0.09021015651524067,,,,0.000245,0.000245
194,0.1172829729039222,0.09065867587924004,,,,0.000245,0.000245
195,0.11924172518774867,0.09109284356236458,,,,0.000245,0.000245
196,0.11552979738917202,0.08977402560412884,,,,0.000245,0.000245
197,0.11551921837963164,0.09042977634817362,,,,0.000245,0.000245
198,0.11647644673939794,0.0918624633923173,,,,0.000245,0.000245
199,0.1153564810520038,0.09223252721130848,,,,0.000245,0.000245
200,0.11622554739005864,0.09257200453430414,,,,0.000245,0.000245
201,0.1173363421112299,0.08882010914385319,,,,0.000245,0.000245
202,0.1145220174221322,0.09115790016949177,,,,0.000245,0.000245
203,0.11457121768034995,0.09315224457532167,,,,0.000245,0.000245
204,0.11726170056499541,0.09270265512168407,,,,0.0001715,0.0001715
205,0.11562916985712945,0.08968999423086643,,,,0.0001715,0.0001715
206,0.11609187070280313,0.08843283168971539,,,,0.0001715,0.0001715
207,0.11755778128281236,0.0886835902929306,,,,0.0001715,0.0001715
208,0.11427555652335286,0.08965873718261719,,,,0.0001715,0.0001715
209,0.1141763178166002,0.08790769521147013,,,,0.0001715,0.0001715
210,0.11612250923644751,0.08962507266551256,,,,0.0001715,0.0001715
211,0.11706725927069783,0.09107202244922519,,,,0.0001715,0.0001715
212,0.11557008605450392,0.0901282662525773,,,,0.0001715,0.0001715
213,0.1154481575358659,0.08984017185866833,,,,0.0001715,0.0001715
214,0.11820892314426601,0.09185507148504257,,,,0.0001715,0.0001715
215,0.11719533335417509,0.08875207044184208,,,,0.0001715,0.0001715
216,0.11895228060893714,0.09106338210403919,,,,0.0001715,0.0001715
217,0.118811737280339,0.08802670799195766,,,,0.0001715,0.0001715
218,0.11653682379983366,0.08892660588026047,,,,0.0001715,0.0001715
219,0.11650568176992238,0.09104609210044146,,,,0.0001715,0.0001715
220,0.11682757479138672,0.08879663422703743,,,,0.00012004999999999999,0.00012004999999999999
221,0.11713295872323215,0.09098498802632093,,,,0.00012004999999999999,0.00012004999999999999
222,0.11697937175631523,0.09196889027953148,,,,0.00012004999999999999,0.00012004999999999999
223,0.11997009860351682,0.09089947864413261,,,,0.00012004999999999999,0.00012004999999999999
224,0.11596110335085541,0.09048526082187891,,,,0.00012004999999999999,0.00012004999999999999
225,0.11888645018916577,0.0889797043055296,,,,0.00012004999999999999,0.00012004999999999999
226,0.11891115293838084,0.08983611315488815,,,,0.00012004999999999999,0.00012004999999999999
227,0.11891666462179273,0.08904264494776726,,,,0.00012004999999999999,0.00012004999999999999
228,0.11802990292198956,0.09310644771903753,,,,0.00012004999999999999,0.00012004999999999999
229,0.12244135153014213,0.08902412373572588,,,,0.00012004999999999999,0.00012004999999999999
230,0.11595923232380301,0.08864732831716537,,,,0.00012004999999999999,0.00012004999999999999
231,0.11387558397836983,0.08930976875126362,,,,8.403499999999999e-05,8.403499999999999e-05
232,0.11554484302178025,0.0907918456941843,,,,8.403499999999999e-05,8.403499999999999e-05
233,0.1141876857727766,0.09135274402797222,,,,8.403499999999999e-05,8.403499999999999e-05
234,0.11557476711459458,0.08799671567976475,,,,8.403499999999999e-05,8.403499999999999e-05
235,0.11776453210040927,0.08834566455334425,,,,8.403499999999999e-05,8.403499999999999e-05
236,0.11507029505446553,0.09005890414118767,,,,8.403499999999999e-05,8.403499999999999e-05
237,0.11898023751564324,0.08757917303591967,,,,8.403499999999999e-05,8.403499999999999e-05
238,0.11566210212185979,0.08874349016696215,,,,8.403499999999999e-05,8.403499999999999e-05
239,0.11536121740937233,0.09135077148675919,,,,8.403499999999999e-05,8.403499999999999e-05
240,0.11524742771871388,0.09137058723717928,,,,8.403499999999999e-05,8.403499999999999e-05
241,0.11429248959757388,0.08991679642349482,,,,8.403499999999999e-05,8.403499999999999e-05
242,0.11629758216440678,0.08943007700145245,,,,8.403499999999999e-05,8.403499999999999e-05
243,0.11613852041773498,0.08956406824290752,,,,8.403499999999999e-05,8.403499999999999e-05
244,0.1186486545484513,0.08911492954939604,,,,8.403499999999999e-05,8.403499999999999e-05
245,0.11607129289768636,0.08877805713564157,,,,8.403499999999999e-05,8.403499999999999e-05
246,0.11740479036234319,0.08934143465012312,,,,8.403499999999999e-05,8.403499999999999e-05
247,0.11586694524157792,0.09071929287165403,,,,8.403499999999999e-05,8.403499999999999e-05
248,0.11511618178337812,0.09154066815972328,,,,5.882449999999999e-05,5.882449999999999e-05
249,0.11810031393542886,0.08779526315629482,,,,5.882449999999999e-05,5.882449999999999e-05
250,0.11574665433727205,0.08848329167813063,,,,5.882449999999999e-05,5.882449999999999e-05
251,0.11591490637511015,0.09083056729286909,,,,5.882449999999999e-05,5.882449999999999e-05
252,0.11881939717568457,0.08926964458078146,,,,5.882449999999999e-05,5.882449999999999e-05
253,0.11695998825598508,0.08861692249774933,,,,5.882449999999999e-05,5.882449999999999e-05
254,0.11727461218833923,0.0895941574126482,,,,5.882449999999999e-05,5.882449999999999e-05
255,0.11792767746374011,0.09079983551055193,,,,5.882449999999999e-05,5.882449999999999e-05
256,0.11647155624814332,0.0898640500381589,,,,5.882449999999999e-05,5.882449999999999e-05
257,0.11927428527269512,0.08865533024072647,,,,5.882449999999999e-05,5.882449999999999e-05
258,0.11391469929367304,0.08988271094858646,,,,5.882449999999999e-05,5.882449999999999e-05
259,0.11516177607700229,0.0893834475427866,,,,4.117714999999999e-05,4.117714999999999e-05
260,0.11445590865332633,0.08831504173576832,,,,4.117714999999999e-05,4.117714999999999e-05
261,0.11373822262976319,0.08818194177001715,,,,4.117714999999999e-05,4.117714999999999e-05
262,0.11560593103058636,0.0876958193257451,,,,4.117714999999999e-05,4.117714999999999e-05
263,0.11506352317519486,0.09092455171048641,,,,4.117714999999999e-05,4.117714999999999e-05
264,0.11854934226721525,0.0904790610074997,,,,4.117714999999999e-05,4.117714999999999e-05
265,0.12347180279903114,0.08921343646943569,,,,4.117714999999999e-05,4.117714999999999e-05
266,0.11617158842273057,0.0899534123018384,,,,4.117714999999999e-05,4.117714999999999e-05
267,0.118709473637864,0.09045516233891249,,,,4.117714999999999e-05,4.117714999999999e-05
268,0.11436449852772057,0.09070056863129139,,,,4.117714999999999e-05,4.117714999999999e-05
269,0.1170848801266402,0.08913125284016132,,,,4.117714999999999e-05,4.117714999999999e-05
270,0.11445972684305161,0.09039691928774118,,,,2.8824004999999994e-05,2.8824004999999994e-05
271,0.11771097301971167,0.08665345702320337,,,,2.8824004999999994e-05,2.8824004999999994e-05
272,0.114398023346439,0.09382604714483023,,,,2.8824004999999994e-05,2.8824004999999994e-05
273,0.11431016819551587,0.0905444910749793,,,,2.8824004999999994e-05,2.8824004999999994e-05
274,0.12001479300670326,0.08887351863086224,,,,2.8824004999999994e-05,2.8824004999999994e-05
275,0.11834246781654656,0.08950929995626211,,,,2.8824004999999994e-05,2.8824004999999994e-05
276,0.11563357233535498,0.08852219767868519,,,,2.8824004999999994e-05,2.8824004999999994e-05
277,0.11609475396107882,0.09035085700452328,,,,2.8824004999999994e-05,2.8824004999999994e-05
278,0.11580314848106354,0.08914416842162609,,,,2.8824004999999994e-05,2.8824004999999994e-05
279,0.11495328601449728,0.08735674433410168,,,,2.8824004999999994e-05,2.8824004999999994e-05
280,0.1154309215489775,0.09062833152711391,,,,2.8824004999999994e-05,2.8824004999999994e-05
281,0.11409878078848124,0.0886680968105793,,,,2.8824004999999994e-05,2.8824004999999994e-05
282,0.1136366673745215,0.08920889534056187,,,,2.0176803499999996e-05,2.0176803499999996e-05
283,0.11552590900100768,0.09135531354695559,,,,2.0176803499999996e-05,2.0176803499999996e-05
284,0.11562179506290704,0.08920944947749376,,,,2.0176803499999996e-05,2.0176803499999996e-05
285,0.11919357685837895,0.08856872469186783,,,,2.0176803499999996e-05,2.0176803499999996e-05
286,0.11663668882101774,0.0883746687322855,,,,2.0176803499999996e-05,2.0176803499999996e-05
287,0.11525640729814768,0.0892848800867796,,,,2.0176803499999996e-05,2.0176803499999996e-05
288,0.1215790940914303,0.08990021049976349,,,,2.0176803499999996e-05,2.0176803499999996e-05
289,0.11689084582030773,0.08802505210042,,,,2.0176803499999996e-05,2.0176803499999996e-05
290,0.11501073418185115,0.08776952419430017,,,,2.0176803499999996e-05,2.0176803499999996e-05
291,0.11567078810185194,0.09006089996546507,,,,2.0176803499999996e-05,2.0176803499999996e-05
292,0.11615177523344755,0.09019057266414165,,,,2.0176803499999996e-05,2.0176803499999996e-05
293,0.12040021014399827,0.09003477077931166,,,,1.4123762449999997e-05,1.4123762449999997e-05
294,0.11673390178475529,0.08887073677033186,,,,1.4123762449999997e-05,1.4123762449999997e-05
295,0.11734183761291206,0.08943585492670536,,,,1.4123762449999997e-05,1.4123762449999997e-05
296,0.11386896041221917,0.09063359163701534,,,,1.4123762449999997e-05,1.4123762449999997e-05
297,0.11638785968534648,0.0926272626966238,,,,1.4123762449999997e-05,1.4123762449999997e-05
298,0.11732479115016758,0.08777988143265247,,,,1.4123762449999997e-05,1.4123762449999997e-05
299,0.11261337751056999,0.09028444066643715,,,,1.4123762449999997e-05,1.4123762449999997e-05
