epoch,train_loss,eval_loss,f1_score,precision,recall,lr,adam_lr
0,1.7640347108244896,1.753439575433731,,,,0.0005,0.0005
1,1.7046607211232185,1.7010532319545746,,,,0.0005,0.0005
2,1.6450538262724876,1.6462363600730896,,,,0.0005,0.0005
3,1.5963034480810165,1.5909431278705597,,,,0.0005,0.0005
4,1.5408289581537247,1.5313789248466492,,,,0.0005,0.0005
5,1.4899716228246689,1.476380318403244,,,,0.0005,0.0005
6,1.429132729768753,1.4159493744373322,,,,0.0005,0.0005
7,1.3710580617189407,1.3626254200935364,,,,0.0005,0.0005
8,1.2958705574274063,1.2801000475883484,,,,0.0005,0.0005
9,1.2121740207076073,1.1849594116210938,,,,0.0005,0.0005
10,1.1117346175014973,1.0731162428855896,,,,0.0005,0.0005
11,0.9924841783940792,0.9405613243579865,,,,0.0005,0.0005
12,0.8401809819042683,0.7719602584838867,,,,0.0005,0.0005
13,0.6613330282270908,0.5684569180011749,,,,0.0005,0.0005
14,0.44142461009323597,0.3441224694252014,,,,0.0005,0.0005
15,0.24145098868757486,0.1933966651558876,,,,0.0005,0.0005
16,0.15767898689955473,0.15816738083958626,,,,0.0005,0.0005
17,0.14821695443242788,0.15698105283081532,,,,0.0005,0.0005
18,0.14663783321157098,0.15566681697964668,,,,0.0005,0.0005
19,0.14097908604890108,0.15479804016649723,,,,0.0005,0.0005
20,0.1404339843429625,0.1509158294647932,,,,0.0005,0.0005
21,0.13867889065295458,0.147684583440423,,,,0.0005,0.0005
22,0.13568839663639665,0.14838528260588646,,,,0.0005,0.0005
23,0.1326876194216311,0.1443153377622366,,,,0.0005,0.0005
24,0.13265749905258417,0.14085721224546432,,,,0.0005,0.0005
25,0.13203579001128674,0.1401227656751871,,,,0.0005,0.0005
26,0.12554754642769694,0.13669447414577007,,,,0.0005,0.0005
27,0.1218779671471566,0.12706316448748112,,,,0.0005,0.0005
28,0.11735952086746693,0.1251672487705946,,,,0.0005,0.0005
29,0.11248091794550419,0.12202722765505314,,,,0.0005,0.0005
30,0.10859124455600977,0.11823471263051033,,,,0.0005,0.0005
31,0.1074587011244148,0.11470616236329079,,,,0.0005,0.0005
32,0.10659189941361547,0.11354486085474491,,,,0.0005,0.0005
33,0.10171586344949901,0.11014288663864136,,,,0.0005,0.0005
34,0.1011662392411381,0.10608825832605362,,,,0.0005,0.0005
35,0.09821870038285851,0.1038843784481287,,,,0.0005,0.0005
36,0.09546489804051816,0.10338261723518372,,,,0.0005,0.0005
37,0.09313088096678257,0.1018831841647625,,,,0.0005,0.0005
38,0.09408505517058074,0.0978747196495533,,,,0.0005,0.0005
39,0.09153032908216119,0.09757360257208347,,,,0.0005,0.0005
40,0.09043135913088918,0.09737790282815695,,,,0.0005,0.0005
41,0.08674196270294487,0.09329984989017248,,,,0.0005,0.0005
42,0.08677154500037432,0.09156173747032881,,,,0.0005,0.0005
43,0.08754892484284937,0.0907814484089613,,,,0.0005,0.0005
44,0.0858438384020701,0.08933187834918499,,,,0.0005,0.0005
45,0.08330648229457438,0.0874393554404378,,,,0.0005,0.0005
46,0.08307996077928692,0.08834993932396173,,,,0.0005,0.0005
47,0.08384203910827637,0.08718203846365213,,,,0.0005,0.0005
48,0.08150493318680674,0.08753921929746866,,,,0.0005,0.0005
49,0.07980680861510336,0.08591033332049847,,,,0.0005,0.0005
50,0.07883645058609545,0.08416601736098528,,,,0.0005,0.0005
51,0.07931570429354906,0.08456051163375378,,,,0.0005,0.0005
52,0.07845153170637786,0.08269255515187979,,,,0.0005,0.0005
53,0.077763611683622,0.07958021853119135,,,,0.0005,0.0005
54,0.08085757796652615,0.08082505594938993,,,,0.0005,0.0005
55,0.0770287171471864,0.07806882821023464,,,,0.0005,0.0005
56,0.07809638953767717,0.08011728152632713,,,,0.0005,0.0005
57,0.07551194704137743,0.07954195328056812,,,,0.0005,0.0005
58,0.0766831012442708,0.07892570737749338,,,,0.0005,0.0005
59,0.07452978997025639,0.08142495155334473,,,,0.0005,0.0005
60,0.07472547818906605,0.07912483904510736,,,,0.0005,0.0005
61,0.07470640703104436,0.07618347089737654,,,,0.0005,0.0005
62,0.07249582163058221,0.07723022159188986,,,,0.0005,0.0005
63,0.07320926687680185,0.07779460493475199,,,,0.0005,0.0005
64,0.07355409418232739,0.074226139113307,,,,0.0005,0.0005
65,0.07163588074035943,0.07715810649096966,,,,0.0005,0.0005
66,0.07394724269397557,0.07330965157598257,,,,0.0005,0.0005
67,0.07071745791472495,0.07232336513698101,,,,0.0005,0.0005
68,0.07157061039470136,0.07074567023664713,,,,0.0005,0.0005
69,0.070539845735766,0.0742479432374239,,,,0.0005,0.0005
70,0.06840748793911189,0.07252239622175694,,,,0.0005,0.0005
71,0.07112647546455264,0.07075920607894659,,,,0.0005,0.0005
72,0.06860070838592947,0.07244330737739801,,,,0.0005,0.0005
73,0.0669432757422328,0.06959808431565762,,,,0.0005,0.0005
74,0.0668362039141357,0.06821039598435163,,,,0.0005,0.0005
75,0.06896067212801427,0.0694358441978693,,,,0.0005,0.0005
76,0.06421300093643367,0.0695811090990901,,,,0.0005,0.0005
77,0.06455148849636316,0.067132662050426,,,,0.0005,0.0005
78,0.06347799208015203,0.06937825679779053,,,,0.0005,0.0005
79,0.06311994616407901,0.06868155300617218,,,,0.0005,0.0005
80,0.060748735442757607,0.06340272910892963,,,,0.0005,0.0005
81,0.06751358846668154,0.06461085472255945,,,,0.0005,0.0005
82,0.0630857227370143,0.06564836297184229,,,,0.0005,0.0005
83,0.0617567275185138,0.06298848986625671,,,,0.0005,0.0005
84,0.06359594408422709,0.06400910951197147,,,,0.0005,0.0005
85,0.06110330217052251,0.0603269562125206,,,,0.0005,0.0005
86,0.059225663426332176,0.0596728278324008,,,,0.0005,0.0005
87,0.06045122933574021,0.05783112067729235,,,,0.0005,0.0005
88,0.059923032647930086,0.059555236250162125,,,,0.0005,0.0005
89,0.057317094411700964,0.058580296114087105,,,,0.0005,0.0005
90,0.05746027361601591,0.05616996716707945,,,,0.0005,0.0005
91,0.05674911511596292,0.055327956564724445,,,,0.0005,0.0005
92,0.054626904195174575,0.05690094269812107,,,,0.0005,0.0005
93,0.05481270351447165,0.056378427892923355,,,,0.0005,0.0005
94,0.05249362497124821,0.05199335049837828,,,,0.0005,0.0005
95,0.05244851252064109,0.05388520751148462,,,,0.0005,0.0005
96,0.0525147708831355,0.05072195688262582,,,,0.0005,0.0005
97,0.05064747319556773,0.049472718965262175,,,,0.0005,0.0005
98,0.05009899765718728,0.05044896621257067,,,,0.0005,0.0005
99,0.05094802693929523,0.04759412771090865,,,,0.0005,0.0005
100,0.049287960515357554,0.04797492502257228,,,,0.0005,0.0005
101,0.04887862270697951,0.04878541687503457,,,,0.0005,0.0005
102,0.047354258014820516,0.0463751838542521,,,,0.0005,0.0005
103,0.04702277248725295,0.044923740439116955,,,,0.0005,0.0005
104,0.04560539987869561,0.045404086355119944,,,,0.0005,0.0005
105,0.046809274528641254,0.04400957841426134,,,,0.0005,0.0005
106,0.043418096902314574,0.041364749893546104,,,,0.0005,0.0005
107,0.04127258720109239,0.04019716149196029,,,,0.0005,0.0005
108,0.039742145454511046,0.0348757766187191,,,,0.0005,0.0005
109,0.03722754574846476,0.03550896933302283,,,,0.0005,0.0005
110,0.038212984072742984,0.034721777541562915,,,,0.0005,0.0005
111,0.03567646280862391,0.03340287017636001,,,,0.0005,0.0005
112,0.034902700601378456,0.030705380719155073,,,,0.0005,0.0005
113,0.033716568432282656,0.030164977768436074,,,,0.0005,0.0005
114,0.03287712737801485,0.030376599170267582,,,,0.0005,0.0005
115,0.03305611200630665,0.03143879468552768,,,,0.0005,0.0005
116,0.032831220829393715,0.03112202393822372,,,,0.0005,0.0005
117,0.03121033700881526,0.03078574826940894,,,,0.0005,0.0005
118,0.03126430246629752,0.031018615467473865,,,,0.0005,0.0005
119,0.03073000011499971,0.028144679497927427,,,,0.0005,0.0005
120,0.03346960342605598,0.027530285296961665,,,,0.0005,0.0005
121,0.03538477222900838,0.029404290486127138,,,,0.0005,0.0005
122,0.03120913149905391,0.029832740779966116,,,,0.0005,0.0005
123,0.02962020313134417,0.028433167142793536,,,,0.0005,0.0005
124,0.032374985399656,0.031111946795135736,,,,0.0005,0.0005
125,0.030488311575027183,0.028196570929139853,,,,0.0005,0.0005
126,0.031010496197268367,0.026414908468723297,,,,0.0005,0.0005
127,0.029423859668895602,0.026192832738161087,,,,0.0005,0.0005
128,0.031067530246218666,0.031385913491249084,,,,0.0005,0.0005
129,0.031449131085537374,0.02604222483932972,,,,0.0005,0.0005
130,0.02860755947767757,0.0273189686704427,,,,0.0005,0.0005
131,0.0292089557624422,0.025699194287881255,,,,0.0005,0.0005
132,0.028391610161634162,0.02543357014656067,,,,0.0005,0.0005
133,0.028161788097349927,0.025297130225226283,,,,0.0005,0.0005
134,0.030706519464729354,0.02501912252046168,,,,0.0005,0.0005
135,0.02920474362326786,0.025705070700496435,,,,0.0005,0.0005
136,0.02990677807247266,0.025873025646433234,,,,0.0005,0.0005
137,0.028531991032650694,0.025976106291636825,,,,0.0005,0.0005
138,0.03158506375621073,0.02615761198103428,,,,0.0005,0.0005
139,0.027330269425874576,0.023515126667916775,,,,0.0005,0.0005
140,0.02894803322851658,0.028259522980079055,,,,0.0005,0.0005
141,0.03166094812331721,0.025712469592690468,,,,0.0005,0.0005
142,0.027154983370564878,0.026835082797333598,,,,0.0005,0.0005
143,0.029294619482243434,0.024406502139754593,,,,0.0005,0.0005
144,0.0266539235599339,0.024606697028502822,,,,0.0005,0.0005
145,0.029097547580022365,0.026862368918955326,,,,0.0005,0.0005
146,0.030298739206045866,0.027509966399520636,,,,0.0005,0.0005
147,0.02914389385841787,0.026247475063428283,,,,0.0005,0.0005
148,0.028476220497395843,0.026069264160469174,,,,0.0005,0.0005
149,0.02751818860997446,0.02696192730218172,,,,0.0005,0.0005
150,0.029376367398072034,0.024579385994002223,,,,0.00035,0.00035
151,0.027455273579107597,0.023403161205351353,,,,0.00035,0.00035
152,0.027030596451368183,0.026180530316196382,,,,0.00035,0.00035
153,0.027056929684476927,0.02439309295732528,,,,0.00035,0.00035
154,0.02726056046958547,0.02291600569151342,,,,0.00035,0.00035
155,0.026107310637598857,0.024756320752203465,,,,0.00035,0.00035
156,0.029872406914364547,0.025740615092217922,,,,0.00035,0.00035
157,0.026664796692784876,0.02361582696903497,,,,0.00035,0.00035
158,0.029340694134589285,0.02254590834490955,,,,0.00035,0.00035
159,0.027620892418781295,0.023700884776189923,,,,0.00035,0.00035
160,0.02964571796474047,0.022979728179052472,,,,0.00035,0.00035
161,0.02614587187417783,0.025374645367264748,,,,0.00035,0.00035
162,0.02729188810917549,0.026705509517341852,,,,0.00035,0.00035
163,0.028062448604032397,0.024445690447464585,,,,0.00035,0.00035
164,0.026854457712033764,0.023615748737938702,,,,0.00035,0.00035
165,0.026097576395841315,0.025131970294751227,,,,0.00035,0.00035
166,0.027381135208997875,0.02154077508021146,,,,0.00035,0.00035
167,0.028026155254337937,0.025390839437022805,,,,0.00035,0.00035
168,0.024774311837973073,0.02123289741575718,,,,0.00035,0.00035
169,0.027169131441041827,0.02290455240290612,,,,0.00035,0.00035
170,0.02531912736594677,0.024357472197152674,,,,0.00035,0.00035
171,0.025997999269748107,0.025094017735682428,,,,0.00035,0.00035
172,0.02785907546058297,0.024638659437187016,,,,0.00035,0.00035
173,0.028104456287110224,0.023227595491334796,,,,0.00035,0.00035
174,0.02575246267952025,0.022781356470659375,,,,0.00035,0.00035
175,0.026769421456265263,0.02386222663335502,,,,0.00035,0.00035
176,0.028644134901696816,0.025621267268434167,,,,0.00035,0.00035
177,0.025818557391176,0.024329845909960568,,,,0.00035,0.00035
178,0.025796613335842267,0.02275711391121149,,,,0.00035,0.00035
179,0.027505192992975935,0.023183424375019968,,,,0.000245,0.000245
180,0.026983183692209423,0.02406438288744539,,,,0.000245,0.000245
181,0.027479004522319883,0.02188836643472314,,,,0.000245,0.000245
182,0.027123866137117147,0.022020032280124724,,,,0.000245,0.000245
183,0.026144754694541916,0.022379051079042256,,,,0.000245,0.000245
184,0.026800901599926874,0.02684119564946741,,,,0.000245,0.000245
185,0.02615510145551525,0.022388047422282398,,,,0.000245,0.000245
186,0.026172674726694822,0.02243818307761103,,,,0.000245,0.000245
187,0.025602162873838097,0.023470900836400688,,,,0.000245,0.000245
188,0.030105324578471482,0.022333023138344288,,,,0.000245,0.000245
189,0.02558515578857623,0.024866286083124578,,,,0.000245,0.000245
190,0.026380698138382286,0.022261318285018206,,,,0.0001715,0.0001715
191,0.025126785883912817,0.021949521964415908,,,,0.0001715,0.0001715
192,0.02621695477864705,0.023179095122031868,,,,0.0001715,0.0001715
193,0.027414246389525943,0.0214252769947052,,,,0.0001715,0.0001715
194,0.02615798418992199,0.023275793762877584,,,,0.0001715,0.0001715
195,0.02621242217719555,0.023321088403463364,,,,0.0001715,0.0001715
196,0.025814400432864204,0.02311132347676903,,,,0.0001715,0.0001715
197,0.02759737931773998,0.021951590315438807,,,,0.0001715,0.0001715
198,0.027636303304461762,0.02333076309878379,,,,0.0001715,0.0001715
199,0.02557311821146868,0.024559398414567113,,,,0.0001715,0.0001715
200,0.02545294925221242,0.023453450296074152,,,,0.0001715,0.0001715
201,0.026104947261046618,0.021220109658315778,,,,0.0001715,0.0001715
202,0.024874546012142673,0.02167087933048606,,,,0.0001715,0.0001715
203,0.024789557239273563,0.025269556092098355,,,,0.0001715,0.0001715
204,0.02772495300450828,0.023062890744768083,,,,0.0001715,0.0001715
205,0.025352368800668046,0.022373421932570636,,,,0.0001715,0.0001715
206,0.02696434718382079,0.020909303333610296,,,,0.0001715,0.0001715
207,0.026236489531584084,0.021945310989394784,,,,0.0001715,0.0001715
208,0.02619951980886981,0.023321366985328496,,,,0.0001715,0.0001715
209,0.026127024582820013,0.022040607873350382,,,,0.0001715,0.0001715
210,0.026108203281182796,0.022140652406960726,,,,0.0001715,0.0001715
211,0.025469461659668013,0.022233168478123844,,,,0.0001715,0.0001715
212,0.024504001965397038,0.020908985403366387,,,,0.0001715,0.0001715
213,0.025656081619672477,0.022639491595327854,,,,0.0001715,0.0001715
214,0.027522423857590184,0.024601707002148032,,,,0.0001715,0.0001715
215,0.02600821797386743,0.022193675744347274,,,,0.0001715,0.0001715
216,0.026999421330401674,0.02476468007080257,,,,0.0001715,0.0001715
217,0.025884251852403395,0.020607713842764497,,,,0.0001715,0.0001715
218,0.027038125874241814,0.022378730005584657,,,,0.0001715,0.0001715
219,0.026418093970278278,0.022227239911444485,,,,0.0001715,0.0001715
220,0.027404002234106883,0.021640920895151794,,,,0.0001715,0.0001715
221,0.02641444600885734,0.02199274965096265,,,,0.0001715,0.0001715
222,0.02591992125962861,0.023721250123344362,,,,0.0001715,0.0001715
223,0.02488670905586332,0.022999341716058552,,,,0.0001715,0.0001715
224,0.026481125270947814,0.024930200539529324,,,,0.0001715,0.0001715
225,0.028893410140881315,0.022969503654167056,,,,0.0001715,0.0001715
226,0.025524915632558987,0.02344314439687878,,,,0.0001715,0.0001715
227,0.0263188798999181,0.021398037672042847,,,,0.0001715,0.0001715
228,0.02737660045386292,0.023879996850155294,,,,0.00012004999999999999,0.00012004999999999999
229,0.029216018883744255,0.021889849682338536,,,,0.00012004999999999999,0.00012004999999999999
230,0.025305601069703698,0.02230392349883914,,,,0.00012004999999999999,0.00012004999999999999
231,0.026180878863669932,0.022743363049812615,,,,0.00012004999999999999,0.00012004999999999999
232,0.02630679981666617,0.023000980610959232,,,,0.00012004999999999999,0.00012004999999999999
233,0.025854041683487594,0.023286248208023608,,,,0.00012004999999999999,0.00012004999999999999
234,0.025782833399716765,0.021275772829540074,,,,0.00012004999999999999,0.00012004999999999999
235,0.026187925453996286,0.022776135592721403,,,,0.00012004999999999999,0.00012004999999999999
236,0.025096730299992487,0.02204419276677072,,,,0.00012004999999999999,0.00012004999999999999
237,0.02548666541406419,0.022052071406506002,,,,0.00012004999999999999,0.00012004999999999999
238,0.025274205370806158,0.02225365478079766,,,,0.00012004999999999999,0.00012004999999999999
239,0.02587245643371716,0.02184354525525123,,,,8.403499999999999e-05,8.403499999999999e-05
240,0.025638856357545592,0.02260435465723276,,,,8.403499999999999e-05,8.403499999999999e-05
241,0.024310669832630083,0.0213647821219638,,,,8.403499999999999e-05,8.403499999999999e-05
242,0.027205020931432955,0.022014356567524374,,,,8.403499999999999e-05,8.403499999999999e-05
243,0.025791720996494405,0.02297094522509724,,,,8.403499999999999e-05,8.403499999999999e-05
244,0.027584942639805377,0.02191757969558239,,,,8.403499999999999e-05,8.403499999999999e-05
245,0.027046388102462515,0.021978904609568417,,,,8.403499999999999e-05,8.403499999999999e-05
246,0.025207902916008607,0.021465632366016507,,,,8.403499999999999e-05,8.403499999999999e-05
247,0.026490553631447256,0.022000017925165594,,,,8.403499999999999e-05,8.403499999999999e-05
248,0.026555446325801313,0.022973299608565867,,,,8.403499999999999e-05,8.403499999999999e-05
249,0.027202004188438877,0.022297824849374592,,,,8.403499999999999e-05,8.403499999999999e-05
250,0.02480993716744706,0.020945735857822,,,,5.882449999999999e-05,5.882449999999999e-05
251,0.02461314617539756,0.023282349691726267,,,,5.882449999999999e-05,5.882449999999999e-05
252,0.026179448323091492,0.022630188846960664,,,,5.882449999999999e-05,5.882449999999999e-05
253,0.02598541417683009,0.022310744039714336,,,,5.882449999999999e-05,5.882449999999999e-05
254,0.02641967436647974,0.023134118993766606,,,,5.882449999999999e-05,5.882449999999999e-05
255,0.027640619431622326,0.02311908721458167,,,,5.882449999999999e-05,5.882449999999999e-05
256,0.026790610747411847,0.02332418051082641,,,,5.882449999999999e-05,5.882449999999999e-05
257,0.02616880732239224,0.021300866035744548,,,,5.882449999999999e-05,5.882449999999999e-05
258,0.025445416846196167,0.023380225175060332,,,,5.882449999999999e-05,5.882449999999999e-05
259,0.02460711209278088,0.021617137594148517,,,,5.882449999999999e-05,5.882449999999999e-05
260,0.02524367591831833,0.021246609278023243,,,,5.882449999999999e-05,5.882449999999999e-05
261,0.024396575056016445,0.020967253600247204,,,,4.117714999999999e-05,4.117714999999999e-05
262,0.02587444317759946,0.020797437289729714,,,,4.117714999999999e-05,4.117714999999999e-05
263,0.025788991973968223,0.023093941854313016,,,,4.117714999999999e-05,4.117714999999999e-05
264,0.028426675911759958,0.023459523799829185,,,,4.117714999999999e-05,4.117714999999999e-05
265,0.028351531218504533,0.022213239688426256,,,,4.117714999999999e-05,4.117714999999999e-05
266,0.026290604757377878,0.021877114195376635,,,,4.117714999999999e-05,4.117714999999999e-05
267,0.027989671361865476,0.021513006067834795,,,,4.117714999999999e-05,4.117714999999999e-05
268,0.02461227774620056,0.02310969273094088,,,,4.117714999999999e-05,4.117714999999999e-05
269,0.02608296558901202,0.02252184529788792,,,,4.117714999999999e-05,4.117714999999999e-05
270,0.024782265580142848,0.022936266264878213,,,,4.117714999999999e-05,4.117714999999999e-05
271,0.026435625652084127,0.019232130725868046,,,,4.117714999999999e-05,4.117714999999999e-05
272,0.02499126608017832,0.02353076741565019,,,,4.117714999999999e-05,4.117714999999999e-05
273,0.02529074958874844,0.021993685164488852,,,,4.117714999999999e-05,4.117714999999999e-05
274,0.028923258476424962,0.021632593823596835,,,,4.117714999999999e-05,4.117714999999999e-05
275,0.025121151644270867,0.022290086024440825,,,,4.117714999999999e-05,4.117714999999999e-05
276,0.026211930467979982,0.022917506750673056,,,,4.117714999999999e-05,4.117714999999999e-05
277,0.0248238883796148,0.022616877336986363,,,,4.117714999999999e-05,4.117714999999999e-05
278,0.027247674559475854,0.02184472407680005,,,,4.117714999999999e-05,4.117714999999999e-05
279,0.02496972813969478,0.020519446581602097,,,,4.117714999999999e-05,4.117714999999999e-05
280,0.02611538472410757,0.02235138905234635,,,,4.117714999999999e-05,4.117714999999999e-05
281,0.02429286894039251,0.02162738179322332,,,,4.117714999999999e-05,4.117714999999999e-05
282,0.024892841727705672,0.021872408571653068,,,,2.8824004999999994e-05,2.8824004999999994e-05
283,0.02470335415273439,0.02297778963111341,,,,2.8824004999999994e-05,2.8824004999999994e-05
284,0.024624004639917985,0.023358484148047864,,,,2.8824004999999994e-05,2.8824004999999994e-05
285,0.0270393674436491,0.02159605291672051,,,,2.8824004999999994e-05,2.8824004999999994e-05
286,0.02623482351191342,0.0214760466478765,,,,2.8824004999999994e-05,2.8824004999999994e-05
287,0.025182736178976484,0.021718654432334006,,,,2.8824004999999994e-05,2.8824004999999994e-05
288,0.02710394155292306,0.022327258135192096,,,,2.8824004999999994e-05,2.8824004999999994e-05
289,0.02596222667489201,0.021461940370500088,,,,2.8824004999999994e-05,2.8824004999999994e-05
290,0.025754062851774506,0.020527549320831895,,,,2.8824004999999994e-05,2.8824004999999994e-05
291,0.025605415750760585,0.02284647128544748,,,,2.8824004999999994e-05,2.8824004999999994e-05
292,0.025319793436210603,0.022260118857957423,,,,2.8824004999999994e-05,2.8824004999999994e-05
293,0.031089672935195267,0.02183803590014577,,,,2.0176803499999996e-05,2.0176803499999996e-05
294,0.026033651578472927,0.021781587973237038,,,,2.0176803499999996e-05,2.0176803499999996e-05
295,0.02749537699855864,0.02203147578984499,,,,2.0176803499999996e-05,2.0176803499999996e-05
296,0.025548876204993576,0.022813573479652405,,,,2.0176803499999996e-05,2.0176803499999996e-05
297,0.026625861646607518,0.02470424643252045,,,,2.0176803499999996e-05,2.0176803499999996e-05
298,0.025421833561267704,0.021357081132009625,,,,2.0176803499999996e-05,2.0176803499999996e-05
299,0.02435522637097165,0.021187661215662956,,,,2.0176803499999996e-05,2.0176803499999996e-05
